checking_status;duration;credit_history;credit_amount;savings_status;employment;installment_commitment;other_parties;residence_since;property_magnitude;age;other_payment_plans;housing;existing_credits;job;num_dependents;own_telephone;foreign_worker;class;purpose_'domestic appliance';purpose_'new car';purpose_'used car';purpose_business;purpose_education;purpose_furniture/equipment;purpose_other;purpose_radio/tv;purpose_repairs;purpose_retraining;personal_status_'female div/dep/mar';personal_status_'male div/sep';personal_status_'male mar/wid';personal_status_'male single'
1;6;1;1169;5;4;4;2;4;4;67;3;3;2;3;1;1;1;1;0;0;0;0;0;0;0;1;0;0;0;0;0;1
2;48;3;5951;1;3;2;2;2;4;22;3;3;1;3;1;0;1;0;0;0;0;0;0;0;0;1;0;0;1;0;0;0
4;12;1;2096;1;5;2;2;3;4;49;3;3;1;4;2;0;1;1;0;0;0;0;1;0;0;0;0;0;0;0;0;1
1;42;3;7882;1;5;2;3;4;3;45;3;2;1;3;2;0;1;1;0;0;0;0;0;1;0;0;0;0;0;0;0;1
1;24;2;4870;1;3;3;2;4;1;53;3;2;2;3;2;0;1;0;0;1;0;0;0;0;0;0;0;0;0;0;0;1
4;36;3;9055;5;3;2;2;4;1;35;3;2;1;4;2;1;1;1;0;0;0;0;1;0;0;0;0;0;0;0;0;1
4;24;3;2835;3;4;3;2;4;3;53;3;3;1;3;1;0;1;1;0;0;0;0;0;1;0;0;0;0;0;0;0;1
2;36;3;6948;1;3;2;2;2;2;35;3;1;1;1;1;1;1;1;0;0;1;0;0;0;0;0;0;0;0;0;0;1
4;12;3;3059;4;5;2;2;4;4;61;3;3;1;4;1;0;1;1;0;0;0;0;0;0;0;1;0;0;0;1;0;0
2;30;1;5234;1;2;4;2;2;2;28;3;3;2;1;1;0;1;0;0;1;0;0;0;0;0;0;0;0;0;0;1;0
2;12;3;1295;1;1;3;2;1;2;25;3;1;1;3;1;0;1;0;0;1;0;0;0;0;0;0;0;0;1;0;0;0
1;48;3;4308;1;1;3;2;4;3;24;3;1;1;3;1;0;1;0;0;0;0;1;0;0;0;0;0;0;1;0;0;0
2;12;3;1567;1;3;1;2;1;2;22;3;3;1;3;1;1;1;1;0;0;0;0;0;0;0;1;0;0;1;0;0;0
1;24;1;1199;1;4;4;2;4;2;60;3;3;2;4;1;0;1;0;0;1;0;0;0;0;0;0;0;0;0;0;0;1
1;15;3;1403;1;3;2;2;4;2;28;3;1;1;3;1;0;1;1;0;1;0;0;0;0;0;0;0;0;1;0;0;0
1;24;3;1282;2;3;4;2;2;2;32;3;3;1;4;1;0;1;0;0;0;0;0;0;0;0;1;0;0;1;0;0;0
4;24;1;2424;5;4;4;2;4;3;53;3;3;2;3;1;0;1;1;0;0;0;0;0;0;0;1;0;0;0;0;0;1
1;30;4;8072;5;1;2;2;3;2;25;1;3;3;3;1;0;1;1;0;0;0;1;0;0;0;0;0;0;0;0;0;1
2;24;3;12579;1;4;4;2;2;1;44;3;2;1;1;1;1;1;0;0;0;1;0;0;0;0;0;0;0;1;0;0;0
4;24;3;3430;3;4;3;2;2;2;31;3;3;1;3;2;1;1;1;0;0;0;0;0;0;0;1;0;0;0;0;0;1
4;9;1;2134;1;3;4;2;4;2;48;3;3;3;3;1;1;1;1;0;1;0;0;0;0;0;0;0;0;0;0;0;1
1;6;3;2647;3;3;2;2;3;4;44;3;1;1;3;2;0;1;1;0;0;0;0;0;0;0;1;0;0;0;0;0;1
1;10;1;2241;1;1;1;2;3;4;48;3;1;2;4;2;0;0;1;0;1;0;0;0;0;0;0;0;0;0;0;0;1
2;12;1;1804;2;1;3;2;4;3;44;3;3;1;3;1;0;1;1;0;0;1;0;0;0;0;0;0;0;0;0;0;1
4;10;1;2069;5;3;2;2;1;2;26;3;3;2;3;1;0;0;1;0;0;0;0;0;1;0;0;0;0;0;0;1;0
1;6;3;1374;1;3;1;2;2;4;36;1;3;1;4;1;1;1;1;0;0;0;0;0;1;0;0;0;0;0;0;0;1
4;6;4;426;1;4;4;2;4;2;39;3;3;1;4;1;0;1;1;0;0;0;0;0;0;0;1;0;0;0;0;1;0
3;12;5;409;4;3;3;2;3;4;42;3;1;2;3;1;0;1;1;0;0;0;0;0;0;0;1;0;0;1;0;0;0
2;7;3;2415;1;3;3;3;2;4;34;3;3;1;3;1;0;1;1;0;0;0;0;0;0;0;1;0;0;0;0;0;1
1;60;2;6836;1;4;3;2;4;1;63;3;3;2;3;1;1;1;0;0;0;0;1;0;0;0;0;0;0;0;0;0;1
2;18;3;1913;4;1;3;2;3;4;36;1;3;1;3;1;1;1;1;0;0;0;1;0;0;0;0;0;0;0;0;1;0
1;24;3;4020;1;3;2;2;2;2;27;2;3;1;3;1;0;1;1;0;0;0;0;0;1;0;0;0;0;0;0;0;1
2;18;3;5866;2;3;2;2;2;2;30;3;3;2;3;1;1;1;1;0;1;0;0;0;0;0;0;0;0;0;0;0;1
4;12;1;1264;5;4;4;2;4;1;57;3;1;1;4;1;0;1;1;0;0;0;1;0;0;0;0;0;0;0;0;0;1
4;48;1;6110;1;3;1;2;3;1;31;1;2;1;3;1;1;1;1;0;0;0;0;1;0;0;0;0;0;0;0;0;1
3;18;3;2100;1;3;4;1;2;4;37;2;3;1;3;1;0;1;0;0;0;0;0;0;0;0;1;0;0;0;0;0;1
3;10;3;1225;1;3;2;2;2;2;37;3;3;1;3;1;1;1;1;1;0;0;0;0;0;0;0;0;0;0;0;0;1
2;9;3;458;1;3;4;2;3;4;24;3;3;1;3;1;0;1;1;0;0;0;0;0;0;0;1;0;0;0;0;0;1
4;30;3;2333;3;4;4;2;2;2;30;1;3;1;1;1;0;1;1;0;0;0;0;0;0;0;1;0;0;0;0;0;1
2;18;2;6204;1;3;2;2;4;4;44;3;3;1;4;2;1;1;1;0;0;0;0;0;0;0;0;1;0;0;0;0;1
1;30;1;6187;2;5;1;2;4;2;24;3;1;2;3;1;0;1;1;0;0;1;0;0;0;0;0;0;0;0;0;1;0
1;48;1;6143;1;4;4;2;4;1;58;2;2;2;4;1;0;1;0;0;0;1;0;0;0;0;0;0;0;1;0;0;0
4;11;1;1393;1;1;4;2;4;2;35;3;3;2;1;1;0;1;1;0;1;0;0;0;0;0;0;0;0;1;0;0;0
4;36;3;2299;3;4;4;2;4;2;39;3;3;1;3;1;0;1;1;0;0;0;0;0;0;0;1;0;0;0;0;0;1
1;6;3;1352;3;2;1;2;2;3;23;3;1;1;2;1;1;1;1;0;0;1;0;0;0;0;0;0;0;1;0;0;0
4;11;1;7228;1;3;1;2;4;3;39;3;3;2;4;1;0;1;1;0;1;0;0;0;0;0;0;0;0;0;0;0;1
4;12;3;2073;2;3;4;1;2;4;28;3;3;1;3;1;0;1;1;0;0;0;0;0;0;0;1;0;0;1;0;0;0
2;24;2;2333;5;1;4;2;2;3;29;1;3;1;4;1;0;1;1;0;0;0;0;0;1;0;0;0;0;0;0;0;1
2;27;2;5965;1;4;1;2;2;2;30;3;3;2;1;1;1;1;1;0;0;1;0;0;0;0;0;0;0;0;0;0;1
4;12;3;1262;1;3;3;2;2;2;25;3;3;1;3;1;0;1;1;0;0;0;0;0;0;0;1;0;0;0;0;0;1
4;18;3;3378;5;3;2;2;1;3;31;3;3;1;3;1;1;1;1;0;0;1;0;0;0;0;0;0;0;0;0;0;1
2;36;2;2225;1;4;4;2;4;1;57;1;2;2;3;1;1;1;0;0;1;0;0;0;0;0;0;0;0;0;0;0;1
4;6;5;783;5;3;1;3;2;4;26;2;3;1;4;2;0;1;1;0;1;0;0;0;0;0;0;0;0;0;0;0;1
2;12;3;6468;5;2;2;2;1;1;52;3;3;1;1;1;1;1;0;0;0;0;0;0;0;0;1;0;0;0;0;0;1
4;36;1;9566;1;3;2;2;2;2;31;2;3;2;3;1;0;1;1;0;0;0;0;0;0;0;1;0;0;1;0;0;0
1;36;1;6229;1;1;4;1;4;1;23;3;1;2;4;1;1;1;0;0;0;0;0;0;1;0;0;0;0;1;0;0;0
2;9;3;1391;1;3;2;2;1;4;27;1;3;1;3;1;1;1;1;0;0;0;1;0;0;0;0;0;0;0;0;1;0
2;15;1;1537;5;4;4;3;4;4;50;3;3;2;3;1;1;1;1;0;0;0;0;0;0;0;1;0;0;0;0;0;1
2;36;4;1953;1;4;4;2;4;1;61;3;2;1;1;1;1;1;0;0;0;0;1;0;0;0;0;0;0;0;0;0;1
2;48;4;14421;1;3;2;2;2;2;25;3;3;1;3;1;1;1;0;0;0;0;1;0;0;0;0;0;0;0;0;0;1
4;24;3;3181;1;1;4;2;4;3;26;3;3;1;3;1;1;1;1;0;0;0;0;0;0;0;1;0;0;1;0;0;0
4;12;3;2171;1;1;2;2;2;2;29;1;3;1;3;1;0;1;1;0;0;0;0;0;0;0;1;0;0;1;0;0;0
2;12;3;1007;4;3;4;2;1;4;22;3;3;1;3;1;0;1;1;0;1;0;0;0;0;0;0;0;0;0;0;1;0
4;36;3;1819;1;3;4;2;4;1;37;2;2;1;3;1;1;1;0;0;0;0;0;1;0;0;0;0;0;0;0;0;1
4;36;3;2394;5;3;4;2;4;2;25;3;3;1;3;1;0;1;1;0;0;0;0;0;0;0;1;0;0;1;0;0;0
4;36;3;8133;1;3;1;2;2;3;30;1;3;1;3;1;0;1;1;0;0;1;0;0;0;0;0;0;0;1;0;0;0
4;7;1;730;5;4;4;2;2;3;46;3;1;2;4;1;1;1;1;0;0;0;0;0;0;0;1;0;0;0;0;0;1
1;8;1;1164;1;4;3;2;4;1;51;1;2;2;1;2;1;1;1;0;0;0;0;0;0;1;0;0;0;0;0;0;1
2;42;1;5954;1;5;2;2;1;4;41;1;3;2;4;1;0;1;1;0;0;0;1;0;0;0;0;0;0;1;0;0;0
1;36;3;1977;5;4;4;2;4;1;40;3;3;1;1;1;1;1;0;0;0;0;0;1;0;0;0;0;0;0;0;0;1
1;12;1;1526;1;4;4;2;4;1;66;3;2;2;1;1;0;1;1;0;0;1;0;0;0;0;0;0;0;0;0;0;1
2;11;2;4771;1;5;2;2;4;3;51;3;3;1;3;1;0;1;1;0;0;0;0;0;0;0;1;0;0;0;0;0;1
4;54;4;9436;5;3;2;2;2;3;39;3;3;1;4;2;0;1;1;0;0;1;0;0;0;0;0;0;0;0;0;0;1
2;30;3;3832;1;1;2;2;1;3;22;3;3;1;3;1;0;1;1;0;0;0;0;0;1;0;0;0;0;0;0;1;0
4;24;3;5943;5;1;1;2;1;2;44;3;3;2;3;1;1;1;0;0;0;0;0;0;0;0;1;0;0;1;0;0;0
4;15;3;1213;3;4;4;2;3;3;47;2;3;1;3;1;1;1;1;0;0;0;0;0;0;0;1;0;0;0;0;0;1
4;18;3;1568;2;3;3;2;4;3;24;3;1;1;4;1;0;1;1;0;0;0;1;0;0;0;0;0;0;1;0;0;0
1;24;3;1755;1;4;4;3;4;4;58;3;3;1;4;1;1;1;1;0;0;0;0;0;0;1;0;0;0;1;0;0;0
1;10;3;2315;1;4;3;2;4;4;52;3;3;1;4;1;0;1;1;0;0;0;0;0;0;0;1;0;0;0;0;0;1
4;12;1;1412;1;3;4;3;2;4;29;3;3;2;1;1;1;1;1;0;0;0;1;0;0;0;0;0;0;1;0;0;0
2;18;1;1295;1;1;4;2;1;3;27;3;3;2;3;1;0;1;1;0;0;0;0;0;1;0;0;0;0;1;0;0;0
2;36;3;12612;2;3;1;2;4;1;47;3;2;1;3;2;1;1;0;0;0;0;0;1;0;0;0;0;0;0;0;0;1
1;18;3;2249;2;5;4;2;3;2;30;3;3;1;1;2;1;1;1;0;1;0;0;0;0;0;0;0;0;0;0;0;1
1;12;4;1108;1;5;4;2;3;4;28;3;3;2;3;1;0;1;0;0;0;0;0;0;0;0;0;1;0;0;0;0;1
4;12;1;618;1;4;4;2;4;4;56;3;3;1;3;1;0;1;1;0;0;0;0;0;0;0;1;0;0;0;0;0;1
1;12;1;1409;1;4;4;2;3;4;54;3;3;1;3;1;0;1;1;0;0;1;0;0;0;0;0;0;0;0;0;0;1
4;12;1;797;5;4;4;2;3;3;33;1;3;1;4;2;0;1;0;0;0;0;0;0;0;0;1;0;0;1;0;0;0
2;12;3;1318;4;4;4;2;4;4;54;3;3;1;3;1;1;1;1;0;1;0;0;0;0;0;0;0;0;0;0;0;1
4;12;1;2012;5;5;4;2;2;2;61;3;3;1;3;1;0;1;1;0;0;0;0;1;0;0;0;0;0;1;0;0;0
2;18;3;2622;2;3;4;2;4;2;34;3;3;1;3;1;0;1;1;0;0;0;1;0;0;0;0;0;0;0;0;0;1
2;36;1;2337;1;4;4;2;4;4;36;3;3;1;3;1;0;1;1;0;0;0;0;0;0;0;1;0;0;0;0;0;1
2;20;2;7057;5;5;3;2;4;3;36;1;1;2;1;2;1;1;1;0;0;1;0;0;0;0;0;0;0;0;0;0;1
2;36;3;2323;1;5;4;2;4;2;24;3;1;1;3;1;0;1;1;0;0;0;0;0;0;0;1;0;0;0;0;0;1
4;6;2;932;1;3;3;2;2;4;24;3;3;1;3;1;0;1;1;0;0;0;0;0;0;0;1;0;0;1;0;0;0
4;12;3;2445;5;1;2;2;4;2;26;3;1;1;3;1;1;1;1;0;0;1;0;0;0;0;0;0;0;0;0;1;0
2;24;1;11938;1;3;2;1;3;2;39;3;3;2;1;2;1;1;0;0;0;0;0;0;0;1;0;0;0;0;0;0;1
4;18;5;6458;1;4;2;2;4;1;39;1;3;2;1;2;1;1;0;0;1;0;0;0;0;0;0;0;0;0;0;0;1
2;12;3;6078;1;5;2;2;2;2;32;3;3;1;3;1;0;1;1;0;1;0;0;0;0;0;0;0;0;0;0;0;1
1;24;3;7721;5;1;1;2;2;3;30;3;3;1;3;1;1;0;1;0;0;0;0;0;1;0;0;0;0;1;0;0;0
2;14;3;1410;3;4;1;2;2;4;35;3;3;1;3;1;1;1;1;0;0;0;1;0;0;0;0;0;0;0;0;1;0
2;6;2;1449;2;4;1;2;2;2;31;1;3;2;3;2;0;1;1;0;0;0;1;0;0;0;0;0;0;0;1;0;0
2;18;3;6260;1;5;3;2;3;4;28;3;1;1;4;1;0;1;1;0;1;0;0;0;0;0;0;0;0;0;0;0;1
4;36;1;7855;1;3;4;2;2;4;25;2;3;2;3;1;1;1;0;0;1;0;0;0;0;0;0;0;0;1;0;0;0
1;12;3;1680;3;4;3;2;1;4;35;3;3;1;3;1;0;1;1;0;0;0;0;0;0;0;1;0;0;0;0;1;0
1;42;3;7174;5;5;4;2;3;2;30;3;3;1;1;1;1;1;0;0;0;0;0;0;0;0;1;0;0;1;0;0;0
1;10;1;2132;5;1;2;1;3;4;27;3;1;2;3;1;0;0;1;0;0;0;0;0;1;0;0;0;0;1;0;0;0
1;33;1;4281;3;3;1;2;4;2;23;3;3;2;3;1;0;1;0;0;0;0;0;0;1;0;0;0;0;1;0;0;0
2;12;1;2366;3;5;3;2;3;2;36;3;3;1;1;1;1;1;1;0;1;0;0;0;0;0;0;0;0;0;1;0;0
1;21;3;1835;1;3;3;2;2;4;25;3;3;2;3;1;1;1;0;0;0;0;0;0;0;0;1;0;0;1;0;0;0
4;24;1;3868;1;4;4;2;2;2;41;3;1;2;1;1;1;1;1;0;0;1;0;0;0;0;0;0;0;1;0;0;0
4;12;3;1768;1;3;3;2;2;4;24;3;1;1;4;1;0;1;1;0;0;0;0;0;1;0;0;0;0;0;0;0;1
3;10;1;781;1;4;4;2;4;1;63;3;2;2;3;1;1;1;1;0;1;0;0;0;0;0;0;0;0;0;0;0;1
2;18;3;1924;5;1;4;2;3;4;27;3;1;1;3;1;0;1;0;0;0;0;0;0;1;0;0;0;0;1;0;0;0
1;12;1;2121;1;3;4;2;2;3;30;3;3;2;3;1;0;1;1;0;1;0;0;0;0;0;0;0;0;0;0;0;1
1;12;3;701;1;3;4;2;2;4;40;3;3;1;4;1;0;1;1;0;0;0;0;0;0;0;1;0;0;0;0;1;0
2;12;3;639;1;3;4;2;2;2;30;3;3;1;3;1;0;1;0;0;0;0;0;0;0;0;0;1;0;0;0;0;1
2;12;1;1860;1;2;4;2;2;2;34;3;3;2;1;1;1;1;1;0;0;1;0;0;0;0;0;0;0;0;0;0;1
1;12;1;3499;1;3;3;1;2;4;29;3;3;2;3;1;0;1;0;0;1;0;0;0;0;0;0;0;0;1;0;0;0
1;36;2;6887;1;3;4;2;3;3;29;2;3;1;3;1;1;1;0;0;0;0;0;1;0;0;0;0;0;0;0;0;1
4;15;3;2708;1;1;2;2;3;3;27;1;3;2;4;1;0;1;1;0;0;0;0;0;1;0;0;0;0;0;0;0;1
4;18;3;1984;1;3;4;2;4;1;47;1;2;2;3;1;0;1;1;0;0;0;0;0;1;0;0;0;0;0;0;0;1
4;60;3;10144;2;5;2;2;4;4;21;3;3;1;3;1;1;1;1;0;0;0;0;0;0;0;1;0;0;1;0;0;0
4;12;1;1240;5;4;4;2;2;4;38;3;3;2;3;1;1;1;1;0;0;0;0;0;0;0;1;0;0;1;0;0;0
4;27;2;8613;4;3;2;2;2;2;27;3;3;2;3;1;0;1;1;0;0;1;0;0;0;0;0;0;0;0;0;0;1
2;12;3;766;3;3;4;2;3;4;66;3;3;1;4;1;0;1;0;0;0;0;0;0;0;0;1;0;0;0;0;0;1
2;15;1;2728;5;5;4;3;2;4;35;1;3;3;3;1;1;1;1;0;0;0;0;0;0;0;1;0;0;0;0;0;1
3;12;3;1881;1;3;2;2;2;2;44;3;1;1;4;1;1;1;1;0;0;0;0;0;0;0;1;0;0;1;0;0;0
3;6;3;709;4;1;2;2;2;4;27;3;3;1;2;1;0;0;1;0;1;0;0;0;0;0;0;0;0;0;0;1;0
2;36;3;4795;1;1;4;2;1;1;30;3;3;1;1;1;1;1;1;0;0;0;0;0;0;0;1;0;0;1;0;0;0
1;27;3;3416;1;3;3;2;2;2;27;3;3;1;1;1;0;1;1;0;0;0;0;0;0;0;1;0;0;0;0;0;1
1;18;3;2462;1;3;2;2;2;2;22;3;3;1;3;1;0;1;0;0;0;0;0;0;1;0;0;0;0;0;0;0;1
4;21;1;2288;1;1;4;2;4;3;23;3;3;1;3;1;1;1;1;0;0;0;0;0;1;0;0;0;0;1;0;0;0
1;6;1;860;1;4;1;2;4;1;39;3;3;2;3;1;1;1;1;0;1;0;0;0;0;0;0;0;0;1;0;0;0
4;12;1;682;2;5;4;2;3;2;51;3;3;2;3;1;1;1;1;0;1;0;0;0;0;0;0;0;0;1;0;0;0
1;36;1;5371;1;3;3;3;2;3;28;3;3;2;3;1;0;1;1;0;0;0;0;0;1;0;0;0;0;0;0;0;1
4;18;1;1582;4;4;4;2;4;2;46;3;3;2;3;1;0;1;1;0;0;0;0;0;0;0;1;0;0;0;0;0;1
4;6;3;1346;2;4;2;2;4;1;42;1;2;1;3;2;1;1;1;0;0;0;0;0;0;0;1;0;0;0;0;0;1
4;10;3;1924;1;3;1;2;4;3;38;3;3;1;3;1;1;0;1;0;0;0;0;0;0;0;1;0;0;0;0;0;1
3;36;3;5848;1;3;4;2;1;2;24;3;3;1;3;1;0;1;1;0;0;0;0;0;0;0;1;0;0;0;0;0;1
2;24;1;7758;4;4;2;2;4;1;29;3;1;1;3;1;0;1;1;0;0;1;0;0;0;0;0;0;0;1;0;0;0
2;24;2;6967;2;5;4;2;4;2;36;3;1;1;1;1;1;1;1;0;0;0;1;0;0;0;0;0;0;0;0;0;1
1;12;3;1282;1;3;2;2;4;2;20;3;1;1;3;1;0;1;0;0;0;0;0;0;1;0;0;0;0;1;0;0;0
1;9;1;1288;2;4;3;3;4;4;48;3;3;2;3;2;0;0;1;0;0;0;0;0;0;0;0;1;0;0;0;0;1
1;12;5;339;1;4;4;2;1;2;45;1;3;1;4;1;0;1;1;0;0;0;0;0;0;0;0;0;1;0;0;1;0
2;24;3;3512;2;5;2;2;3;2;38;1;3;2;3;1;1;1;1;0;1;0;0;0;0;0;0;0;0;0;0;0;1
4;6;1;1898;5;3;1;2;2;4;34;3;3;2;4;2;0;1;1;0;0;0;0;0;0;0;1;0;0;0;0;0;1
4;24;1;2872;2;4;3;2;4;4;36;3;3;1;3;2;1;1;1;0;0;0;0;0;0;0;1;0;0;0;0;0;1
4;18;1;1055;1;1;4;2;1;3;30;3;3;2;3;1;0;1;1;0;1;0;0;0;0;0;0;0;0;1;0;0;0
4;15;3;1262;3;5;4;2;3;3;36;3;3;2;3;1;1;1;1;1;0;0;0;0;0;0;0;0;0;0;0;0;1
2;10;3;7308;1;2;2;2;4;1;70;1;2;1;1;1;1;1;1;0;1;0;0;0;0;0;0;0;0;0;0;0;1
4;36;3;909;3;4;4;2;4;3;36;3;3;1;3;1;0;1;1;0;1;0;0;0;0;0;0;0;0;0;0;0;1
4;6;3;2978;3;3;1;2;2;2;32;3;3;1;3;1;1;1;1;0;0;0;0;0;1;0;0;0;0;0;0;0;1
1;18;3;1131;1;2;4;2;2;2;33;3;3;1;3;1;0;1;0;0;0;0;0;0;1;0;0;0;0;1;0;0;0
4;24;3;3972;1;5;2;2;4;3;25;3;1;1;3;1;1;1;1;0;0;0;0;0;1;0;0;0;0;1;0;0;0
2;24;1;1935;1;4;4;2;4;4;31;3;3;2;3;1;1;1;0;0;0;0;1;0;0;0;0;0;0;0;1;0;0
1;15;4;950;1;4;4;2;3;2;33;3;1;2;3;2;0;1;0;0;1;0;0;0;0;0;0;0;0;0;0;0;1
2;24;2;2064;1;2;3;2;2;3;34;3;3;1;1;1;1;1;0;0;0;0;0;0;1;0;0;0;0;1;0;0;0
2;8;3;1414;1;3;4;3;2;4;33;3;3;1;3;1;0;0;1;0;0;0;0;0;0;0;1;0;0;0;0;0;1
4;30;5;7485;5;2;4;2;1;4;53;1;3;1;1;1;1;1;0;0;0;1;0;0;0;0;0;0;0;1;0;0;0
1;12;3;2577;1;3;2;2;1;2;42;3;3;1;3;1;0;1;1;0;0;0;0;0;1;0;0;0;0;0;1;0;0
1;6;1;338;3;4;4;2;4;2;52;3;3;2;3;1;0;1;1;0;0;0;0;0;0;0;1;0;0;0;0;0;1
4;12;3;1963;1;5;4;2;2;2;31;3;1;2;1;2;1;1;1;0;0;0;0;0;0;0;1;0;0;0;0;0;1
1;21;1;571;1;4;4;2;4;4;65;3;3;2;3;1;0;1;1;0;1;0;0;0;0;0;0;0;0;0;0;0;1
4;36;2;9572;1;1;1;2;1;2;28;3;3;2;3;1;0;1;0;0;0;0;1;0;0;0;0;0;0;0;1;0;0
2;36;2;4455;1;3;2;2;2;4;30;2;3;2;1;1;1;1;0;0;0;0;1;0;0;0;0;0;0;0;1;0;0
1;21;5;1647;5;3;4;2;2;3;40;3;3;2;4;2;0;1;0;0;1;0;0;0;0;0;0;0;0;0;0;0;1
4;24;1;3777;4;3;4;2;4;4;50;3;3;1;3;1;1;1;1;0;0;0;0;0;1;0;0;0;0;0;0;0;1
2;18;1;884;1;4;4;2;4;2;36;1;3;1;3;2;1;1;0;0;1;0;0;0;0;0;0;0;0;0;0;0;1
4;15;1;1360;1;3;4;2;2;3;31;3;3;2;3;1;0;1;1;0;0;0;0;0;0;0;1;0;0;0;0;0;1
2;9;5;5129;1;4;2;2;4;1;74;1;2;1;1;2;1;1;0;0;0;1;0;0;0;0;0;0;0;1;0;0;0
2;16;1;1175;1;2;2;2;3;2;68;3;2;3;2;1;1;1;1;0;1;0;0;0;0;0;0;0;0;0;0;0;1
1;12;3;674;2;5;4;2;1;3;20;3;3;1;3;1;0;1;0;0;0;0;0;0;0;0;1;0;0;0;0;1;0
2;18;4;3244;1;3;1;2;4;2;33;1;3;2;3;1;1;1;1;0;0;0;0;0;1;0;0;0;0;1;0;0;0
4;24;3;4591;4;3;2;2;3;3;54;3;3;3;1;1;1;1;0;0;0;0;1;0;0;0;0;0;0;0;0;0;1
2;48;4;3844;2;5;4;2;4;1;34;3;2;1;4;2;0;1;0;0;0;0;1;0;0;0;0;0;0;0;0;0;1
2;27;3;3915;1;3;4;2;2;2;36;3;3;1;3;2;1;1;0;0;0;0;1;0;0;0;0;0;0;0;0;0;1
4;6;3;2108;1;5;2;2;2;4;29;3;1;1;3;1;0;1;1;0;0;0;0;0;0;0;1;0;0;0;0;1;0
2;45;3;3031;2;3;4;3;4;3;21;3;1;1;3;1;0;1;0;0;0;0;0;0;0;0;1;0;0;0;0;0;1
2;9;1;1501;1;4;2;2;3;2;34;3;3;2;1;1;1;1;0;0;0;0;0;1;0;0;0;0;0;1;0;0;0
4;6;1;1382;1;3;1;2;1;2;28;3;3;2;3;1;1;1;1;0;0;0;0;0;0;0;1;0;0;1;0;0;0
2;12;3;951;2;1;4;2;4;2;27;1;1;4;3;1;0;1;0;0;0;0;0;0;1;0;0;0;0;1;0;0;0
2;24;3;2760;5;4;4;2;4;1;36;1;2;1;3;1;1;1;1;0;0;1;0;0;0;0;0;0;0;0;0;0;1
2;18;2;4297;1;4;4;2;3;1;40;3;3;1;1;1;1;1;0;0;0;0;0;0;1;0;0;0;0;0;1;0;0
1;12;3;1168;1;3;4;2;3;4;27;3;3;1;4;1;0;1;1;0;1;0;0;0;0;0;0;0;0;0;0;1;0
4;27;2;5117;1;5;3;2;4;2;26;3;3;2;3;1;0;1;1;0;0;0;1;0;0;0;0;0;0;0;0;0;1
1;12;3;902;1;5;4;2;4;3;21;3;1;1;3;1;0;1;0;0;0;0;0;0;0;0;0;0;1;0;0;1;0
4;12;1;1495;1;4;4;2;1;4;38;3;3;2;4;2;0;1;1;0;1;0;0;0;0;0;0;0;0;0;0;0;1
1;30;1;10623;1;4;3;2;4;1;38;3;2;3;1;2;1;1;1;0;0;1;0;0;0;0;0;0;0;0;0;0;1
4;12;1;1935;1;4;4;2;4;4;43;3;3;3;3;1;1;1;1;0;0;0;0;0;1;0;0;0;0;0;0;0;1
2;12;1;1424;1;5;4;2;3;3;26;3;3;1;3;1;0;1;1;1;0;0;0;0;0;0;0;0;0;0;0;0;1
4;9;1;3074;5;3;1;2;2;4;33;3;3;2;3;2;0;1;1;0;0;0;0;0;0;0;1;0;0;0;0;0;1
1;27;4;5293;1;2;2;2;4;3;50;2;3;2;3;1;1;1;0;0;0;0;1;0;0;0;0;0;0;0;0;0;1
3;30;2;1908;1;4;4;2;4;4;66;3;3;1;1;1;1;1;0;0;0;0;1;0;0;0;0;0;0;0;0;0;1
4;36;1;3342;5;4;4;2;2;2;51;3;3;1;3;1;1;1;1;0;0;0;0;0;0;0;1;0;0;0;0;0;1
2;6;1;932;5;5;1;2;3;3;39;3;3;2;4;1;0;1;1;0;0;0;0;0;0;0;0;0;1;1;0;0;0
1;18;4;3104;1;5;3;2;1;3;31;1;3;1;3;1;1;1;1;0;0;0;1;0;0;0;0;0;0;0;0;0;1
3;36;3;3913;1;3;2;2;2;4;23;3;3;1;3;1;1;1;1;0;0;0;0;0;0;0;1;0;0;0;0;0;1
1;24;3;3021;1;3;2;2;2;4;24;3;1;1;4;1;0;1;1;0;0;0;0;0;1;0;0;0;0;0;1;0;0
4;10;3;1364;1;3;2;2;4;2;64;3;3;1;3;1;1;1;1;0;1;0;0;0;0;0;0;0;0;1;0;0;0
2;12;3;625;1;1;4;3;1;4;26;1;3;1;4;1;0;1;1;0;0;0;0;0;0;0;1;0;0;0;0;1;0
1;12;3;1200;5;3;4;2;4;3;23;1;1;1;3;1;1;1;1;0;0;0;0;1;0;0;0;0;0;1;0;0;0
4;12;3;707;1;3;4;2;2;4;30;1;3;2;3;1;0;1;1;0;0;0;0;0;0;0;1;0;0;0;0;0;1
4;24;2;2978;5;3;4;2;4;4;32;3;3;2;3;2;1;1;1;0;0;0;1;0;0;0;0;0;0;0;0;0;1
4;15;3;4657;1;3;3;2;2;2;30;3;3;1;3;1;1;1;1;0;0;1;0;0;0;0;0;0;0;0;0;0;1
4;36;4;2613;1;3;4;2;2;2;27;3;3;2;3;1;0;1;1;0;0;0;0;0;0;0;0;1;0;0;0;0;1
2;48;3;10961;4;5;1;1;2;1;27;1;3;2;3;1;1;1;0;0;0;0;0;0;0;0;1;0;0;0;0;0;1
1;12;3;7865;1;4;4;2;4;1;53;3;2;1;1;1;1;1;0;0;0;0;0;0;1;0;0;0;0;0;0;0;1
4;9;3;1478;1;5;4;2;2;2;22;3;3;1;3;1;0;1;0;0;0;0;0;0;0;0;1;0;0;0;0;0;1
1;24;3;3149;1;1;4;2;1;1;22;1;2;1;3;1;0;1;1;0;0;0;0;0;1;0;0;0;0;0;0;0;1
3;36;3;4210;1;3;4;2;2;2;26;3;3;1;3;1;0;1;0;0;0;0;0;0;0;0;1;0;0;0;0;0;1
4;9;3;2507;3;4;2;2;4;1;51;3;2;1;4;1;0;1;1;0;1;0;0;0;0;0;0;0;0;0;0;0;1
2;18;3;866;1;3;4;3;2;4;25;3;3;1;4;1;0;1;1;0;0;0;0;0;0;0;1;0;0;0;0;1;0
4;4;1;1544;1;5;2;2;1;4;42;3;3;3;4;2;0;1;1;0;0;0;0;0;0;0;1;0;0;0;0;0;1
1;24;3;1823;1;2;4;2;2;2;30;2;3;1;1;2;0;1;0;0;0;0;0;0;0;0;1;0;0;0;0;0;1
2;6;3;14555;5;2;1;2;2;3;23;3;3;1;2;1;1;1;0;0;1;0;0;0;0;0;0;0;0;0;0;0;1
2;21;3;2767;2;4;4;2;2;2;61;1;1;2;4;1;0;1;0;0;0;0;1;0;0;0;0;0;0;0;1;0;0
4;12;1;1291;1;3;4;2;2;3;35;3;3;2;3;1;0;1;1;0;0;0;0;0;0;0;1;0;0;1;0;0;0
1;30;3;2522;1;4;1;3;3;3;39;3;3;1;3;2;0;1;1;0;0;0;0;0;0;0;1;0;0;0;0;0;1
1;24;3;915;5;4;4;2;2;2;29;1;3;1;3;1;0;1;0;0;1;0;0;0;0;0;0;0;0;1;0;0;0
4;6;3;1595;1;5;3;2;2;3;51;3;3;1;3;2;0;1;1;0;0;0;0;0;0;0;1;0;0;0;0;0;1
1;48;4;4605;1;4;3;2;4;1;24;3;2;2;3;2;0;1;0;0;0;1;0;0;0;0;0;0;0;0;0;0;1
4;12;1;1185;1;3;3;2;2;4;27;3;3;2;3;1;0;1;1;0;0;0;1;0;0;0;0;0;0;1;0;0;0
4;12;5;3447;3;3;4;2;3;4;35;3;3;1;4;2;0;1;1;0;0;0;0;0;0;0;0;0;1;1;0;0;0
4;24;3;1258;1;5;4;2;1;4;25;3;3;1;3;1;1;1;1;0;0;0;1;0;0;0;0;0;0;0;0;0;1
4;12;1;717;1;4;4;2;4;4;52;3;3;3;3;1;0;1;1;0;0;0;0;0;0;0;1;0;0;0;0;0;1
4;6;4;1204;2;3;4;2;1;1;35;1;1;1;3;1;0;0;1;0;1;0;0;0;0;0;0;0;0;0;0;0;1
3;24;3;1925;1;3;2;2;2;4;26;3;3;1;3;1;0;1;1;0;0;0;0;0;1;0;0;0;0;0;0;0;1
4;18;3;433;1;2;3;1;4;4;22;3;1;1;3;1;0;1;0;0;0;0;0;0;0;0;1;0;0;1;0;0;0
1;6;1;666;4;5;3;2;4;4;39;3;3;2;4;1;1;1;1;0;1;0;0;0;0;0;0;0;0;1;0;0;0
3;12;3;2251;1;3;1;2;2;2;46;3;3;1;4;1;0;1;1;0;0;0;0;0;1;0;0;0;0;1;0;0;0
2;30;3;2150;1;3;4;3;2;1;24;1;3;1;3;1;0;1;0;0;1;0;0;0;0;0;0;0;0;1;0;0;0
4;24;2;4151;2;3;2;2;3;3;35;3;3;2;3;1;0;1;1;0;0;0;0;0;1;0;0;0;0;0;0;0;1
2;9;3;2030;5;5;2;2;1;2;24;3;3;1;3;1;1;1;1;0;0;0;0;0;1;0;0;0;0;0;0;0;1
2;60;2;7418;5;3;1;2;1;4;27;3;3;1;4;1;0;1;1;0;0;0;0;0;0;0;1;0;0;0;0;0;1
4;24;1;2684;1;3;4;2;2;4;35;3;3;2;4;1;0;1;1;0;0;0;0;0;0;0;1;0;0;0;0;0;1
1;12;5;2149;1;3;4;2;1;1;29;3;2;1;3;1;0;1;0;0;0;0;0;0;0;0;1;0;0;0;1;0;0
4;15;3;3812;2;1;1;2;4;2;23;3;3;1;3;1;1;1;1;0;0;1;0;0;0;0;0;0;0;1;0;0;0
4;11;1;1154;2;2;4;2;4;4;57;3;3;3;4;1;0;1;1;0;0;0;0;0;0;0;1;0;0;1;0;0;0
1;12;3;1657;1;3;2;2;2;4;27;3;3;1;3;1;0;1;1;0;0;0;0;0;1;0;0;0;0;0;0;0;1
1;18;1;5302;1;4;2;2;4;1;36;3;2;3;1;1;1;1;1;0;1;0;0;0;0;0;0;0;0;0;0;0;1
4;12;1;2748;1;4;2;2;4;1;57;1;2;3;4;1;0;1;1;0;0;0;0;1;0;0;0;0;0;1;0;0;0
4;10;1;1231;1;4;3;2;4;4;32;3;3;2;4;2;0;0;1;0;1;0;0;0;0;0;0;0;0;0;0;0;1
2;15;3;802;1;4;4;2;3;2;37;3;3;1;3;2;0;1;0;0;0;0;0;0;0;0;1;0;0;0;0;0;1
4;36;1;6304;5;4;4;2;4;4;36;3;3;2;3;1;0;1;1;0;0;0;1;0;0;0;0;0;0;0;0;0;1
4;24;3;1533;1;1;4;2;3;2;38;2;3;1;3;1;1;1;1;0;0;0;0;0;0;0;1;0;0;1;0;0;0
4;24;3;999;5;4;4;2;2;2;25;3;3;2;3;1;0;1;1;0;0;0;0;0;0;0;1;0;0;0;0;0;1
4;12;1;1402;3;5;3;2;4;2;37;3;1;1;3;1;1;1;1;0;0;0;0;0;1;0;0;0;0;1;0;0;0
2;48;5;12169;5;2;4;1;4;1;36;3;2;1;1;1;1;1;1;0;1;0;0;0;0;0;0;0;0;0;0;0;1
2;48;3;3060;1;5;4;2;4;4;28;3;3;2;3;1;0;1;0;0;0;0;0;0;0;0;1;0;0;0;0;0;1
1;30;3;11998;1;1;1;2;1;1;34;3;3;1;4;1;1;1;0;0;0;0;0;0;0;0;0;1;0;0;1;0;0
4;9;3;2697;1;3;1;2;2;4;32;3;3;1;3;2;0;1;1;0;0;0;0;0;0;0;1;0;0;0;0;0;1
4;18;1;2404;1;3;2;2;2;2;26;3;3;2;3;1;0;1;1;0;0;0;0;0;0;0;1;0;0;1;0;0;0
4;6;3;4611;1;1;1;2;4;3;32;3;3;1;3;1;0;1;0;0;0;0;0;0;1;0;0;0;0;1;0;0;0
4;24;3;1901;2;3;4;2;4;2;29;3;1;1;1;1;1;1;1;0;0;0;0;0;0;0;1;0;0;0;0;0;1
4;15;1;3368;4;4;3;2;4;1;23;3;1;2;3;1;1;1;1;0;0;1;0;0;0;0;0;0;0;0;0;0;1
4;12;3;1574;1;3;4;2;2;4;50;3;3;1;3;1;0;1;1;0;0;0;0;0;1;0;0;0;0;0;0;0;1
3;18;5;1445;5;5;4;2;4;2;49;1;3;1;4;1;0;1;1;0;0;0;0;0;0;0;1;0;0;0;0;0;1
2;24;1;3878;2;1;4;2;2;2;37;3;3;1;3;1;1;1;1;0;1;0;0;0;0;0;0;0;0;0;1;0;0
1;47;3;10722;1;1;1;2;1;4;35;3;3;1;4;1;1;1;1;0;1;0;0;0;0;0;0;0;0;1;0;0;0
1;48;3;4788;1;5;4;2;3;3;26;3;3;1;3;2;0;1;1;0;0;1;0;0;0;0;0;0;0;0;0;0;1
2;48;2;7582;2;2;2;2;4;1;31;3;2;1;1;1;1;1;1;0;0;0;0;0;0;1;0;0;0;0;0;0;1
2;12;3;1092;1;3;4;3;4;4;49;3;3;2;3;1;1;1;1;0;0;0;0;0;0;0;1;0;0;1;0;0;0
1;24;2;1024;1;1;4;2;4;4;48;2;3;1;3;1;0;1;0;0;0;0;0;0;0;0;1;0;0;0;0;1;0
4;12;3;1076;1;3;2;2;2;4;26;3;3;1;3;1;1;0;1;0;0;0;1;0;0;0;0;0;0;0;0;1;0
1;24;1;6419;1;4;2;2;4;1;44;3;2;2;1;2;1;1;1;0;0;1;0;0;0;0;0;0;0;1;0;0;0
3;42;1;4796;1;4;4;2;4;1;56;3;2;1;3;1;0;1;1;0;0;1;0;0;0;0;0;0;0;0;0;0;1
4;48;1;7629;5;4;4;2;2;2;46;1;3;2;1;2;0;1;1;0;0;0;1;0;0;0;0;0;0;0;1;0;0
2;48;3;9960;1;1;1;2;2;2;26;3;3;1;3;1;1;1;0;0;0;0;0;0;1;0;0;0;0;1;0;0;0
4;12;3;4675;5;1;1;2;4;2;20;3;1;1;3;1;0;1;1;0;0;1;0;0;0;0;0;0;0;1;0;0;0
4;10;3;1287;5;4;4;1;2;3;45;3;3;1;4;1;0;0;1;0;1;0;0;0;0;0;0;0;0;0;0;0;1
4;18;3;2515;1;3;3;2;4;4;43;3;3;1;3;1;1;1;1;0;0;0;0;0;1;0;0;0;0;0;0;0;1
2;21;1;2745;4;5;3;2;2;2;32;3;3;2;3;1;1;1;1;0;0;0;0;0;1;0;0;0;0;0;0;0;1
4;6;3;672;1;2;1;2;4;4;54;3;3;1;2;1;1;1;1;0;1;0;0;0;0;0;0;0;0;1;0;0;0
2;36;4;3804;1;3;4;2;1;2;42;3;3;1;3;1;1;1;0;0;0;0;0;0;0;0;1;0;0;1;0;0;0
3;24;1;1344;5;5;4;2;2;4;37;1;3;2;4;2;0;1;0;0;1;0;0;0;0;0;0;0;0;0;0;0;1
1;10;1;1038;1;5;4;1;3;3;49;3;3;2;3;1;1;1;1;0;1;0;0;0;0;0;0;0;0;0;0;0;1
4;48;1;10127;3;3;2;2;2;1;44;1;2;1;3;1;0;1;0;0;1;0;0;0;0;0;0;0;0;0;0;0;1
4;6;3;1543;4;3;4;2;2;4;33;3;3;1;3;1;0;1;1;0;0;0;0;0;1;0;0;0;0;0;1;0;0
1;12;3;727;2;1;4;2;3;1;33;3;3;1;4;1;1;1;0;0;0;0;0;0;0;0;1;0;0;0;0;1;0
2;8;3;1237;1;3;3;2;4;4;24;3;3;1;3;1;0;1;0;0;0;0;0;0;1;0;0;0;0;1;0;0;0
2;9;3;276;1;3;4;2;4;4;22;3;1;1;4;1;0;1;1;0;1;0;0;0;0;0;0;0;0;0;0;1;0
2;48;3;5381;5;2;3;2;4;1;40;1;2;1;2;1;1;1;1;0;0;0;0;0;0;1;0;0;0;0;0;0;1
4;24;3;5511;2;3;4;2;1;2;25;2;3;1;3;1;0;1;1;0;0;0;0;0;1;0;0;0;0;0;0;0;1
2;12;3;685;1;5;2;2;3;2;25;1;3;1;4;1;0;1;0;0;1;0;0;0;0;0;0;0;0;0;0;1;0
3;4;3;1494;5;1;1;2;2;4;29;3;3;1;4;2;0;0;1;0;1;0;0;0;0;0;0;0;0;0;0;0;1
1;36;5;2746;1;4;4;2;4;2;31;1;3;1;3;1;0;1;0;0;0;0;0;0;1;0;0;0;0;0;0;0;1
2;24;3;4351;5;3;1;2;4;3;48;3;3;1;4;1;1;1;1;0;0;0;0;0;1;0;0;0;0;1;0;0;0
4;12;1;701;1;3;4;2;2;2;32;3;3;2;3;1;0;1;1;0;0;0;0;1;0;0;0;0;0;0;0;0;1
1;15;2;3643;1;4;1;2;4;3;27;3;3;2;4;1;0;1;1;0;0;0;0;0;1;0;0;0;0;1;0;0;0
2;30;1;4249;1;2;4;2;2;2;28;3;3;2;1;1;0;1;0;0;1;0;0;0;0;0;0;0;0;0;0;1;0
1;24;3;1938;1;1;4;2;3;3;32;3;3;1;3;1;0;1;0;0;0;0;0;0;0;0;1;0;0;0;1;0;0
1;24;3;2910;1;5;2;2;1;1;34;3;2;1;1;1;1;1;1;0;0;1;0;0;0;0;0;0;0;0;0;0;1
1;18;3;2659;4;3;4;2;2;2;28;3;3;1;3;1;0;1;1;0;0;0;0;0;1;0;0;0;0;0;0;0;1
4;18;1;1028;1;3;4;2;3;4;36;3;3;2;3;1;0;1;1;0;1;0;0;0;0;0;0;0;0;1;0;0;0
1;8;1;3398;1;5;1;2;4;4;39;3;3;2;4;1;0;0;1;0;1;0;0;0;0;0;0;0;0;0;0;0;1
4;12;1;5801;5;4;2;2;4;3;49;3;1;1;3;1;1;1;1;0;0;0;0;0;1;0;0;0;0;0;0;0;1
4;24;3;1525;4;5;4;2;3;2;34;3;3;1;3;2;1;1;1;0;1;0;0;0;0;0;0;0;0;1;0;0;0
3;36;3;4473;1;4;4;2;2;2;31;3;3;1;3;1;0;1;1;0;0;0;0;0;0;0;1;0;0;0;0;0;1
2;6;3;1068;1;4;4;2;4;2;28;3;3;1;3;2;0;1;1;0;0;0;0;0;0;0;1;0;0;0;0;0;1
1;24;1;6615;1;2;2;2;4;1;75;3;2;2;1;1;1;1;1;0;0;1;0;0;0;0;0;0;0;0;0;0;1
4;18;1;1864;2;3;4;2;2;4;30;3;3;2;3;1;0;1;0;0;0;0;0;1;0;0;0;0;0;1;0;0;0
2;60;3;7408;2;1;4;2;2;3;24;3;3;1;1;1;0;1;0;0;1;0;0;0;0;0;0;0;0;1;0;0;0
4;48;1;11590;2;3;2;2;4;2;24;1;1;2;4;1;0;1;0;0;0;1;0;0;0;0;0;0;0;1;0;0;0
1;24;4;4110;1;4;3;2;4;1;23;1;1;2;3;2;0;1;0;0;0;0;0;0;1;0;0;0;0;0;0;0;1
1;6;1;3384;1;3;1;2;4;4;44;3;1;1;1;1;1;1;0;0;0;0;0;0;1;0;0;0;0;0;1;0;0
2;13;3;2101;1;1;2;3;4;3;23;3;3;1;4;1;0;1;1;0;0;0;0;0;0;0;1;0;0;1;0;0;0
1;15;3;1275;5;3;4;2;2;2;24;3;1;1;3;1;0;1;0;1;0;0;0;0;0;0;0;0;0;1;0;0;0
1;24;3;4169;1;3;4;2;4;3;28;3;3;1;3;1;0;1;1;0;0;0;0;0;1;0;0;0;0;0;0;0;1
2;10;3;1521;1;3;4;2;2;2;31;3;3;1;4;1;0;1;1;0;0;0;0;0;1;0;0;0;0;0;1;0;0
2;24;1;5743;1;1;2;2;4;1;24;3;2;2;3;1;1;1;1;0;0;0;0;1;0;0;0;0;0;1;0;0;0
1;21;3;3599;1;5;1;2;4;2;26;3;1;1;4;1;0;1;1;0;0;0;0;0;1;0;0;0;0;1;0;0;0
2;18;3;3213;3;1;1;2;3;4;25;3;1;1;3;1;0;1;1;0;0;0;0;0;0;0;1;0;0;0;0;1;0
2;18;3;4439;1;4;1;1;1;4;33;1;3;1;1;1;1;1;1;0;0;0;1;0;0;0;0;0;0;0;0;0;1
3;10;3;3949;1;1;1;3;1;3;37;3;3;1;4;2;0;1;1;0;1;0;0;0;0;0;0;0;0;0;0;0;1
4;15;1;1459;1;3;4;2;2;2;43;3;3;1;4;1;0;1;1;0;0;0;0;0;0;0;1;0;0;1;0;0;0
2;13;1;882;1;1;4;3;4;4;23;3;3;2;3;1;0;1;1;0;0;0;0;0;0;0;1;0;0;0;0;0;1
2;24;3;3758;3;2;1;2;4;1;23;3;1;1;2;1;0;1;1;0;0;0;0;0;0;0;1;0;0;1;0;0;0
2;9;1;1136;4;4;4;2;3;1;32;3;2;2;3;2;0;1;0;0;0;0;0;1;0;0;0;0;0;0;0;0;1
4;9;3;1236;1;1;1;2;4;4;23;3;1;1;3;1;1;1;1;1;0;0;0;0;0;0;0;0;0;1;0;0;0
2;9;3;959;1;3;1;2;2;2;29;3;3;1;3;1;0;0;0;0;0;0;0;0;1;0;0;0;0;1;0;0;0
4;18;1;3229;5;2;2;2;4;1;38;3;3;1;1;1;1;1;1;0;0;1;0;0;0;0;0;0;0;0;0;0;1
1;12;4;6199;1;3;4;2;2;3;28;3;1;2;3;1;1;1;0;0;0;0;0;0;0;0;1;0;0;0;0;0;1
4;10;3;727;3;4;4;2;4;1;46;3;2;1;3;1;1;1;1;0;0;0;0;1;0;0;0;0;0;0;0;0;1
2;24;3;1246;1;1;4;2;2;4;23;2;3;1;4;1;0;1;0;0;1;0;0;0;0;0;0;0;0;0;0;0;1
4;12;1;2331;5;4;1;1;4;4;49;3;3;1;3;1;1;1;1;0;0;0;0;0;0;0;1;0;0;0;0;0;1
4;36;2;4463;1;3;4;2;2;2;26;3;3;2;1;1;1;1;0;0;0;0;0;0;0;0;1;0;0;0;0;0;1
4;12;3;776;1;3;4;2;2;4;28;3;3;1;3;1;0;1;1;0;0;0;0;0;0;0;1;0;0;0;0;1;0
1;30;3;2406;1;5;4;2;4;4;23;3;1;1;3;1;0;1;0;0;0;0;0;0;1;0;0;0;0;1;0;0;0
2;18;3;1239;5;3;4;2;4;1;61;3;2;1;3;1;0;1;1;0;0;0;0;1;0;0;0;0;0;0;0;0;1
3;12;3;3399;5;4;2;2;3;2;37;3;3;1;1;1;0;1;1;0;0;0;0;0;0;0;1;0;0;0;0;0;1
3;12;2;2247;1;3;2;2;2;2;36;2;3;2;3;1;1;1;1;0;1;0;0;0;0;0;0;0;0;1;0;0;0
4;6;3;1766;1;3;1;2;2;3;21;3;1;1;3;1;0;1;1;0;0;0;0;0;1;0;0;0;0;0;0;1;0
1;18;3;2473;1;2;4;2;1;2;25;3;3;1;2;1;0;1;0;0;0;0;0;0;1;0;0;0;0;0;0;0;1
4;12;3;1542;1;5;2;2;4;2;36;3;3;1;3;1;1;1;1;0;0;0;1;0;0;0;0;0;0;0;0;0;1
4;18;1;3850;1;5;3;2;1;2;27;3;3;2;3;1;0;1;1;0;0;1;0;0;0;0;0;0;0;0;0;0;1
1;18;3;3650;1;1;1;2;4;2;22;3;1;1;3;1;0;1;1;0;0;0;0;0;1;0;0;0;0;1;0;0;0
1;36;3;3446;1;4;4;2;2;2;42;3;3;1;3;2;0;1;0;0;0;0;0;0;1;0;0;0;0;0;0;0;1
2;18;3;3001;1;5;2;2;4;4;40;3;1;1;3;1;0;1;1;0;0;0;0;0;1;0;0;0;0;1;0;0;0
4;36;3;3079;5;3;4;2;4;4;36;3;3;1;3;1;0;1;1;0;1;0;0;0;0;0;0;0;0;0;0;0;1
4;18;1;6070;1;4;3;2;4;2;33;3;3;2;3;1;1;1;1;0;0;0;0;0;0;0;1;0;0;0;0;0;1
4;10;1;2146;1;1;1;2;3;4;23;3;1;2;3;1;0;1;1;0;0;0;0;0;1;0;0;0;0;1;0;0;0
4;60;1;13756;5;4;2;2;4;1;63;1;2;1;1;1;1;1;1;0;1;0;0;0;0;0;0;0;0;0;0;0;1
2;60;5;14782;2;4;3;2;4;1;60;1;2;2;1;1;1;1;0;0;0;0;0;0;0;1;0;0;0;1;0;0;0
1;48;5;7685;1;5;2;3;4;2;37;3;1;1;3;1;0;1;0;0;0;0;1;0;0;0;0;0;0;1;0;0;0
4;18;2;2320;1;2;2;2;3;4;34;3;3;2;3;1;0;1;1;0;0;0;0;0;0;0;1;0;0;0;0;1;0
2;36;3;14318;1;4;4;2;2;1;57;3;2;1;1;1;1;1;0;0;1;0;0;0;0;0;0;0;0;0;0;0;1
4;6;1;362;2;3;4;2;4;2;52;3;3;2;4;1;0;1;1;0;1;0;0;0;0;0;0;0;0;1;0;0;0
1;20;3;2212;5;5;4;2;4;2;39;3;3;1;3;1;1;1;1;0;0;0;0;0;1;0;0;0;0;0;0;0;1
4;22;3;1283;5;5;4;2;4;3;25;3;1;1;3;1;0;1;1;0;1;0;0;0;0;0;0;0;0;1;0;0;0
4;30;2;4272;2;3;2;2;2;3;26;3;3;2;4;1;0;1;1;0;0;0;1;0;0;0;0;0;0;0;0;0;1
4;18;1;2238;1;3;2;2;1;2;25;3;3;2;3;1;0;1;1;0;0;0;0;0;0;0;1;0;0;1;0;0;0
4;18;3;1126;5;1;4;2;2;4;21;3;1;1;3;1;1;1;1;0;0;0;0;0;0;0;1;0;0;1;0;0;0
2;18;1;7374;1;2;4;2;4;3;40;2;3;2;1;1;1;1;1;0;0;0;0;0;1;0;0;0;0;0;0;0;1
2;15;1;2326;3;3;2;2;4;2;27;1;3;1;3;1;0;1;1;0;0;0;1;0;0;0;0;0;0;0;0;0;1
4;18;3;1820;1;3;2;2;2;3;30;3;3;1;1;1;1;1;1;0;1;0;0;0;0;0;0;0;0;0;0;1;0
2;12;3;983;4;1;1;2;4;4;19;3;1;1;4;1;0;1;1;0;0;0;0;0;1;0;0;0;0;1;0;0;0
1;36;3;3249;1;5;2;2;4;1;39;1;2;1;1;2;1;1;1;0;1;0;0;0;0;0;0;0;0;0;0;0;1
1;6;1;1957;1;5;1;2;4;2;31;3;3;1;3;1;0;1;1;0;0;0;0;0;0;0;1;0;0;1;0;0;0
4;9;1;2406;1;2;2;2;3;2;31;3;3;1;1;1;0;1;1;0;0;0;0;0;1;0;0;0;0;0;0;0;1
2;39;2;11760;2;5;2;2;3;1;32;3;1;1;3;1;1;1;1;0;0;0;0;1;0;0;0;0;0;0;0;0;1
1;12;3;2578;1;2;3;2;4;1;55;3;2;1;1;1;0;1;1;0;0;0;0;0;1;0;0;0;0;1;0;0;0
1;36;1;2348;1;3;3;2;2;3;46;3;3;2;3;1;1;1;1;0;0;0;0;0;1;0;0;0;0;0;0;1;0
2;12;3;1223;1;4;1;2;1;4;46;3;1;2;3;1;0;1;0;0;1;0;0;0;0;0;0;0;0;0;1;0;0
4;24;1;1516;4;3;4;2;1;4;43;3;3;2;4;1;0;1;1;0;0;0;0;0;0;0;1;0;0;1;0;0;0
2;18;1;1887;5;3;4;2;4;4;28;1;3;2;3;1;0;1;1;0;0;0;1;0;0;0;0;0;0;0;0;1;0
4;24;2;8648;1;1;2;2;2;2;27;1;3;2;3;1;1;1;0;0;0;0;1;0;0;0;0;0;0;0;0;0;1
4;14;2;802;1;3;4;2;2;2;27;3;3;2;4;1;0;1;1;0;1;0;0;0;0;0;0;0;0;0;0;0;1
2;18;2;2899;5;4;4;2;4;2;43;3;3;1;3;2;0;1;1;0;1;0;0;0;0;0;0;0;0;0;0;0;1
2;24;3;2039;1;1;1;2;1;3;22;3;3;1;3;1;1;1;0;0;0;0;0;0;0;0;1;0;0;0;0;1;0
4;24;1;2197;5;5;4;2;4;2;43;3;3;2;3;2;1;1;1;0;0;1;0;0;0;0;0;0;0;0;0;0;1
1;15;3;1053;1;1;4;2;2;4;27;3;3;1;3;1;0;0;1;0;0;0;0;0;0;0;1;0;0;0;0;1;0
4;24;3;3235;3;4;3;2;2;2;26;3;3;1;1;1;1;1;1;0;0;0;0;0;0;0;1;0;0;0;1;0;0
3;12;1;939;3;5;4;2;2;4;28;3;3;3;3;1;1;1;0;0;1;0;0;0;0;0;0;0;0;0;0;1;0
2;24;3;1967;1;4;4;2;4;2;20;3;3;1;3;1;1;1;1;0;0;0;0;0;0;0;1;0;0;1;0;0;0
4;33;1;7253;1;5;3;2;2;2;35;3;3;2;1;1;1;1;1;0;0;1;0;0;0;0;0;0;0;0;0;0;1
4;12;1;2292;1;2;4;2;2;2;42;2;3;2;1;1;1;1;0;0;0;0;1;0;0;0;0;0;0;0;0;0;1
4;10;3;1597;3;3;3;2;2;1;40;3;1;1;4;2;0;0;1;0;1;0;0;0;0;0;0;0;0;0;0;0;1
1;24;3;1381;5;3;4;2;2;3;35;3;3;1;3;1;0;1;0;0;1;0;0;0;0;0;0;0;0;1;0;0;0
4;36;1;5842;1;4;2;2;2;3;35;3;3;2;3;2;1;1;1;0;0;1;0;0;0;0;0;0;0;0;0;0;1
1;12;3;2579;1;1;4;2;1;4;33;3;3;1;4;2;0;1;0;0;1;0;0;0;0;0;0;0;0;0;0;0;1
1;18;2;8471;5;3;1;2;2;2;23;3;1;2;3;1;1;1;1;0;0;0;0;1;0;0;0;0;0;1;0;0;0
4;21;3;2782;3;5;1;2;2;2;31;1;3;1;1;1;0;1;1;0;1;0;0;0;0;0;0;0;0;1;0;0;0
2;18;3;1042;5;3;4;2;2;3;33;3;3;1;3;1;0;1;0;0;1;0;0;0;0;0;0;0;0;1;0;0;0
4;15;3;3186;4;5;2;2;3;2;20;3;1;1;3;1;0;1;1;0;1;0;0;0;0;0;0;0;0;1;0;0;0
4;21;2;1591;2;5;4;2;3;4;34;3;3;2;1;1;0;1;1;0;0;0;0;0;1;0;0;0;0;0;0;0;1
2;12;3;2762;5;4;1;2;2;3;25;1;3;1;3;1;1;1;0;0;0;0;0;0;1;0;0;0;0;1;0;0;0
2;18;3;2779;1;3;1;2;3;2;21;3;1;1;3;1;1;1;1;0;0;1;0;0;0;0;0;0;0;0;0;1;0
4;28;1;2743;1;4;4;2;2;2;29;3;3;2;3;1;0;1;1;0;0;0;0;0;0;0;1;0;0;0;0;0;1
4;18;1;1149;4;3;4;2;3;4;46;3;3;2;3;1;0;1;1;0;0;0;0;0;0;0;1;0;0;0;0;0;1
4;9;3;1313;1;4;1;2;4;2;20;3;3;1;3;1;0;1;1;0;0;0;0;0;1;0;0;0;0;0;0;0;1
1;18;1;1190;1;2;2;2;4;1;55;3;2;3;2;2;0;1;0;0;0;0;0;0;0;0;0;1;0;1;0;0;0
4;5;3;3448;1;5;1;2;4;4;74;3;3;1;4;1;0;1;1;0;0;0;1;0;0;0;0;0;0;0;0;0;1
2;24;3;11328;1;3;2;1;3;2;29;1;3;2;1;1;1;1;0;0;0;0;0;0;0;1;0;0;0;0;0;0;1
1;6;1;1872;1;2;4;2;4;1;36;3;2;3;1;1;1;1;1;0;0;0;0;0;1;0;0;0;0;0;0;0;1
4;24;1;2058;1;3;4;2;2;4;33;3;3;2;3;1;1;1;1;0;0;0;0;0;0;0;0;1;0;0;1;0;0
1;9;3;2136;1;3;3;2;2;4;25;3;3;1;3;1;0;1;1;0;0;0;0;0;1;0;0;0;0;0;0;0;1
2;12;3;1484;5;3;2;2;1;4;25;3;3;1;3;1;1;1;0;0;0;0;0;0;0;0;1;0;0;0;0;1;0
4;6;3;660;3;5;2;2;4;4;23;3;1;1;4;1;0;1;1;0;0;0;0;0;0;0;0;1;0;0;0;1;0
4;24;1;1287;4;4;4;2;4;4;37;3;3;2;3;1;1;1;1;0;1;0;0;0;0;0;0;0;0;1;0;0;0
3;12;5;609;1;1;4;2;1;4;26;3;3;1;2;1;0;1;0;0;0;0;1;0;0;0;0;0;0;1;0;0;0
1;12;3;1620;1;3;2;1;3;3;30;3;3;1;3;1;0;1;1;0;0;0;0;0;1;0;0;0;0;1;0;0;0
2;20;2;2629;1;3;2;2;3;2;29;1;3;2;3;1;1;1;1;0;0;0;0;0;0;1;0;0;0;0;0;0;1
4;12;3;719;1;4;4;2;4;2;41;1;3;1;4;2;0;1;0;0;0;0;0;1;0;0;0;0;0;0;0;0;1
2;48;1;5096;1;3;2;2;3;2;30;3;3;1;1;1;1;1;0;0;0;0;0;0;1;0;0;0;0;1;0;0;0
4;9;1;1244;5;4;4;2;4;3;41;3;1;2;4;1;0;1;1;0;0;0;0;1;0;0;0;0;0;1;0;0;0
1;36;3;1842;1;1;4;2;4;2;34;3;3;1;3;1;1;1;0;0;1;0;0;0;0;0;0;0;0;1;0;0;0
2;7;3;2576;1;3;2;3;2;4;35;3;3;1;3;1;0;1;1;0;0;0;0;0;0;0;1;0;0;0;0;0;1
3;12;3;1424;5;4;3;2;4;4;55;3;3;1;1;1;1;1;1;0;0;0;0;0;1;0;0;0;0;1;0;0;0
2;15;2;1512;4;3;3;2;3;3;61;2;3;2;3;1;0;1;0;0;0;0;0;0;0;0;0;1;0;0;0;1;0
4;36;1;11054;5;3;4;2;2;2;30;3;3;1;1;1;1;1;1;0;0;1;0;0;0;0;0;0;0;0;0;0;1
4;6;3;518;1;3;3;2;1;4;29;3;3;1;3;1;0;1;1;0;0;0;0;0;0;0;1;0;0;1;0;0;0
4;12;4;2759;1;4;2;2;4;3;34;3;3;2;3;1;0;1;1;0;0;0;0;0;1;0;0;0;0;0;0;0;1
4;24;3;2670;1;4;4;2;4;2;35;3;3;1;1;1;1;1;1;0;0;1;0;0;0;0;0;0;0;0;0;0;1
1;24;3;4817;1;5;2;1;3;3;31;3;3;1;3;1;1;1;0;0;1;0;0;0;0;0;0;0;0;0;0;0;1
4;24;3;2679;1;1;4;2;1;1;29;3;3;1;1;1;1;1;1;0;0;1;0;0;0;0;0;0;0;1;0;0;0
1;11;1;3905;1;3;2;2;2;4;36;3;1;2;3;2;0;1;1;0;1;0;0;0;0;0;0;0;0;0;0;0;1
1;12;3;3386;1;4;3;2;4;1;35;3;2;1;3;1;1;1;0;0;0;1;0;0;0;0;0;0;0;0;0;0;1
1;6;3;343;1;1;4;2;1;4;27;3;3;1;3;1;0;1;1;1;0;0;0;0;0;0;0;0;0;1;0;0;0
4;18;3;4594;1;1;3;2;2;2;32;3;3;1;3;1;1;1;1;0;0;0;0;0;0;0;1;0;0;0;0;0;1
1;36;3;3620;1;3;1;3;2;3;37;3;3;1;3;2;0;1;1;0;0;0;0;0;1;0;0;0;0;0;0;0;1
1;15;3;1721;1;1;2;2;3;4;36;3;3;1;3;1;0;1;1;0;1;0;0;0;0;0;0;0;0;0;0;0;1
2;12;3;3017;1;1;3;2;1;4;34;3;1;1;1;1;0;1;1;0;0;0;0;0;1;0;0;0;0;1;0;0;0
2;12;3;754;5;4;4;2;4;3;38;3;3;2;3;1;0;1;1;0;0;0;0;0;0;0;0;0;1;0;0;0;1
4;18;3;1950;1;5;4;2;1;2;34;2;3;2;3;1;1;1;1;0;0;0;1;0;0;0;0;0;0;0;0;0;1
1;24;3;2924;1;3;3;3;4;1;63;1;3;1;3;2;1;1;1;0;0;1;0;0;0;0;0;0;0;0;0;0;1
1;24;2;1659;1;1;4;2;2;2;29;3;1;1;4;1;1;1;0;0;0;0;0;0;0;0;1;0;0;1;0;0;0
4;48;2;7238;5;4;3;2;3;2;32;1;3;2;3;2;0;1;1;0;0;0;0;0;0;0;1;0;0;0;0;0;1
4;33;2;2764;1;3;2;2;2;2;26;3;3;2;3;1;1;1;1;0;0;0;1;0;0;0;0;0;0;1;0;0;0
4;24;2;4679;1;5;3;2;3;2;35;3;3;2;4;1;1;1;1;0;0;1;0;0;0;0;0;0;0;0;0;0;1
2;24;3;3092;2;1;3;2;2;2;22;3;1;1;3;1;1;1;0;0;0;0;0;0;0;0;1;0;0;0;0;1;0
1;6;3;448;1;1;4;2;4;3;23;3;3;1;3;1;0;1;0;0;0;0;0;1;0;0;0;0;0;1;0;0;0
4;6;3;1238;5;2;4;2;4;3;36;3;3;1;1;2;1;1;1;0;0;0;0;0;0;0;0;0;1;0;0;0;1
2;18;1;1245;1;3;4;2;2;2;33;3;3;1;3;1;0;1;0;0;0;0;0;0;0;0;1;0;0;0;0;1;0
1;18;4;3114;1;1;1;2;4;3;26;3;1;1;3;1;0;1;0;0;0;0;0;0;1;0;0;0;0;1;0;0;0
3;24;3;5152;1;5;4;2;2;2;25;1;3;1;3;1;0;1;1;0;0;0;0;0;0;0;1;0;0;0;0;0;1
2;12;3;1037;2;5;3;2;4;4;39;3;3;1;4;1;0;1;1;0;0;0;1;0;0;0;0;0;0;0;0;0;1
1;15;1;1478;1;4;4;2;4;2;44;3;3;2;3;2;1;1;1;0;0;0;0;0;1;0;0;0;0;0;0;0;1
2;12;1;3573;1;3;1;2;1;4;23;3;3;1;4;1;0;1;1;0;0;0;0;0;0;0;1;0;0;1;0;0;0
2;24;3;1201;1;1;4;2;1;3;26;3;3;1;3;1;0;1;1;0;1;0;0;0;0;0;0;0;0;0;0;0;1
1;30;3;3622;4;4;4;2;4;3;57;3;1;2;3;1;1;1;1;0;0;0;0;0;1;0;0;0;0;1;0;0;0
4;15;2;960;4;5;3;2;2;3;30;3;3;2;3;1;0;1;1;0;0;0;0;0;1;0;0;0;0;1;0;0;0
4;12;1;1163;3;3;4;2;4;4;44;3;3;1;3;1;1;1;1;0;1;0;0;0;0;0;0;0;0;0;0;0;1
2;6;2;1209;1;2;4;2;4;3;47;3;3;1;1;1;1;1;0;0;1;0;0;0;0;0;0;0;0;0;0;0;1
4;12;3;3077;1;3;2;2;4;2;52;3;3;1;3;1;1;1;1;0;0;0;0;0;0;0;1;0;0;0;0;0;1
4;24;3;3757;1;4;4;1;4;1;62;3;2;1;3;1;1;1;1;0;1;0;0;0;0;0;0;0;0;1;0;0;0
4;10;3;1418;2;3;3;2;2;4;35;3;1;1;4;1;0;0;1;0;1;0;0;0;0;0;0;0;0;0;0;0;1
4;6;3;3518;1;3;2;3;3;3;26;3;1;1;3;1;0;1;1;0;1;0;0;0;0;0;0;0;0;0;0;0;1
4;12;1;1934;1;4;2;2;2;1;26;3;3;2;3;1;0;1;1;0;0;0;0;0;0;0;1;0;0;0;0;0;1
2;27;4;8318;1;4;2;2;4;1;42;3;2;2;1;1;1;1;0;0;0;0;1;0;0;0;0;0;0;1;0;0;0
4;6;1;1237;2;3;1;2;1;3;27;3;3;2;3;1;0;1;1;0;0;0;0;0;0;0;1;0;0;1;0;0;0
2;6;3;368;5;4;4;2;4;3;38;3;3;1;3;1;0;1;1;0;0;0;0;0;0;0;1;0;0;0;0;0;1
1;12;1;2122;1;3;3;2;2;4;39;3;1;2;4;2;0;0;1;0;1;0;0;0;0;0;0;0;0;0;0;0;1
1;24;3;2996;5;3;2;2;4;2;20;3;3;1;3;1;0;1;0;0;0;0;0;0;1;0;0;0;0;0;0;1;0
2;36;3;9034;2;1;4;1;1;1;29;3;1;1;1;1;1;1;0;0;0;0;0;0;1;0;0;0;0;0;0;0;1
4;24;1;1585;1;5;4;2;3;3;40;3;3;2;3;1;0;1;1;0;0;0;0;0;1;0;0;0;0;0;0;0;1
2;18;3;1301;1;4;4;3;2;4;32;3;3;1;4;1;0;1;1;0;0;0;0;0;0;0;1;0;0;0;0;1;0
3;6;1;1323;2;4;2;2;4;2;28;3;3;2;3;2;1;1;1;0;1;0;0;0;0;0;0;0;0;0;1;0;0
1;24;3;3123;1;1;4;2;1;3;27;3;3;1;3;1;0;1;0;0;1;0;0;0;0;0;0;0;0;1;0;0;0
1;36;3;5493;1;4;2;2;4;1;42;3;2;1;3;2;0;1;1;0;0;1;0;0;0;0;0;0;0;0;0;0;1
3;9;3;1126;2;4;2;2;4;4;49;3;3;1;3;1;0;1;1;0;0;0;0;0;0;0;1;0;0;0;1;0;0
2;24;1;1216;2;1;4;2;4;1;38;1;3;2;3;2;0;1;0;0;0;0;0;0;0;0;1;0;0;0;0;0;1
1;24;3;1207;1;1;4;2;4;3;24;3;1;1;3;1;0;1;0;0;1;0;0;0;0;0;0;0;0;1;0;0;0
4;10;3;1309;5;3;4;3;4;3;27;3;3;1;4;1;0;1;0;0;1;0;0;0;0;0;0;0;0;0;0;0;1
3;15;1;2360;3;3;2;2;2;2;36;3;3;1;3;1;1;1;1;0;0;1;0;0;0;0;0;0;0;0;0;0;1
2;15;5;6850;2;2;1;2;2;3;34;3;3;1;1;2;1;1;0;0;1;0;0;0;0;0;0;0;0;0;0;0;1
4;24;3;1413;1;3;4;2;2;3;28;3;3;1;3;1;0;1;1;0;0;0;0;0;0;0;1;0;0;0;0;1;0
4;39;3;8588;2;4;4;2;2;2;45;3;3;1;1;1;1;1;1;0;0;1;0;0;0;0;0;0;0;0;0;0;1
1;12;3;759;1;5;4;2;2;4;26;3;3;1;3;1;0;1;0;0;1;0;0;0;0;0;0;0;0;0;0;0;1
4;36;3;4686;1;3;2;2;2;1;32;3;2;1;1;1;1;1;1;0;0;1;0;0;0;0;0;0;0;0;0;0;1
2;12;2;585;1;3;4;1;4;4;20;3;1;2;3;1;0;1;1;0;0;0;0;0;0;0;1;0;0;0;0;1;0
4;24;3;2255;5;1;4;2;1;3;54;3;3;1;3;1;0;1;1;0;1;0;0;0;0;0;0;0;0;0;0;0;1
1;6;1;1361;1;1;2;2;4;4;40;3;3;1;4;2;0;0;1;0;1;0;0;0;0;0;0;0;0;0;0;0;1
4;36;1;7127;1;1;2;2;4;3;23;3;1;2;3;1;1;1;0;0;0;0;0;0;1;0;0;0;0;1;0;0;0
1;6;3;1203;2;4;3;2;2;3;43;3;3;1;3;1;1;1;1;0;1;0;0;0;0;0;0;0;0;0;0;0;1
4;6;1;700;5;4;4;2;4;1;36;3;2;2;3;1;0;1;1;0;0;0;0;0;0;0;1;0;0;0;0;0;1
4;24;1;5507;1;4;3;2;4;1;44;3;2;2;3;1;0;1;1;0;0;0;0;0;0;0;0;1;0;0;0;0;1
1;18;3;3190;1;3;2;2;2;4;24;3;3;1;3;1;0;1;0;0;0;0;0;0;0;0;1;0;0;1;0;0;0
2;26;3;7966;1;1;2;2;3;2;30;3;3;2;3;1;0;1;1;0;0;1;0;0;0;0;0;0;0;0;0;0;1
4;15;1;1532;2;3;4;2;3;2;31;3;3;1;3;1;0;1;1;0;0;0;0;1;0;0;0;0;0;1;0;0;0
4;4;1;1503;1;5;2;2;1;4;42;3;3;2;4;2;0;1;1;0;0;0;0;0;0;0;1;0;0;0;0;0;1
1;36;3;2302;1;3;4;2;4;2;31;3;1;1;3;1;0;1;0;0;0;0;0;0;0;0;1;0;0;0;1;0;0
1;6;3;662;1;1;3;2;4;4;41;3;3;1;4;2;1;1;1;0;1;0;0;0;0;0;0;0;0;0;0;0;1
2;36;3;2273;1;5;3;2;1;2;32;3;3;2;3;2;0;1;1;0;0;0;0;1;0;0;0;0;0;0;0;0;1
2;15;3;2631;2;3;2;2;4;2;28;3;1;2;3;1;1;1;0;0;1;0;0;0;0;0;0;0;0;1;0;0;0
4;24;3;1311;2;5;4;2;3;3;26;3;3;1;3;1;1;1;1;0;0;0;0;0;0;0;1;0;0;0;0;1;0
4;24;3;3105;5;1;4;2;2;2;25;3;3;2;3;1;0;1;1;0;0;0;0;0;0;0;1;0;0;0;0;0;1
3;21;1;2319;1;1;2;2;1;2;33;3;1;1;3;1;0;1;0;0;0;0;0;1;0;0;0;0;0;0;1;0;0
1;6;3;1374;5;2;4;2;3;3;75;3;3;1;1;1;1;1;1;0;1;0;0;0;0;0;0;0;0;1;0;0;0
2;18;1;3612;1;4;3;2;4;3;37;3;3;1;3;1;1;1;1;0;0;0;0;0;1;0;0;0;0;1;0;0;0
1;48;3;7763;1;4;4;2;4;1;42;1;2;1;1;1;0;1;0;0;1;0;0;0;0;0;0;0;0;0;0;0;1
3;18;3;3049;1;1;1;2;1;3;45;2;3;1;4;1;0;1;1;0;0;0;0;0;1;0;0;0;0;1;0;0;0
2;12;3;1534;1;1;1;2;1;4;23;3;1;1;3;1;0;1;0;0;0;0;0;0;0;0;1;0;0;0;0;1;0
4;24;2;2032;1;4;4;2;4;1;60;3;2;2;3;1;1;1;1;0;1;0;0;0;0;0;0;0;0;0;0;0;1
1;30;3;6350;5;4;4;2;4;3;31;3;3;1;3;1;0;1;0;0;0;0;0;0;1;0;0;0;0;0;0;0;1
3;18;3;2864;1;3;2;2;1;4;34;3;3;1;4;2;0;1;0;0;0;0;0;0;1;0;0;0;0;0;0;0;1
4;12;1;1255;1;4;4;2;4;4;61;3;3;2;4;1;0;1;1;0;1;0;0;0;0;0;0;0;0;0;0;0;1
1;24;2;1333;1;2;4;2;2;4;43;3;2;2;3;2;0;1;0;0;1;0;0;0;0;0;0;0;0;0;0;0;1
4;24;1;2022;1;3;4;2;4;2;37;3;3;1;3;1;1;1;1;0;1;0;0;0;0;0;0;0;0;1;0;0;0
4;24;3;1552;1;5;3;2;1;2;32;1;3;1;3;2;0;1;1;0;0;0;0;0;0;0;1;0;0;0;0;0;1
1;12;5;626;1;3;4;2;4;4;24;1;3;1;4;1;0;1;0;0;0;0;0;0;0;0;1;0;0;1;0;0;0
4;48;1;8858;5;5;2;2;1;1;35;3;2;2;3;1;1;1;1;0;0;1;0;0;0;0;0;0;0;0;0;0;1
4;12;1;996;5;5;4;2;4;4;23;3;3;2;3;1;0;1;1;0;0;0;0;0;0;0;0;1;0;1;0;0;0
4;6;5;1750;3;4;2;2;4;3;45;1;3;1;4;2;0;1;1;0;0;0;0;0;0;0;1;0;0;0;0;0;1
1;48;3;6999;1;5;1;3;1;4;34;3;3;2;3;1;1;1;0;0;0;0;0;0;0;0;1;0;0;0;0;1;0
2;12;1;1995;2;1;4;2;1;2;27;3;3;1;3;1;0;1;1;0;1;0;0;0;0;0;0;0;0;0;0;0;1
2;9;3;1199;1;5;4;2;4;3;67;3;3;2;1;1;1;1;1;0;0;0;0;1;0;0;0;0;0;1;0;0;0
2;12;3;1331;1;1;2;2;1;2;22;2;3;1;3;1;0;1;0;0;0;0;0;0;0;0;1;0;0;0;0;0;1
2;18;4;2278;2;1;3;2;3;2;28;3;3;2;3;1;0;1;0;0;1;0;0;0;0;0;0;0;0;1;0;0;0
4;21;4;5003;5;3;1;2;4;3;29;1;3;2;3;1;1;1;0;0;1;0;0;0;0;0;0;0;0;1;0;0;0
1;24;5;3552;1;5;3;2;4;2;27;1;3;1;3;1;0;1;0;0;0;0;0;0;1;0;0;0;0;0;0;0;1
2;18;1;1928;1;1;2;2;2;4;31;3;3;2;4;1;0;1;0;0;0;0;0;0;1;0;0;0;0;0;0;0;1
1;24;5;1546;1;5;4;3;4;2;24;1;1;1;4;1;0;1;0;0;0;0;0;0;0;0;1;0;0;0;0;0;1
3;6;2;683;1;1;2;2;1;3;29;1;3;1;3;1;0;1;1;0;0;0;0;0;0;0;1;0;0;1;0;0;0
2;36;3;12389;5;3;1;2;4;1;37;3;2;1;3;1;1;1;0;0;1;0;0;0;0;0;0;0;0;0;0;0;1
2;24;2;4712;5;3;4;2;2;3;37;1;3;2;1;1;1;1;1;0;0;0;1;0;0;0;0;0;0;0;0;0;1
2;24;2;1553;2;5;3;2;2;3;23;3;1;2;3;1;1;1;1;0;0;0;0;0;0;0;1;0;0;1;0;0;0
1;12;3;1372;1;5;2;2;3;2;36;3;3;1;3;1;0;1;0;0;1;0;0;0;0;0;0;0;0;0;1;0;0
4;24;1;2578;4;4;2;2;2;2;34;3;3;1;3;1;0;1;1;0;0;0;0;0;0;0;1;0;0;0;0;0;1
2;48;3;3979;5;5;4;2;1;2;41;3;3;2;3;2;1;1;1;0;0;0;0;0;0;0;1;0;0;0;0;0;1
1;48;3;6758;1;3;3;2;2;2;31;3;3;1;3;1;1;1;0;0;0;0;0;0;0;0;1;0;0;1;0;0;0
1;24;3;3234;1;1;4;2;4;4;23;3;1;1;4;1;1;1;0;0;0;0;0;0;1;0;0;0;0;1;0;0;0
4;30;1;5954;1;5;3;1;2;2;38;3;3;1;3;1;0;1;1;0;0;0;0;0;0;0;1;0;0;0;0;0;1
4;15;1;2788;1;5;2;1;3;2;24;1;3;2;3;1;0;1;1;0;0;0;0;0;1;0;0;0;0;1;0;0;0
2;12;3;2930;1;5;2;2;1;4;27;3;3;1;3;1;0;1;1;0;0;0;0;0;0;0;1;0;0;1;0;0;0
4;24;1;1927;5;3;3;2;2;2;33;3;3;2;3;1;1;1;1;0;0;0;0;1;0;0;0;0;0;1;0;0;0
4;24;3;937;1;1;4;2;3;2;27;3;3;2;4;1;0;1;1;0;0;0;0;0;0;0;0;0;1;0;0;1;0
2;18;1;1056;1;4;3;3;3;4;30;1;3;2;3;1;0;1;0;0;1;0;0;0;0;0;0;0;0;0;0;0;1
2;36;3;2384;1;1;4;2;1;1;33;3;1;1;4;1;0;1;0;0;0;0;0;0;0;0;0;1;0;0;0;0;1
4;12;3;2133;5;4;4;2;4;1;52;3;2;1;1;1;1;1;1;0;1;0;0;0;0;0;0;0;0;1;0;0;0
1;18;3;2039;1;3;1;2;4;4;20;1;1;1;3;1;0;1;0;0;0;0;0;0;1;0;0;0;0;1;0;0;0
1;12;3;1289;1;3;4;3;1;3;21;3;3;1;4;1;0;1;1;0;0;0;0;0;1;0;0;0;0;0;0;0;1
1;18;3;1217;1;3;4;2;3;4;47;3;3;1;4;1;1;1;0;1;0;0;0;0;0;0;0;0;0;0;0;1;0
1;12;1;2246;1;4;3;2;3;3;60;3;3;2;3;1;0;1;0;0;0;0;0;0;1;0;0;0;0;0;0;0;1
1;12;1;385;1;5;4;2;3;4;58;3;3;4;4;1;1;1;1;0;0;0;0;0;0;0;1;0;0;1;0;0;0
2;24;2;1965;5;3;4;2;4;2;42;3;1;2;3;1;1;1;1;0;1;0;0;0;0;0;0;0;0;1;0;0;0
4;21;3;1572;4;4;4;2;4;4;36;1;3;1;4;1;0;1;1;0;0;0;1;0;0;0;0;0;0;1;0;0;0
2;24;3;2718;1;3;3;2;4;3;20;3;1;1;4;1;1;1;0;0;1;0;0;0;0;0;0;0;0;1;0;0;0
2;6;5;931;2;1;1;2;1;3;32;2;3;1;4;1;0;1;0;0;1;0;0;0;0;0;0;0;0;1;0;0;0
1;24;3;1442;1;5;4;2;4;2;23;3;1;2;3;1;0;1;0;0;1;0;0;0;0;0;0;0;0;1;0;0;0
2;24;4;4241;1;3;1;2;4;4;36;3;3;3;4;1;1;1;0;0;0;0;1;0;0;0;0;0;0;0;0;0;1
4;18;1;2775;1;5;2;2;2;3;31;1;3;2;3;1;0;1;0;0;1;0;0;0;0;0;0;0;0;0;0;0;1
4;24;2;3863;1;3;1;2;2;1;32;3;2;1;3;1;0;1;1;0;0;0;1;0;0;0;0;0;0;0;0;0;1
2;7;3;2329;1;1;1;3;1;4;45;3;3;1;3;1;0;1;1;0;0;0;0;0;0;0;1;0;0;1;0;0;0
2;24;5;1837;1;5;4;2;4;1;34;1;2;1;4;1;0;1;0;0;0;0;0;1;0;0;0;0;0;1;0;0;0
4;36;3;3349;1;3;4;2;2;2;28;3;3;1;1;1;1;1;0;0;0;0;0;0;1;0;0;0;0;1;0;0;0
3;10;3;1275;1;1;4;2;2;3;23;3;3;1;3;1;0;1;1;0;0;0;0;0;1;0;0;0;0;1;0;0;0
1;24;5;2828;3;3;4;2;4;4;22;2;3;1;3;1;1;1;1;0;0;0;0;0;1;0;0;0;0;0;0;0;1
4;24;1;4526;1;3;3;2;2;4;74;3;3;1;1;1;1;1;1;0;0;0;1;0;0;0;0;0;0;0;0;0;1
2;36;3;2671;2;3;4;1;4;1;50;3;2;1;3;1;0;1;0;0;0;0;0;0;0;0;1;0;0;1;0;0;0
4;18;3;2051;1;1;4;2;1;4;33;3;3;1;3;1;0;1;1;0;0;0;0;0;0;0;1;0;0;0;0;0;1
4;15;3;1300;5;4;4;2;4;1;45;1;2;1;3;2;0;1;1;0;0;1;0;0;0;0;0;0;0;0;0;0;1
1;12;3;741;2;2;4;2;3;3;22;3;3;1;3;1;0;1;0;1;0;0;0;0;0;0;0;0;0;1;0;0;0
3;10;3;1240;2;4;1;2;4;1;48;3;2;1;4;2;0;1;0;0;1;0;0;0;0;0;0;0;0;1;0;0;0
1;21;3;3357;4;1;4;2;2;2;29;1;3;1;3;1;0;1;1;0;0;0;0;0;0;0;1;0;0;1;0;0;0
1;24;5;3632;1;3;1;3;4;2;22;1;1;1;3;1;0;0;1;0;0;1;0;0;0;0;0;0;0;1;0;0;0
4;18;2;1808;1;5;4;2;1;4;22;3;3;1;3;1;0;1;0;0;0;0;0;0;1;0;0;0;0;1;0;0;0
2;48;4;12204;5;3;2;2;2;2;48;1;3;1;1;1;1;1;1;0;0;0;1;0;0;0;0;0;0;0;0;0;1
2;60;2;9157;5;3;2;2;2;1;27;3;2;1;1;1;0;1;1;0;0;0;0;0;0;0;1;0;0;0;0;0;1
1;6;1;3676;1;3;1;2;3;4;37;3;1;3;3;2;0;1;1;0;1;0;0;0;0;0;0;0;0;0;0;0;1
2;30;3;3441;2;3;2;1;4;2;21;3;1;1;3;1;0;1;0;0;0;0;0;0;1;0;0;0;0;1;0;0;0
4;12;3;640;1;3;4;2;2;4;49;3;3;1;4;1;0;1;1;0;1;0;0;0;0;0;0;0;0;0;1;0;0
2;21;1;3652;1;5;2;2;3;3;27;3;3;2;3;1;0;1;1;0;0;0;1;0;0;0;0;0;0;0;0;0;1
4;18;1;1530;1;3;3;2;2;3;32;1;3;2;3;1;0;1;0;0;1;0;0;0;0;0;0;0;0;0;0;0;1
4;48;3;3914;5;3;4;2;2;4;38;1;3;1;3;1;0;1;0;0;0;0;1;0;0;0;0;0;0;0;1;0;0
1;12;3;1858;1;1;4;2;1;2;22;3;1;1;3;1;0;1;1;0;0;0;0;0;1;0;0;0;0;1;0;0;0
3;6;3;2116;1;3;2;2;2;4;41;3;3;1;3;1;1;1;1;0;0;0;0;0;1;0;0;0;0;0;0;0;1
2;9;5;1437;2;5;2;2;3;1;29;3;3;1;3;1;0;1;0;0;1;0;0;0;0;0;0;0;0;0;0;0;1
4;42;1;4042;3;3;4;2;4;4;36;3;3;2;3;1;1;1;1;0;0;0;0;0;1;0;0;0;0;0;0;0;1
4;9;3;3832;5;4;1;2;4;4;64;3;3;1;4;1;0;1;1;0;0;0;0;1;0;0;0;0;0;0;0;0;1
1;24;3;3660;1;3;2;2;4;2;28;3;3;1;3;1;0;1;1;0;0;0;0;0;0;0;1;0;0;1;0;0;0
1;18;5;1553;1;3;4;2;3;2;44;1;3;1;3;1;0;1;0;0;0;0;0;0;1;0;0;0;0;0;0;0;1
2;15;3;1444;5;1;4;2;1;3;23;3;3;1;3;1;0;1;1;0;0;0;0;0;0;0;1;0;0;0;0;0;1
4;24;3;1376;3;5;4;2;1;2;28;3;3;1;3;1;0;1;1;0;0;0;0;0;0;0;1;0;0;1;0;0;0
4;60;2;15653;1;5;2;2;4;2;21;3;3;2;3;1;1;1;1;0;0;0;0;0;0;0;1;0;0;0;0;0;1
4;12;3;1493;1;1;4;2;3;2;34;3;3;1;3;2;0;1;1;0;0;0;0;0;0;0;1;0;0;1;0;0;0
1;42;2;4370;1;5;3;2;2;3;26;1;3;2;3;2;1;1;0;0;0;0;0;0;0;0;1;0;0;0;0;0;1
1;18;3;750;1;2;4;2;1;4;27;3;3;1;2;1;0;1;0;0;0;0;0;1;0;0;0;0;0;1;0;0;0
2;15;3;1308;1;4;4;2;4;2;38;3;3;2;4;1;0;1;1;0;0;0;0;0;0;0;0;1;0;0;0;0;1
4;15;3;4623;2;3;3;2;2;3;40;3;3;1;1;1;1;1;0;0;0;0;0;1;0;0;0;0;0;0;0;0;1
4;24;1;1851;1;5;4;3;2;2;33;3;3;2;3;1;1;1;1;0;0;0;0;0;0;0;1;0;0;0;0;1;0
1;18;1;1880;1;5;4;2;1;3;32;3;3;2;1;1;1;1;1;0;0;0;0;0;0;0;1;0;0;0;0;1;0
4;36;2;7980;5;1;4;2;4;2;27;3;1;2;3;1;1;1;0;0;0;0;1;0;0;0;0;0;0;0;0;0;1
1;30;4;4583;1;3;2;3;2;4;32;3;3;2;3;1;0;1;1;0;0;0;0;0;1;0;0;0;0;0;1;0;0
3;24;3;947;1;5;4;2;3;1;38;1;2;1;3;2;0;1;0;0;1;0;0;0;0;0;0;0;0;0;0;0;1
1;12;3;684;1;3;4;2;4;2;40;3;1;1;4;2;0;1;0;0;0;0;0;1;0;0;0;0;0;0;0;0;1
1;48;3;7476;1;5;4;2;1;1;50;3;2;1;1;1;1;1;1;0;0;0;0;1;0;0;0;0;0;0;0;0;1
2;12;3;1922;1;3;4;2;2;3;37;3;3;1;4;1;0;1;0;0;0;0;0;0;1;0;0;0;0;0;0;0;1
1;24;3;2303;1;4;4;1;1;4;45;3;3;1;3;1;0;1;0;0;1;0;0;0;0;0;0;0;0;0;0;0;1
2;36;2;8086;2;4;2;2;4;2;42;3;3;4;1;1;1;1;0;0;1;0;0;0;0;0;0;0;0;0;0;0;1
4;24;1;2346;1;5;4;2;3;2;35;3;3;2;3;1;1;1;1;0;0;1;0;0;0;0;0;0;0;0;0;0;1
1;14;3;3973;1;2;1;2;4;1;22;3;2;1;3;1;0;1;1;0;1;0;0;0;0;0;0;0;0;0;0;0;1
2;12;3;888;1;4;4;2;4;2;41;1;3;1;4;2;0;1;0;0;1;0;0;0;0;0;0;0;0;0;0;0;1
4;48;3;10222;5;5;4;2;3;2;37;2;3;1;3;1;1;1;1;0;0;0;0;0;0;0;1;0;0;0;0;0;1
2;30;4;4221;1;3;2;2;1;2;28;3;3;2;3;1;0;1;1;0;0;0;1;0;0;0;0;0;0;1;0;0;0
2;18;1;6361;1;4;2;2;1;1;41;3;3;1;3;1;1;1;1;0;0;0;0;0;1;0;0;0;0;0;0;0;1
3;12;3;1297;1;3;3;2;4;4;23;3;1;1;3;1;0;1;1;0;0;0;0;0;0;0;1;0;0;0;0;1;0
1;12;3;900;5;3;4;2;2;2;23;3;3;1;3;1;0;1;0;0;1;0;0;0;0;0;0;0;0;0;0;1;0
4;21;3;2241;1;4;4;2;2;4;50;3;3;2;3;1;0;1;1;0;0;0;0;0;1;0;0;0;0;0;0;0;1
2;6;2;1050;1;2;4;2;1;3;35;2;3;2;1;1;1;1;1;0;0;0;0;0;1;0;0;0;0;0;0;0;1
3;6;1;1047;1;3;2;2;4;3;50;3;3;1;4;1;0;1;1;0;0;0;0;1;0;0;0;0;0;1;0;0;0
4;24;1;6314;1;2;4;1;2;1;27;1;3;2;1;1;1;1;1;0;0;0;0;0;0;1;0;0;0;0;0;0;1
1;12;1;4843;1;4;3;1;4;3;43;3;1;2;3;1;1;1;0;0;1;0;0;0;0;0;0;0;0;0;0;0;1
3;30;1;3017;1;4;4;2;4;3;47;3;3;1;3;1;0;1;1;0;0;0;0;0;0;0;1;0;0;0;0;0;1
4;24;1;4139;2;3;3;2;3;3;27;3;3;2;4;1;1;1;1;0;0;0;1;0;0;0;0;0;0;0;0;0;1
4;36;3;5742;2;5;2;2;2;2;31;3;3;2;3;1;1;1;1;0;0;0;1;0;0;0;0;0;0;0;0;0;1
4;60;3;10366;1;4;2;2;4;3;42;3;3;1;1;1;1;1;1;0;1;0;0;0;0;0;0;0;0;0;0;0;1
4;6;1;2080;3;3;1;2;2;2;24;3;3;1;3;1;0;1;1;0;1;0;0;0;0;0;0;0;0;0;0;1;0
4;21;2;2580;3;1;4;2;2;4;41;1;3;1;4;2;0;1;0;0;0;0;1;0;0;0;0;0;0;0;0;0;1
4;30;1;4530;1;5;4;2;4;2;26;3;1;1;1;1;1;1;1;0;0;0;0;0;0;0;1;0;0;1;0;0;0
1;24;3;2384;1;4;4;2;4;4;64;1;1;1;4;1;0;1;1;0;0;0;0;0;0;0;1;0;0;0;0;0;1
4;18;3;1453;1;1;3;2;1;4;26;3;3;1;3;1;0;1;1;0;0;0;0;0;0;0;1;0;0;1;0;0;0
4;6;3;1538;1;1;1;2;2;1;56;3;3;1;3;1;0;1;1;0;0;0;0;1;0;0;0;0;0;1;0;0;0
4;12;3;2279;5;3;4;2;4;1;37;3;2;1;3;1;1;1;1;0;0;0;0;0;0;0;1;0;0;0;0;0;1
4;15;2;1478;1;3;4;2;3;4;33;1;3;2;3;1;0;1;1;0;0;0;0;0;0;0;1;0;0;0;0;1;0
4;24;1;5103;1;1;3;2;3;1;47;3;2;3;3;1;1;1;1;0;0;0;0;0;0;0;1;0;0;0;0;1;0
2;36;2;9857;2;5;1;2;3;3;31;3;3;2;4;2;1;1;1;0;0;0;1;0;0;0;0;0;0;0;0;0;1
4;60;3;6527;5;3;4;2;4;1;34;3;2;1;3;2;1;1;1;0;1;0;0;0;0;0;0;0;0;0;0;0;1
3;10;1;1347;5;5;4;2;2;3;27;3;3;2;3;1;1;1;1;0;0;0;0;0;0;0;1;0;0;0;0;0;1
2;36;2;2862;2;4;4;2;3;1;30;3;2;1;3;1;0;1;1;0;1;0;0;0;0;0;0;0;0;0;0;0;1
4;9;3;2753;2;4;3;1;4;2;35;3;3;1;3;1;1;1;1;0;0;0;0;0;0;0;1;0;0;0;0;0;1
1;12;3;3651;4;3;1;2;3;3;31;3;3;1;3;2;0;1;1;0;1;0;0;0;0;0;0;0;0;0;0;0;1
1;15;1;975;1;3;2;2;3;3;25;3;3;2;3;1;0;1;1;0;0;0;0;0;1;0;0;0;0;0;1;0;0
2;15;3;2631;2;3;3;2;2;4;25;3;3;1;4;1;0;1;1;0;0;0;0;0;0;0;0;1;0;1;0;0;0
1;6;1;4716;5;1;1;2;3;4;44;3;3;2;4;2;0;1;1;0;1;0;0;0;0;0;0;0;0;0;0;0;1
4;24;3;2284;1;5;4;2;2;2;28;3;3;1;3;1;1;1;1;0;0;0;0;0;0;0;1;0;0;0;0;0;1
4;6;3;1236;3;3;2;2;4;3;50;3;1;1;3;1;0;1;1;0;0;1;0;0;0;0;0;0;0;0;0;0;1
2;12;3;1103;1;5;4;3;3;4;29;3;3;2;3;1;0;0;1;0;0;0;0;0;0;0;1;0;0;0;0;0;1
4;12;1;926;1;2;1;2;2;3;38;3;3;1;2;1;0;1;1;0;1;0;0;0;0;0;0;0;0;1;0;0;0
4;18;1;1800;1;3;4;2;2;2;24;3;3;2;3;1;0;1;1;0;0;0;0;0;0;0;1;0;0;0;0;0;1
3;15;3;1905;1;4;4;2;4;2;40;3;1;1;1;1;1;1;1;0;0;0;0;1;0;0;0;0;0;0;0;0;1
4;12;3;1123;3;3;4;2;4;2;29;3;1;1;4;1;0;1;0;0;0;0;0;0;1;0;0;0;0;1;0;0;0
1;48;1;6331;1;4;4;2;4;1;46;3;2;2;3;1;1;1;0;0;0;1;0;0;0;0;0;0;0;0;0;0;1
3;24;3;1377;2;4;4;2;2;1;47;3;2;1;3;1;1;1;1;0;0;0;0;0;0;0;1;0;0;1;0;0;0
2;30;2;2503;2;4;4;2;2;3;41;2;3;2;3;1;0;1;1;0;0;0;1;0;0;0;0;0;0;0;0;0;1
2;27;3;2528;1;1;4;2;1;3;32;3;3;1;3;2;1;1;1;0;0;0;1;0;0;0;0;0;0;1;0;0;0
4;15;3;5324;3;4;1;2;4;1;35;3;2;1;3;1;0;1;1;0;1;0;0;0;0;0;0;0;0;1;0;0;0
2;48;3;6560;2;5;3;2;2;3;24;3;3;1;3;1;0;1;0;0;1;0;0;0;0;0;0;0;0;0;0;0;1
2;12;4;2969;1;1;4;2;3;3;25;3;1;2;3;1;0;1;0;0;0;0;0;0;1;0;0;0;0;1;0;0;0
2;9;3;1206;1;4;4;2;4;4;25;3;3;1;3;1;0;1;1;0;0;0;0;0;0;0;1;0;0;1;0;0;0
2;9;3;2118;1;3;2;2;2;4;37;3;3;1;4;2;0;1;1;0;0;0;0;0;0;0;1;0;0;0;0;0;1
4;18;1;629;3;4;4;2;3;3;32;1;3;2;1;1;1;1;1;0;0;0;0;0;0;0;1;0;0;0;0;0;1
1;6;5;1198;1;4;4;2;4;1;35;3;2;1;3;1;0;1;0;0;0;0;0;1;0;0;0;0;0;1;0;0;0
4;21;3;2476;5;4;4;2;4;4;46;3;3;1;1;1;1;1;1;0;0;1;0;0;0;0;0;0;0;0;0;0;1
2;60;3;14027;1;5;4;2;2;1;27;3;3;1;1;1;1;1;0;0;1;0;0;0;0;0;0;0;0;0;0;0;1
4;30;1;7596;5;4;1;2;4;2;63;3;3;2;3;1;0;1;1;0;0;1;0;0;0;0;0;0;0;0;0;0;1
4;30;1;3077;5;4;3;2;2;2;40;3;3;2;3;2;1;1;1;0;0;0;0;0;0;0;1;0;0;0;0;0;1
3;24;1;3148;5;3;3;2;2;2;31;3;3;2;3;1;1;1;1;0;0;0;0;0;0;0;1;0;0;0;0;0;1
2;20;4;6148;2;4;3;2;4;2;31;1;3;2;3;1;1;1;1;0;0;1;0;0;0;0;0;0;0;0;0;1;0
3;9;4;1337;1;1;4;2;2;2;34;3;3;2;1;1;1;1;0;0;0;0;0;0;0;0;1;0;0;0;0;0;1
2;6;5;433;4;1;4;2;2;3;24;1;1;1;3;2;0;1;0;0;0;0;0;1;0;0;0;0;0;1;0;0;0
1;12;3;1228;1;3;4;2;2;4;24;3;3;1;4;1;0;1;0;0;1;0;0;0;0;0;0;0;0;1;0;0;0
2;9;3;790;3;3;4;2;3;4;66;3;3;1;4;1;0;1;1;0;0;0;0;0;0;0;1;0;0;1;0;0;0
4;27;3;2570;1;3;3;2;3;4;21;3;1;1;3;1;0;1;0;0;1;0;0;0;0;0;0;0;0;1;0;0;0
4;15;1;1316;3;3;2;2;2;3;47;3;3;2;4;1;0;1;1;0;0;0;0;0;0;0;1;0;0;0;0;1;0
1;18;3;1882;1;3;4;2;4;2;25;1;1;2;3;1;0;1;0;0;0;0;0;0;0;0;1;0;0;1;0;0;0
2;48;5;6416;1;4;4;2;3;1;59;3;1;1;3;1;0;1;0;0;0;0;1;0;0;0;0;0;0;1;0;0;0
3;24;1;1275;4;3;2;2;4;4;36;3;3;2;3;1;1;1;1;0;0;0;1;0;0;0;0;0;0;0;1;0;0
1;24;3;1987;1;3;2;2;4;4;21;3;1;1;4;2;0;1;0;0;0;0;0;0;0;0;1;0;0;0;0;0;1
2;8;3;760;1;5;4;3;2;4;44;3;3;1;4;1;0;1;1;0;0;0;0;0;0;0;1;0;0;1;0;0;0
4;24;3;2603;4;3;2;2;4;2;28;3;1;1;3;1;1;1;1;0;0;1;0;0;0;0;0;0;0;1;0;0;0
4;4;1;3380;1;5;1;2;1;4;37;3;3;1;3;2;0;1;1;0;1;0;0;0;0;0;0;0;0;1;0;0;0
2;36;5;3990;5;1;3;2;2;1;29;1;3;1;2;1;0;1;1;1;0;0;0;0;0;0;0;0;0;1;0;0;0
2;24;3;11560;1;3;1;2;4;2;23;3;1;2;1;1;0;1;0;0;0;1;0;0;0;0;0;0;0;1;0;0;0
4;6;1;6761;1;5;1;2;3;1;45;3;3;2;1;2;1;1;1;0;1;0;0;0;0;0;0;0;0;0;0;0;1
2;30;4;4280;2;3;4;2;4;2;26;3;1;2;4;1;0;1;0;0;0;0;1;0;0;0;0;0;0;1;0;0;0
1;24;5;2325;2;5;2;2;3;2;32;1;3;1;3;1;0;1;1;0;1;0;0;0;0;0;0;0;0;0;0;0;1
2;10;5;1048;1;3;4;2;4;4;23;2;3;1;4;1;0;1;1;0;0;0;0;0;0;0;1;0;0;0;0;0;1
4;21;3;3160;5;4;4;2;3;3;41;3;3;1;3;1;1;1;1;0;0;0;0;0;0;0;1;0;0;0;0;0;1
1;24;5;2483;3;3;4;2;4;4;22;2;3;1;3;1;1;1;1;0;0;0;0;0;1;0;0;0;0;0;0;0;1
1;39;1;14179;5;5;4;2;4;3;30;3;3;2;1;1;1;1;1;0;0;0;0;0;1;0;0;0;0;0;0;0;1
1;13;1;1797;1;1;3;2;1;3;28;1;3;2;4;1;0;1;1;0;0;0;1;0;0;0;0;0;0;0;0;0;1
1;15;3;2511;1;2;1;2;4;2;23;3;1;1;3;1;0;1;1;0;1;0;0;0;0;0;0;0;0;1;0;0;0
1;12;3;1274;1;1;3;2;1;4;37;3;3;1;4;1;0;1;0;0;1;0;0;0;0;0;0;0;0;1;0;0;0
4;21;3;5248;5;3;1;2;3;2;26;3;3;1;3;1;0;1;1;0;0;1;0;0;0;0;0;0;0;0;0;0;1
4;15;3;3029;1;5;2;2;2;2;33;3;3;1;3;1;0;1;1;0;0;1;0;0;0;0;0;0;0;0;0;0;1
1;6;3;428;1;4;2;2;1;3;49;1;3;1;3;1;1;1;1;0;0;0;0;0;1;0;0;0;0;1;0;0;0
4;30;1;5771;1;5;4;2;2;2;25;3;3;2;3;1;0;1;1;0;0;0;0;0;0;0;1;0;0;1;0;0;0
4;12;2;1555;4;4;4;2;4;1;55;3;2;2;3;2;0;1;0;0;0;0;0;0;0;0;0;1;0;0;0;0;1
1;24;3;1285;5;5;4;2;4;1;32;3;1;1;3;1;0;1;0;0;1;0;0;0;0;0;0;0;0;1;0;0;0
3;6;1;1299;1;3;1;2;1;4;74;3;3;3;2;2;0;0;1;0;1;0;0;0;0;0;0;0;0;0;0;0;1
4;24;3;1393;1;3;2;3;2;4;31;3;3;1;3;1;1;1;1;0;1;0;0;0;0;0;0;0;0;0;0;0;1
1;12;1;691;1;4;4;2;3;3;35;3;3;2;3;1;0;1;0;0;1;0;0;0;0;0;0;0;0;0;0;0;1
4;15;1;5045;5;4;1;2;4;2;59;3;3;1;3;1;1;1;1;0;1;0;0;0;0;0;0;0;0;1;0;0;0
1;18;1;2124;1;3;4;2;4;4;24;3;1;2;3;1;0;1;0;0;0;0;0;0;1;0;0;0;0;1;0;0;0
1;12;3;2214;1;3;4;2;3;3;24;3;3;1;4;1;0;1;1;0;0;0;0;0;0;0;1;0;0;0;0;0;1
4;21;1;12680;5;4;4;2;4;1;30;3;2;1;1;1;1;1;0;0;1;0;0;0;0;0;0;0;0;0;0;0;1
4;24;1;2463;2;5;4;2;3;3;27;3;3;2;3;1;1;1;1;0;1;0;0;0;0;0;0;0;0;0;0;1;0
2;12;3;1155;1;4;3;3;3;4;40;1;3;2;4;1;0;1;1;0;0;0;0;0;0;0;1;0;0;0;0;1;0
4;10;3;2901;5;1;1;2;4;4;31;3;1;1;3;1;0;1;1;0;0;1;0;0;0;0;0;0;0;1;0;0;0
2;12;1;3617;1;4;1;2;4;2;28;3;1;3;3;1;1;1;1;0;0;0;0;0;1;0;0;0;0;0;0;0;1
4;12;1;1655;1;4;2;2;4;4;63;3;3;2;4;1;1;1;1;0;0;0;0;0;0;0;1;0;0;0;0;0;1
1;24;3;2812;5;4;2;2;4;4;26;3;1;1;3;1;0;1;1;0;0;1;0;0;0;0;0;0;0;1;0;0;0
1;36;1;8065;1;3;3;2;2;1;25;3;3;2;1;1;1;1;0;0;0;0;0;1;0;0;0;0;0;1;0;0;0
4;24;1;2223;2;4;4;2;4;3;52;1;3;2;3;1;0;1;1;0;0;0;0;0;0;0;1;0;0;0;0;0;1
3;12;1;1480;3;2;2;2;4;1;66;1;2;3;2;1;0;1;1;0;1;0;0;0;0;0;0;0;0;0;0;0;1
4;36;1;3535;1;5;4;2;4;2;37;3;3;2;3;1;1;1;1;0;1;0;0;0;0;0;0;0;0;0;0;0;1
1;18;3;3509;1;5;4;3;1;4;25;3;3;1;3;1;0;1;1;0;0;0;0;0;0;0;1;0;0;1;0;0;0
4;36;1;5711;4;4;4;2;2;2;38;3;3;2;1;1;1;1;1;0;0;1;0;0;0;0;0;0;0;0;0;0;1
2;18;3;3872;1;2;2;2;4;2;67;3;3;1;3;1;1;1;1;0;0;0;0;0;0;0;0;1;0;1;0;0;0
2;39;1;4933;1;5;2;3;2;4;25;3;3;2;3;1;0;1;0;0;0;0;0;0;0;0;1;0;0;0;0;0;1
4;24;1;1940;4;4;4;2;4;4;60;3;3;1;3;1;1;1;1;0;1;0;0;0;0;0;0;0;0;0;0;0;1
2;12;4;1410;1;3;2;2;2;4;31;3;3;1;4;1;1;1;1;0;0;0;0;0;0;0;0;0;1;0;0;0;1
2;12;3;836;2;1;4;2;2;3;23;1;3;1;4;1;0;1;0;0;1;0;0;0;0;0;0;0;0;1;0;0;0
2;20;3;6468;5;2;1;2;4;4;60;3;3;1;1;1;1;1;1;0;0;1;0;0;0;0;0;0;0;0;1;0;0
2;18;3;1941;4;3;4;2;2;3;35;3;3;1;4;1;1;1;1;0;0;0;1;0;0;0;0;0;0;0;0;0;1
4;22;3;2675;3;4;3;2;4;2;40;3;3;1;3;1;0;1;1;0;0;0;0;0;0;0;1;0;0;0;0;0;1
4;48;1;2751;5;4;4;2;3;2;38;3;3;2;3;2;1;1;1;0;0;1;0;0;0;0;0;0;0;0;0;0;1
2;48;2;6224;1;4;4;2;4;1;50;3;2;1;3;1;0;1;0;0;0;0;0;1;0;0;0;0;0;0;0;0;1
1;40;1;5998;1;3;4;2;3;1;27;1;3;1;3;1;1;1;0;0;0;0;0;1;0;0;0;0;0;0;0;0;1
2;21;3;1188;1;4;2;2;4;3;39;3;3;1;3;2;0;1;0;0;0;0;1;0;0;0;0;0;0;1;0;0;0
4;24;3;6313;5;4;3;2;4;2;41;3;3;1;1;2;1;1;1;0;0;1;0;0;0;0;0;0;0;0;0;0;1
3;24;3;2892;1;4;3;2;4;1;51;3;2;1;3;1;0;1;1;0;0;0;0;0;1;0;0;0;0;0;1;0;0
4;24;3;3062;3;4;4;2;3;1;32;3;1;1;3;1;1;1;1;0;0;0;0;0;1;0;0;0;0;0;0;0;1
4;9;3;2301;2;1;2;2;4;3;22;3;1;1;3;1;0;1;1;0;0;0;0;0;1;0;0;0;0;1;0;0;0
1;18;3;7511;5;4;1;2;4;3;51;3;2;1;3;2;1;1;0;0;0;1;0;0;0;0;0;0;0;0;0;0;1
4;12;1;1258;1;1;2;2;4;3;22;3;1;2;4;1;0;1;1;0;0;0;0;0;1;0;0;0;0;1;0;0;0
4;24;2;717;5;4;4;2;4;2;54;3;3;2;3;1;1;1;1;0;1;0;0;0;0;0;0;0;0;0;0;1;0
2;9;3;1549;5;1;4;2;2;4;35;3;3;1;2;1;0;1;1;0;1;0;0;0;0;0;0;0;0;0;0;0;1
4;24;1;1597;1;4;4;2;4;1;54;3;2;2;3;2;0;1;1;0;0;0;0;1;0;0;0;0;0;0;0;0;1
2;18;1;1795;1;4;3;3;4;4;48;1;1;2;4;1;1;1;1;0;0;0;0;0;0;0;1;0;0;1;0;0;0
1;20;1;4272;1;4;1;2;4;3;24;3;3;2;3;1;0;1;1;0;0;0;0;0;1;0;0;0;0;1;0;0;0
4;12;1;976;5;4;4;2;4;2;35;3;3;2;3;1;0;1;1;0;0;0;0;0;0;0;1;0;0;0;0;0;1
2;12;3;7472;5;2;1;2;2;4;24;3;1;1;2;1;0;1;1;0;1;0;0;0;0;0;0;0;0;1;0;0;0
1;36;3;9271;1;5;2;2;1;2;24;3;3;1;3;1;1;1;0;0;1;0;0;0;0;0;0;0;0;0;0;0;1
2;6;3;590;1;1;3;2;3;4;26;3;3;1;4;1;0;0;1;0;0;0;0;0;0;0;1;0;0;0;0;1;0
4;12;1;930;5;4;4;2;4;4;65;3;3;4;3;1;0;1;1;0;0;0;0;0;0;0;1;0;0;0;0;0;1
2;42;5;9283;1;2;1;2;2;1;55;1;2;1;1;1;1;1;1;0;0;1;0;0;0;0;0;0;0;0;0;0;1
2;15;4;1778;1;1;2;2;1;4;26;3;1;2;2;1;0;1;0;0;1;0;0;0;0;0;0;0;0;1;0;0;0
2;8;3;907;1;1;3;2;2;4;26;3;3;1;3;1;1;1;1;0;0;0;1;0;0;0;0;0;0;0;0;1;0
2;6;3;484;1;5;3;3;3;4;28;1;3;1;4;1;0;1;1;0;0;0;0;0;0;0;1;0;0;0;0;1;0
1;36;1;9629;1;5;4;2;4;2;24;3;3;2;3;1;1;1;0;0;0;1;0;0;0;0;0;0;0;0;0;0;1
1;48;3;3051;1;3;3;2;4;2;54;3;3;1;3;1;0;1;0;1;0;0;0;0;0;0;0;0;0;0;0;0;1
1;48;3;3931;1;5;4;2;4;1;46;3;2;1;3;2;0;1;0;0;1;0;0;0;0;0;0;0;0;0;0;0;1
2;36;2;7432;1;3;2;2;2;3;54;3;1;1;3;1;0;1;1;0;1;0;0;0;0;0;0;0;0;1;0;0;0
4;6;1;1554;1;5;1;2;2;2;24;3;1;2;3;1;1;1;1;0;0;0;0;0;0;0;1;0;0;1;0;0;0
1;36;3;15857;1;2;2;1;3;2;43;3;3;1;1;1;0;1;1;0;0;0;0;0;0;1;0;0;0;0;1;0;0
1;18;3;1345;1;3;4;2;3;4;26;1;3;1;3;1;0;1;0;0;0;0;0;0;0;0;1;0;0;0;0;1;0
4;12;3;1101;1;3;3;2;2;4;27;3;3;2;3;1;1;1;1;0;1;0;0;0;0;0;0;0;0;0;0;1;0
3;12;3;3016;1;3;3;2;1;2;24;3;3;1;3;1;0;1;1;0;0;0;0;0;0;0;1;0;0;0;0;1;0
1;36;3;2712;1;4;2;2;2;3;41;1;3;1;3;2;0;1;0;0;0;0;0;0;1;0;0;0;0;0;0;0;1
1;8;1;731;1;4;4;2;4;4;47;3;3;2;4;1;0;1;1;0;1;0;0;0;0;0;0;0;0;0;0;0;1
4;18;1;3780;1;1;3;2;2;2;35;3;3;2;1;1;1;1;1;0;0;0;0;0;1;0;0;0;0;0;1;0;0
1;21;1;1602;1;4;4;2;3;2;30;3;3;2;3;1;1;1;1;0;1;0;0;0;0;0;0;0;0;0;0;1;0
1;18;1;3966;1;4;1;2;4;4;33;1;1;3;3;1;1;1;0;0;1;0;0;0;0;0;0;0;0;1;0;0;0
4;18;4;4165;1;3;2;2;2;2;36;2;3;2;3;2;0;1;0;0;0;0;1;0;0;0;0;0;0;0;0;0;1
1;36;3;8335;5;4;3;2;4;1;47;3;2;1;3;1;0;1;0;0;0;1;0;0;0;0;0;0;0;0;0;0;1
2;48;2;6681;5;3;4;2;4;1;38;3;2;1;3;2;1;1;1;0;0;0;1;0;0;0;0;0;0;0;0;0;1
4;24;2;2375;3;3;4;2;2;2;44;3;3;2;3;2;1;1;1;0;0;0;1;0;0;0;0;0;0;0;0;0;1
1;18;3;1216;1;1;4;2;3;2;23;3;1;1;3;1;1;1;0;0;1;0;0;0;0;0;0;0;0;1;0;0;0
1;45;4;11816;1;4;2;2;4;2;29;3;1;2;3;1;0;1;0;0;0;0;1;0;0;0;0;0;0;0;0;0;1
2;24;3;5084;5;4;2;2;4;2;42;3;3;1;3;1;1;1;1;0;0;0;0;0;0;0;1;0;0;1;0;0;0
1;12;4;1082;1;3;4;2;4;2;48;1;3;2;3;1;0;1;0;0;1;0;0;0;0;0;0;0;0;0;0;0;1
4;12;3;886;5;3;4;2;2;2;21;3;3;1;3;1;0;1;1;0;0;0;0;0;0;0;1;0;0;1;0;0;0
1;24;1;2957;1;4;4;2;4;3;63;3;3;2;3;1;1;1;1;0;0;1;0;0;0;0;0;0;0;0;0;0;1
4;24;1;2611;1;4;4;1;3;4;46;3;3;2;3;1;0;1;1;0;0;0;0;0;0;0;1;0;0;0;0;1;0
1;36;3;5179;1;5;4;2;2;3;29;3;3;1;3;1;0;1;0;0;0;0;0;0;1;0;0;0;0;0;0;0;1
4;18;3;1943;1;1;4;2;4;4;23;3;3;1;3;1;0;1;0;0;0;0;0;0;0;0;0;1;0;1;0;0;0
4;24;5;1559;1;5;4;2;4;2;50;1;3;1;3;1;1;1;1;0;0;0;1;0;0;0;0;0;0;0;0;0;1
4;18;3;3422;1;4;4;2;4;3;47;1;3;3;3;2;1;1;1;0;0;0;0;0;1;0;0;0;0;0;0;0;1
2;21;3;3976;5;5;2;2;3;2;35;3;3;1;3;1;1;1;1;0;0;0;0;0;1;0;0;0;0;0;0;0;1
4;24;3;1249;1;1;4;2;2;4;28;3;3;1;3;1;0;1;1;0;1;0;0;0;0;0;0;0;0;0;0;1;0
1;9;3;1364;1;5;3;2;4;4;59;3;3;1;3;1;0;1;1;0;0;0;0;0;0;0;1;0;0;0;0;0;1
1;12;3;709;1;4;4;2;4;4;57;2;3;1;4;1;0;1;0;0;0;0;0;0;0;0;1;0;0;0;0;0;1
1;20;1;2235;1;3;4;3;2;3;33;1;1;2;3;1;0;0;0;0;1;0;0;0;0;0;0;0;0;0;0;1;0
4;24;1;4042;5;5;3;2;4;3;43;3;3;2;3;1;1;1;1;0;0;1;0;0;0;0;0;0;0;0;0;0;1
4;15;1;1471;1;3;4;2;4;1;35;3;2;2;3;1;1;1;1;0;0;0;0;0;0;0;1;0;0;0;0;0;1
1;18;5;1442;1;5;4;2;4;1;32;3;2;2;4;2;0;1;0;0;1;0;0;0;0;0;0;0;0;0;0;0;1
4;36;2;10875;1;4;2;2;2;2;45;3;3;2;3;2;1;1;1;0;1;0;0;0;0;0;0;0;0;0;0;0;1
4;24;3;1474;2;1;4;2;3;4;33;3;3;1;3;1;1;1;1;0;1;0;0;0;0;0;0;0;0;0;0;1;0
4;15;1;3343;1;3;4;2;2;1;28;3;2;1;3;1;1;1;1;0;0;0;0;0;1;0;0;0;0;0;0;0;1
1;15;3;3959;1;3;3;2;2;3;29;3;3;1;3;1;1;1;0;0;1;0;0;0;0;0;0;0;0;1;0;0;0
4;9;3;3577;2;3;1;3;2;4;26;3;1;1;3;2;0;0;1;0;1;0;0;0;0;0;0;0;0;0;0;0;1
4;24;1;5804;4;3;4;2;2;4;27;3;3;2;3;1;0;1;1;0;0;1;0;0;0;0;0;0;0;0;0;0;1
4;18;2;2169;1;3;4;2;2;2;28;3;3;1;3;1;1;1;0;0;0;0;1;0;0;0;0;0;0;0;0;1;0
1;24;3;2439;1;1;4;2;4;4;35;3;3;1;3;1;1;1;0;0;0;0;0;0;0;0;1;0;0;1;0;0;0
4;27;1;4526;4;1;4;2;2;4;32;2;3;2;4;2;1;1;1;0;0;0;0;0;1;0;0;0;0;0;0;0;1
4;10;3;2210;1;3;2;2;2;4;25;1;1;1;4;1;0;1;0;0;0;0;0;0;1;0;0;0;0;0;0;0;1
4;15;3;2221;3;3;2;2;4;2;20;3;1;1;3;1;0;1;1;0;0;0;0;0;1;0;0;0;0;1;0;0;0
1;18;3;2389;1;1;4;2;1;2;27;2;3;1;3;1;0;1;1;0;0;0;0;0;0;0;1;0;0;1;0;0;0
4;12;1;3331;1;4;2;2;4;3;42;2;3;1;3;1;0;1;1;0;0;0;0;0;1;0;0;0;0;0;0;0;1
4;36;3;7409;5;4;3;2;2;3;37;3;3;2;3;1;0;1;1;0;0;0;1;0;0;0;0;0;0;0;0;0;1
1;12;3;652;1;4;4;2;4;3;24;3;1;1;3;1;0;1;1;0;0;0;0;0;1;0;0;0;0;1;0;0;0
4;36;2;7678;3;5;2;2;4;2;40;3;3;2;3;1;1;1;1;0;0;0;0;0;1;0;0;0;0;1;0;0;0
3;6;1;1343;1;4;1;2;4;4;46;3;3;2;3;2;0;0;1;0;1;0;0;0;0;0;0;0;0;0;0;0;1
1;24;1;1382;2;5;4;2;1;4;26;3;3;2;3;1;1;1;1;0;0;0;1;0;0;0;0;0;0;0;0;0;1
4;15;3;874;5;1;4;2;1;4;24;3;3;1;3;1;0;1;1;1;0;0;0;0;0;0;0;0;0;1;0;0;0
1;12;3;3590;1;3;2;1;2;3;29;3;3;1;4;2;0;1;1;0;0;0;0;0;1;0;0;0;0;0;0;0;1
2;11;1;1322;4;3;4;2;4;2;40;3;3;2;3;1;0;1;1;0;1;0;0;0;0;0;0;0;0;1;0;0;0
1;18;5;1940;1;1;3;1;4;1;36;1;2;1;1;1;1;1;1;0;0;0;0;0;0;0;1;0;0;0;0;0;1
4;36;3;3595;1;4;4;2;2;2;28;3;3;1;3;1;0;1;1;0;0;0;0;0;0;0;1;0;0;0;0;0;1
1;9;3;1422;1;1;3;2;2;1;27;3;2;1;1;1;1;1;0;0;1;0;0;0;0;0;0;0;0;0;0;0;1
4;24;3;9277;5;3;2;2;4;1;48;3;2;1;3;1;1;1;1;0;0;1;0;0;0;0;0;0;0;0;1;0;0
2;30;1;2181;5;4;4;2;4;4;36;3;3;2;3;1;0;1;1;0;1;0;0;0;0;0;0;0;0;0;0;0;1
4;18;1;1098;1;2;4;2;4;2;65;3;3;2;2;1;0;1;1;0;0;0;0;0;0;0;1;0;0;1;0;0;0
2;24;3;4057;1;5;3;2;3;2;43;3;3;1;3;1;1;1;0;0;0;0;0;0;1;0;0;0;0;0;1;0;0
1;12;3;795;1;1;4;2;4;3;53;3;3;1;3;1;0;1;0;0;0;0;0;1;0;0;0;0;0;1;0;0;0
2;24;1;2825;5;5;4;2;3;1;34;3;3;2;3;2;1;1;1;0;0;0;1;0;0;0;0;0;0;0;0;0;1
2;48;3;15672;1;3;2;2;2;2;23;3;3;1;3;1;1;1;0;0;0;0;1;0;0;0;0;0;0;0;0;0;1
4;36;1;6614;1;4;4;2;4;2;34;3;3;2;1;1;1;1;1;0;1;0;0;0;0;0;0;0;0;0;0;0;1
4;28;5;7824;5;1;3;3;4;4;40;1;1;2;3;2;1;1;1;0;0;1;0;0;0;0;0;0;0;0;0;0;1
1;27;1;2442;1;4;4;2;4;2;43;2;3;4;1;2;1;1;1;0;0;0;1;0;0;0;0;0;0;0;0;0;1
4;15;1;1829;1;4;4;2;4;2;46;3;3;2;3;1;1;1;1;0;0;0;0;0;0;0;1;0;0;0;0;0;1
1;12;1;2171;1;3;4;2;4;3;38;1;3;2;4;1;0;0;1;0;1;0;0;0;0;0;0;0;0;0;0;0;1
2;36;1;5800;1;3;3;2;4;2;34;3;3;2;3;1;1;1;1;0;0;1;0;0;0;0;0;0;0;0;0;0;1
4;36;2;8947;5;5;3;2;2;2;31;2;3;1;1;2;1;1;1;0;0;1;0;0;0;0;0;0;0;0;0;0;1
1;21;3;2606;1;1;4;2;4;3;28;3;1;1;1;1;1;1;1;0;0;0;0;0;0;0;1;0;0;1;0;0;0
4;12;1;1592;4;5;3;2;2;3;35;3;3;1;3;1;0;0;1;0;0;0;0;0;1;0;0;0;0;1;0;0;0
1;18;3;4153;1;3;2;1;3;2;42;3;3;1;3;1;0;1;0;0;0;0;0;0;1;0;0;0;0;0;0;0;1
1;16;1;2625;1;4;2;3;4;3;43;1;1;1;3;1;1;1;0;0;1;0;0;0;0;0;0;0;0;0;0;0;1
4;20;1;3485;5;1;2;2;4;4;44;3;3;2;3;1;1;1;1;0;1;0;0;0;0;0;0;0;0;0;1;0;0
4;36;1;10477;5;4;2;2;4;1;42;3;2;2;3;1;0;1;1;0;0;1;0;0;0;0;0;0;0;0;0;0;1
4;15;3;1386;5;3;4;2;2;4;40;3;1;1;3;1;1;1;1;0;0;0;0;0;0;0;1;0;0;0;0;1;0
4;24;3;1278;1;4;4;2;1;4;36;3;3;1;1;1;1;1;1;0;0;0;0;0;0;0;1;0;0;0;0;0;1
1;12;3;1107;1;3;2;2;2;4;20;3;1;1;1;2;1;1;1;0;0;0;0;0;0;0;1;0;0;0;0;0;1
1;21;3;3763;5;5;2;1;2;4;24;3;3;1;4;1;0;0;1;0;1;0;0;0;0;0;0;0;0;0;0;0;1
2;36;3;3711;5;3;2;2;2;2;27;3;3;1;3;1;0;1;1;0;0;0;0;1;0;0;0;0;0;0;0;1;0
4;15;2;3594;1;1;1;2;2;3;46;3;3;2;4;1;0;1;1;0;0;1;0;0;0;0;0;0;0;1;0;0;0
2;9;3;3195;5;3;1;2;2;4;33;3;3;1;4;1;0;1;1;0;1;0;0;0;0;0;0;0;0;1;0;0;0
4;36;2;4454;1;3;4;2;4;4;34;3;3;2;3;1;0;1;1;0;0;0;0;0;0;0;1;0;0;1;0;0;0
2;24;1;4736;1;1;2;2;4;2;25;1;3;1;4;1;0;1;0;0;0;0;0;0;1;0;0;0;0;1;0;0;0
2;30;3;2991;5;4;2;2;4;2;25;3;3;1;3;1;0;1;1;0;0;0;0;0;0;0;1;0;0;1;0;0;0
4;11;3;2142;4;4;1;2;2;4;28;3;3;1;3;1;1;1;1;0;0;0;1;0;0;0;0;0;0;0;1;0;0
1;24;5;3161;1;3;4;2;2;3;31;3;1;1;3;1;1;1;0;0;0;0;1;0;0;0;0;0;0;0;0;0;1
2;48;4;18424;1;3;1;2;2;3;32;1;3;1;1;1;1;0;0;0;0;0;0;0;0;1;0;0;0;1;0;0;0
4;10;3;2848;2;3;1;1;2;4;32;3;3;1;3;2;0;1;1;0;0;1;0;0;0;0;0;0;0;0;0;0;1
1;6;3;14896;1;4;1;2;4;1;68;1;3;1;1;1;1;1;0;0;1;0;0;0;0;0;0;0;0;0;0;0;1
1;24;3;2359;2;2;1;2;1;3;33;3;3;1;3;1;0;1;0;0;0;0;0;0;1;0;0;0;0;0;1;0;0
1;24;3;3345;1;4;4;2;2;3;39;3;1;1;1;1;1;1;0;0;0;0;0;0;1;0;0;0;0;0;0;0;1
4;18;1;1817;1;3;4;2;2;1;28;3;3;2;3;1;0;1;1;0;0;0;0;0;1;0;0;0;0;1;0;0;0
4;48;2;12749;3;5;4;2;1;2;37;3;3;1;1;1;1;1;1;0;0;0;0;0;0;0;1;0;0;0;0;0;1
1;9;3;1366;1;1;3;2;4;3;22;3;1;1;3;1;0;1;0;0;0;0;0;0;0;0;1;0;0;1;0;0;0
2;12;3;2002;1;5;3;2;4;3;30;3;1;1;3;2;1;1;1;0;1;0;0;0;0;0;0;0;0;0;0;0;1
1;24;5;6872;1;1;2;2;1;3;55;1;3;1;3;1;1;1;0;0;0;0;0;0;1;0;0;0;0;0;1;0;0
1;12;5;697;1;1;4;2;2;2;46;1;3;2;3;1;1;1;0;0;1;0;0;0;0;0;0;0;0;0;0;0;1
1;18;1;1049;1;1;4;2;4;3;21;3;1;1;3;1;0;1;1;0;0;0;0;0;1;0;0;0;0;1;0;0;0
1;48;3;10297;1;5;4;2;4;1;39;2;2;3;3;2;1;1;0;0;0;1;0;0;0;0;0;0;0;0;0;0;1
4;30;3;1867;5;4;4;2;4;2;58;3;3;1;3;1;1;1;1;0;0;0;0;0;0;0;1;0;0;0;0;0;1
1;12;2;1344;1;3;4;2;2;4;43;3;3;2;4;2;0;1;1;0;1;0;0;0;0;0;0;0;0;0;0;0;1
1;24;3;1747;1;1;4;1;1;3;24;3;3;1;4;1;0;0;1;0;0;0;0;0;1;0;0;0;0;0;0;0;1
2;9;3;1670;1;1;4;2;2;2;22;3;3;1;3;1;1;1;0;0;0;0;0;0;0;0;1;0;0;1;0;0;0
4;9;1;1224;1;3;3;2;1;4;30;3;3;2;3;1;0;1;1;0;1;0;0;0;0;0;0;0;0;0;0;0;1
4;12;1;522;3;4;4;2;4;3;42;3;3;2;3;2;1;1;1;0;0;0;0;0;0;0;1;0;0;0;0;0;1
1;12;3;1498;1;3;4;2;1;2;23;1;3;1;3;1;0;1;1;0;0;0;0;0;0;0;1;0;0;1;0;0;0
2;30;2;1919;2;1;4;2;3;1;30;2;3;2;1;1;0;1;0;0;0;0;0;0;0;0;1;0;0;0;0;0;1
3;9;3;745;1;3;3;2;2;4;28;3;3;1;4;1;0;1;0;0;0;0;0;0;0;0;1;0;0;1;0;0;0
2;60;3;6288;1;3;4;2;4;1;42;3;2;1;3;1;0;1;0;0;0;0;0;1;0;0;0;0;0;0;0;0;1
4;24;1;6842;5;3;2;2;4;3;46;3;3;2;1;2;1;1;1;0;0;1;0;0;0;0;0;0;0;0;0;0;1
4;12;3;3527;5;1;2;2;3;3;45;3;3;1;1;2;1;1;1;0;1;0;0;0;0;0;0;0;0;0;0;0;1
4;10;3;1546;1;3;3;2;2;4;31;3;3;1;4;2;0;0;1;0;1;0;0;0;0;0;0;0;0;0;0;0;1
4;24;3;929;5;5;4;2;2;2;31;2;3;1;3;1;1;1;1;0;0;0;0;0;1;0;0;0;0;0;0;0;1
4;4;1;1455;1;5;2;2;1;4;42;3;3;3;4;2;0;1;1;0;1;0;0;0;0;0;0;0;0;0;0;0;1
1;15;3;1845;1;1;4;3;1;3;46;3;1;1;3;1;0;1;1;0;0;0;0;0;1;0;0;0;0;1;0;0;0
2;48;4;8358;3;1;1;2;1;2;30;3;3;2;3;1;0;1;1;0;1;0;0;0;0;0;0;0;0;1;0;0;0
1;24;5;3349;3;1;4;2;4;1;30;3;2;1;3;2;1;1;0;0;0;0;0;0;1;0;0;0;0;0;0;0;1
4;12;3;2859;5;2;4;2;4;1;38;3;3;1;1;1;1;1;1;0;1;0;0;0;0;0;0;0;0;0;0;0;1
4;24;3;3621;2;4;2;2;4;2;31;3;3;2;3;1;0;1;0;0;0;0;0;0;0;0;1;0;0;0;0;0;1
2;18;1;3590;1;2;3;2;3;2;40;3;3;3;2;2;1;1;1;0;0;0;1;0;0;0;0;0;0;0;0;1;0
1;36;2;2145;1;5;2;2;1;2;24;3;3;2;3;1;1;1;0;0;0;0;1;0;0;0;0;0;0;0;0;0;1
2;24;3;4113;3;1;3;2;4;2;28;3;1;1;3;1;0;1;0;0;0;1;0;0;0;0;0;0;0;1;0;0;0
1;12;3;1893;1;3;4;3;4;3;29;3;3;1;3;1;1;1;1;0;1;0;0;0;0;0;0;0;0;1;0;0;0
1;24;1;1231;4;4;4;2;4;3;57;3;1;2;1;1;1;1;1;0;0;0;0;0;0;0;1;0;0;1;0;0;0
3;30;1;3656;5;4;4;2;4;3;49;2;3;2;4;1;0;1;1;0;0;0;0;0;0;0;1;0;0;0;0;0;1
2;9;1;1154;1;4;2;2;4;4;37;3;3;3;4;1;0;1;1;0;0;0;0;0;0;0;1;0;0;0;0;0;1
1;28;3;4006;1;3;3;2;2;2;45;3;3;1;4;1;0;1;0;0;1;0;0;0;0;0;0;0;0;0;0;0;1
2;24;3;3069;2;4;4;2;4;1;30;3;2;1;3;1;0;1;1;0;0;0;0;0;1;0;0;0;0;0;0;0;1
4;6;1;1740;1;4;2;2;2;4;30;3;1;2;3;1;0;1;1;0;0;0;0;0;0;0;1;0;0;0;0;1;0
2;21;2;2353;1;3;1;2;4;3;47;3;3;2;3;1;0;1;1;0;1;0;0;0;0;0;0;0;0;0;1;0;0
4;24;3;2397;3;4;3;2;2;2;35;1;3;2;3;1;1;1;0;0;0;0;0;0;0;0;1;0;0;0;0;0;1
2;6;3;454;1;1;3;2;1;3;22;3;3;1;4;1;0;1;1;0;0;0;0;0;0;0;0;1;0;0;0;1;0
2;30;3;1715;5;3;4;2;1;2;26;3;3;1;3;1;0;1;1;0;0;0;0;0;0;0;1;0;0;1;0;0;0
2;27;1;2520;3;3;4;2;2;3;23;3;3;2;4;1;0;1;0;0;0;0;0;0;0;0;1;0;0;0;0;0;1
4;15;3;3568;1;4;4;2;2;2;54;1;1;1;1;1;1;1;1;0;0;0;0;0;0;0;1;0;0;1;0;0;0
4;42;3;7166;5;5;2;2;4;3;29;3;1;1;3;1;1;1;1;0;0;0;0;0;0;0;1;0;0;0;0;1;0
1;11;1;3939;1;3;1;2;2;4;40;3;3;2;4;2;0;1;1;0;1;0;0;0;0;0;0;0;0;0;0;0;1
2;15;3;1514;2;3;4;3;2;4;22;3;3;1;3;1;0;1;1;0;0;0;0;0;0;0;0;1;0;0;0;0;1
4;24;3;7393;1;3;1;2;4;3;43;3;3;1;4;2;0;1;1;0;1;0;0;0;0;0;0;0;0;0;0;0;1
1;24;5;1193;1;2;1;1;4;1;29;3;1;2;2;1;0;1;0;0;1;0;0;0;0;0;0;0;0;1;0;0;0
1;60;3;7297;1;4;4;1;4;1;36;3;1;1;3;1;0;1;0;0;0;0;1;0;0;0;0;0;0;0;0;0;1
3;24;3;1258;3;3;3;2;3;2;57;3;3;1;4;1;0;1;1;0;0;0;0;0;0;0;1;0;0;1;0;0;0
2;6;3;753;1;3;2;3;3;4;64;3;3;1;3;1;0;1;1;0;0;0;0;0;0;0;1;0;0;1;0;0;0
2;18;2;2427;5;4;4;2;2;3;42;3;3;2;3;1;0;1;1;0;0;0;1;0;0;0;0;0;0;0;0;0;1
4;24;2;2538;1;4;4;2;4;2;47;3;3;2;4;2;0;1;0;0;1;0;0;0;0;0;0;0;0;0;0;0;1
2;15;5;1264;2;3;2;2;2;3;25;3;1;1;3;1;0;1;0;0;1;0;0;0;0;0;0;0;0;0;0;1;0
2;30;1;8386;1;5;2;2;2;3;49;3;3;1;3;1;0;1;0;0;0;0;0;0;1;0;0;0;0;0;0;0;1
3;21;3;2923;2;3;1;2;1;2;28;1;3;1;1;1;1;1;1;0;1;0;0;0;0;0;0;0;0;1;0;0;0
4;24;1;2028;1;5;2;2;2;3;30;3;3;2;4;1;0;1;1;0;0;0;0;0;1;0;0;0;0;0;0;0;1
1;15;1;1433;1;3;4;2;3;3;25;3;1;2;3;1;0;1;1;0;0;0;0;0;1;0;0;0;0;1;0;0;0
3;42;4;6289;1;1;2;2;1;3;33;3;3;2;3;1;0;1;1;0;0;0;1;0;0;0;0;0;0;0;1;0;0
4;13;3;1409;2;2;2;2;4;4;64;3;3;1;3;1;0;1;1;0;0;0;0;0;0;0;1;0;0;1;0;0;0
1;24;3;6579;1;2;4;2;2;1;29;3;2;1;1;1;1;1;1;0;0;1;0;0;0;0;0;0;0;0;0;0;1
2;24;1;1743;1;4;4;2;2;3;48;3;3;2;4;1;0;1;1;0;0;0;0;0;0;0;1;0;0;0;0;0;1
4;12;1;3565;5;1;2;2;1;3;37;3;3;2;4;2;0;1;1;0;0;0;0;1;0;0;0;0;0;0;0;0;1
4;15;5;1569;2;4;4;2;4;2;34;1;3;1;4;2;0;1;1;0;0;0;0;0;0;0;1;0;0;0;0;0;1
1;18;3;1936;5;5;2;2;4;2;23;3;1;2;4;1;0;1;1;0;0;0;0;0;0;0;1;0;0;0;0;1;0
1;36;3;3959;1;2;4;2;3;3;30;3;3;1;1;1;1;1;1;0;0;0;0;0;1;0;0;0;0;0;0;0;1
4;12;3;2390;5;4;4;2;3;2;50;3;3;1;3;1;1;1;1;0;1;0;0;0;0;0;0;0;0;0;0;0;1
4;12;3;1736;1;5;3;2;4;4;31;3;3;1;4;1;0;1;1;0;0;0;0;0;1;0;0;0;0;1;0;0;0
1;30;3;3857;1;3;4;2;4;3;40;3;3;1;1;1;1;1;1;0;0;1;0;0;0;0;0;0;0;0;1;0;0
1;45;3;1845;1;3;4;2;4;1;23;3;2;1;3;1;1;1;0;0;0;0;0;0;0;0;1;0;0;0;0;0;1
2;45;1;4576;2;2;3;2;4;2;27;3;3;1;3;1;0;1;1;0;0;1;0;0;0;0;0;0;0;0;0;0;1
