station;Present_Tmax;Present_Tmin;LDAPS_RHmin;LDAPS_RHmax;LDAPS_Tmax_lapse;LDAPS_Tmin_lapse;LDAPS_WS;LDAPS_LH;LDAPS_CC1;LDAPS_CC2;LDAPS_CC3;LDAPS_CC4;LDAPS_PPT1;LDAPS_PPT2;LDAPS_PPT3;LDAPS_PPT4;lat;lon;DEM;Slope;Solar radiation;Next_Tmax
1.0;27.4;23.5;75.20519257;97.3655777;29.36071268;22.89031453;10.02287579;79.19244091;0.790167765;0.6457003920000001;0.475240132;0.511604705;1.322092881;7.170411347999999;0.005242382;0.424491023;37.6046;126.991;212.335;2.785;5608.9692380000015;25.7
17.0;26.4;22.1;80.10522461;93.31799316;22.86427732;20.78050062;6.955947717000001;33.5660543;0.581344734;0.791700269;0.8615232509999999;0.874834826;0.0;2.762017091;5.357192794;4.556451797;37.6181;127.099;53.4712;0.6970000000000001;5038.491699;23.9
9.0;24.6;23.6;91.84519959;95.8868866;24.14923445;22.25252074;9.773211822;37.07184517;0.83577925;0.86182482;0.935705609;0.868633687;0.180156712;3.983360608;6.30593125;1.098082433;37.4967;126.826;50.9312;0.4125;5785.769043;23.6
24.0;30.1;22.6;27.88970375;83.05796051;35.62881570000001;24.25204496;7.586888492000001;54.55678638;0.158518614;0.269113284;0.105325808;0.136700878;0.0;0.0;0.0;0.0;37.5237;126.909;17.2956;0.2223;5721.03418;35.1
16.0;32.1;24.2;48.54632187;85.68598938;32.48435319;26.42176429;6.077162306;104.9036665;0.08155153799999999;0.116020062;0.03332084;4.5e-05;0.0;0.0;0.0;0.0;37.4697;126.995;82.2912;2.2579;5062.4228520000015;33.0
1.0;25.2;18.1;51.86990356;79.79869843;23.72595592;17.76051983;5.794454793;75.29153995;0.076432736;0.407909483;0.429026281;0.578956013;0.0;0.0;0.0;0.0;37.6046;126.991;212.335;2.785;4769.2817380000015;23.5
23.0;27.6;24.9;55.02540588;91.58088684;27.0628202;23.19347631;7.145133555;79.96977782;0.185881878;0.135757814;0.021638088;0.238806582;0.0;0.0;0.0;0.0;37.5372;126.891;15.5876;0.1554;4482.970215;29.6
16.0;27.2;22.4;52.34327698;88.43099213;28.93660692;22.05622242;6.515838623;93.40907049;0.33806889;0.269397076;0.157595614;0.373025014;0.0;0.0;0.0;0.499538731;37.4697;126.995;82.2912;2.2579;4604.654785;29.8
4.0;31.6;23.3;52.87635803;94.62867737;28.46992004;20.96192747;5.980394512;82.93945749;0.0;0.031844215;0.060308587;0.010783281;0.0;0.0;0.0;0.0;37.645;127.022;45.716;2.5348;4604.255371;30.1
8.0;30.3;23.9;54.43232727;88.6754303;28.42267981;22.18077076;7.285929997999999;35.46614229999999;0.14421235;0.172234128;0.28104434300000003;0.14850072;0.0;0.0;0.0;0.0;37.4697;126.91;52.518;1.5629;5719.192871;31.7
16.0;31.3;22.5;72.88134766;91.37398529;29.38814374;25.42251063;5.401961207;48.57701981;0.532497432;0.843185025;0.373716413;0.193273528;0.0;0.7473196129999999;0.100742269;0.0;37.4697;126.995;82.2912;2.2579;5375.120117;29.0
11.0;31.0;22.9;56.2020874;85.06109619;28.58072726;22.61256734;7.63040476;51.30340226;0.330227405;0.344133813;0.561697307;0.467135617;0.0;0.0017537129999999998;0.043389186;0.233064819;37.5372;127.085;28.7;0.6233;5190.5478520000015;27.7
25.0;29.7;24.8;49.23512268;80.10506439;31.75571642;25.3480675;5.668705066;17.63445558;0.200968612;0.036401085;0.380046624;0.399261045;0.0;0.0;0.0;0.0;37.5237;126.97;19.5844;0.2713;5503.729492;32.0
9.0;33.5;25.4;52.8443718;85.35041809;33.66311108;26.75156271;5.039497773;101.7250503;0.153894944;0.193630746;0.015036581;0.005869126;0.0;0.004564999;0.0;0.0;37.4967;126.826;50.9312;0.4125;5140.238281;35.6
2.0;31.0;24.8;50.36841965;84.77853394;32.24789939;26.8327768;8.448640605;78.16922879;0.267716551;0.156637432;0.289957167;0.070507428;0.000107236;0.0;0.0;0.0;37.6046;127.032;44.7624;0.5141;5538.37207;31.0
10.0;26.2;21.3;52.89002228;94.22794342;27.57823471;21.65482996;9.057738463;57.16146970000001;0.33761631299999995;0.09234828;0.0008503310000000001;0.020561499;0.0;0.0;0.0;0.0;37.4562;126.955;208.507;5.1782;5764.948242;29.8
20.0;32.6;23.1;49.33389282;88.55499268;33.31714672;24.63104966;7.013683597000001;92.06249913;0.033805199;0.10279522;0.393228406;0.326501255;0.0;0.0;0.040401516;0.0;37.6181;127.004;146.554;4.7296;5854.6416020000015;35.3
24.0;30.9;25.9;75.26307678;91.34278107;29.09354676;25.60915149;8.624785662;51.69803794;0.572570178;0.794225889;0.5052378279999999;0.161975645;0.096035564;1.358695491;0.0008635460000000001;0.0;37.5237;126.909;17.2956;0.2223;5306.366211;33.6
8.0;30.3;23.0;52.22525406;92.44346619;30.42137699;23.40133;6.19608137;47.99530333;0.216937797;0.17450463600000002;0.026984165;0.020431059;0.0;0.0;0.0;0.0;37.4697;126.91;52.518;1.5629;5547.546875;30.8
14.0;31.7;23.2;50.40204239;86.56444549999998;30.41843502;22.7491917;7.5770469610000015;14.03857259;0.119265794;0.338161816;0.356604295;0.232355328;0.0;0.0;0.0;0.0;37.4967;126.927;30.968000000000004;0.618;5700.619629;30.3
24.0;26.4;23.9;72.67809296;93.90267944;27.26724603;24.78077982;5.68217658;29.00592677;0.5816905179999999;0.590803845;0.613024902;0.367174483;0.189834891;0.220045138;0.0;0.0;37.5237;126.909;17.2956;0.2223;5678.131836;29.2
7.0;25.1;22.5;51.90740204;96.93811035;28.39814713;22.41933147;3.477725675;81.96093392;0.806148585;0.577122759;0.202335878;0.480071972;0.972131257;0.430154772;0.13263804199999998;0.015658905;37.5776;126.838;12.37;0.0985;5575.6713869999985;24.4
2.0;27.6;19.5;65.2076416;92.75763702;27.34704477;23.69758822;5.411976924;39.78103679;0.298536117;0.621887302;0.254164109;0.076107602;0.0;0.001527189;0.002517359;0.0;37.6046;127.032;44.7624;0.5141;4767.529785;29.2
21.0;30.1;23.0;58.36115646;81.58815765;31.23520036;25.70805286;9.3999149;10.37927411;0.180041902;0.358908906;0.17809049300000002;0.377281807;0.0;0.0;0.0;0.0;37.5507;127.04;26.298;0.5721;5657.239258;30.3
22.0;27.8;20.5;44.08185196;89.24630737;32.07818404;22.06646678;4.72714451;64.46670167;0.010056555;0.027621954;0.036981609;0.16075599699999998;0.0;0.0;0.0;0.0;37.5102;127.086;21.9668;0.1332;5649.2353520000015;32.4
21.0;31.8;26.4;52.17857742;90.92282104;33.28558109;26.08700935;6.943310102000001;22.21408041;0.550914445;0.525667491;0.06176728;0.095527155;0.099017585;0.0;0.0;0.0;37.5507;127.04;26.298;0.5721;5345.291992;31.7
10.0;24.9;19.8;31.61338234;93.67369843;26.51070401;18.5747549;9.63004005;56.74659719;0.051826868;0.198619623;0.026086574;0.012952371;0.0;0.0;0.0;0.0;37.4562;126.955;208.507;5.1782;5887.616211;26.7
9.0;33.5;27.3;58.16664124;92.64035797;32.12607544;25.46593386;5.620960385;97.18311445;0.04213614;0.101644154;0.06322947200000001;0.011640727;0.0;0.0;0.0;0.0;37.4967;126.826;50.9312;0.4125;5170.14502;33.9
13.0;30.4;23.7;84.42402649;94.1412735;26.20031351;23.80993358;7.9277993439999985;53.23727552;0.9004836740000001;0.846628759;0.850511311;0.8655473159999999;5.360599035;0.34337865799999995;0.064833148;3.891844086;37.5776;127.083;59.8324;2.6865;5855.550293;27.7
21.0;25.7;20.6;63.14611053;95.05937958;26.13479346;21.02346226;5.986130496;31.45978061;0.78098203;0.613555556;0.296591655;0.277593466;1.148422152;0.106809496;0.002124405;0.0;37.5507;127.04;26.298;0.5721;5818.526855;27.2
19.0;29.7;22.7;37.90255356;77.7335434;31.66403904;22.64063095;5.079352866;44.12012478;0.2009809;0.016926361;0.055737103;0.1202943;0.0;0.0;0.0;0.0;37.5776;126.938;75.0924;1.7678;4798.291504;30.8
4.0;32.8;26.4;73.80973816;98.784935;31.769292100000005;25.76134369;5.158402433;75.03289546;0.138767375;0.19669621;0.321010646;0.030746556;0.0;0.024955812;0.678518945;0.0;37.645;127.022;45.716;2.5348;5148.043945;36.2
24.0;25.3;21.4;42.03957367;81.5344162;30.99136625;21.67593145;5.641841799;38.72147592;0.408579758;0.251150346;0.211162478;0.1044024;0.0;0.0;0.011717038;0.0;37.5237;126.909;17.2956;0.2223;5832.412109000001;33.1
10.0;25.2;23.7;67.21635437;95.13274384;27.52522681;22.99661126;7.102156787999999;57.64621596;0.809243845;0.637233712;0.258542201;0.071752107;0.192308198;0.581748304;0.0;0.0;37.4562;126.955;208.507;5.1782;5549.060059;30.7
7.0;25.1;23.8;92.27189636;95.57065582;24.43455277;22.57377643;8.979192515;41.61929359;0.857254835;0.892642832;0.950729804;0.8359755590000001;0.323859497;4.939188778;3.431614459;0.664957303;37.5776;126.838;12.37;0.0985;5757.716309;24.3
8.0;27.6;22.6;56.32281113;94.21341705;27.25081538;21.54196565;8.300469518;49.30673468;0.6902740690000001;0.316673501;0.080500367;0.388347142;0.705734753;0.004905626;0.0;0.0;37.4697;126.91;52.518;1.5629;5852.4682619999985;26.9
21.0;27.1;23.6;49.14079285;86.49864197;32.01390616;24.96153141;8.509150475;11.31806471;0.505801516;0.217073583;0.319287664;0.163554282;0.0;0.0;0.0;0.0;37.5507;127.04;26.298;0.5721;5673.222656;30.2
4.0;29.7;23.2;42.79856873;99.47357178;30.10639645;22.11897961;6.971733828;90.50847405;0.553483794;0.536655557;0.126623417;0.091409652;0.002783981;0.045591125;0.0;0.0;37.645;127.022;45.716;2.5348;5824.259765999999;30.3
4.0;33.6;26.5;47.64773178;95.12567902;32.2617184;25.401458;5.54227673;87.25867996;0.060101884;0.05894316;0.000918344;0.0;0.0;0.0;0.0;0.0;37.645;127.022;45.716;2.5348;5087.650879;34.2
4.0;28.5;19.9;50.8753624;90.2015152;24.28904236;17.51777464;4.064451158;78.44397395;0.081694234;0.337353933;0.444443946;0.5586325529999999;0.0;0.0;0.0;0.0;37.645;127.022;45.716;2.5348;4604.255371;26.4
13.0;31.3;24.9;48.04262543;72.97446442;32.68758703;25.29354689;5.684970955;33.72723158;0.224738565;0.5110489770000001;0.336266094;0.394633358;0.0;0.0;0.023368674;0.0;37.5776;127.083;59.8324;2.6865;5601.636719;34.6
7.0;35.3;26.6;60.07236481;89.25840759;31.78818782;26.3831087;5.672968199;136.3011187;0.41689553;0.215717436;0.208989317;0.047045349000000014;0.002629945;0.0;2.84e-05;0.0;37.5776;126.838;12.37;0.0985;5168.971191;34.3
3.0;32.5;24.0;73.61252594;90.55401611;28.49453961;24.38124859;6.31854098;25.40960018;0.280679045;0.5825708589999999;0.859649421;0.5913658820000001;0.0;0.0;0.17819485899999998;0.0;37.5776;127.058;33.3068;0.2661;5822.708984000001;28.3
9.0;33.4;25.6;74.87585449;91.89575195;29.24603287;23.97125497;7.014959862;82.86226614;0.7221731779999999;0.5595280579999999;0.450365906;0.312301131;0.092674312;0.266248502;0.0;0.0;37.4967;126.826;50.9312;0.4125;5748.505859000001;26.4
6.0;28.6;26.1;62.20066834;87.32592773;31.41287418;26.78099226;5.094758779;37.97447999;0.308961294;0.5417109;0.288928108;0.196427935;0.0;0.0;0.0;0.0;37.5102;127.042;54.6384;0.1457;5598.9213869999985;28.6
12.0;34.4;25.5;44.48290634;81.74990082;34.95933841;28.08345016;7.033052494;31.08960028;0.078196124;0.025343795;0.013884051;0.01110258;0.0;0.0;0.0;0.0;37.5507;126.988;132.118;0.5931;5117.001465;35.5
3.0;28.7;24.7;70.53016663;83.5891037;27.93213653;24.71366565;4.674527337;18.71420693;0.274723791;0.637589419;0.7640775009999999;0.787277021;0.0;0.004749133;0.089129468;0.003611379;37.5776;127.058;33.3068;0.2661;5296.95459;26.4
23.0;31.6;26.1;45.29172134;75.3104248;33.34417989;26.09966008;6.535622319;85.82589785;0.27188823300000003;0.176714548;0.328143448;0.456338211;0.0;0.0;0.0;0.0;37.5372;126.891;15.5876;0.1554;5200.321777;32.6
24.0;29.0;23.5;47.79807281;87.0247345;29.106665600000003;22.70917671;4.869330893;32.32778684;0.15054002800000002;0.287321751;0.377253531;0.5991726470000001;0.0;0.0;0.0;0.0;37.5237;126.909;17.2956;0.2223;4706.453125;30.7
10.0;26.1;23.5;46.40450287;95.19612885;31.21229095;21.42852242;6.862087339;58.28545545;0.7107484079999999;0.497041954;0.08667857300000001;0.00639245;0.146050716;0.002093735;0.0;0.0;37.4562;126.955;208.507;5.1782;5865.756348;30.0
19.0;27.5;17.5;39.09989548;73.54471588;28.17320227;19.68612282;5.706335336;43.72845312;0.096266984;0.005342475;0.311215665;0.22810089600000005;0.0;0.0;0.006780895;0.044909485;37.5776;126.938;75.0924;1.7678;5875.916015999999;29.6
7.0;33.0;26.9;65.09237671;92.55162048;31.48872115;24.8670956;5.967236499;159.63252509999995;0.05206156;0.109858759;0.035324238;0.111758855;0.0;0.0;0.0;0.0;37.5776;126.838;12.37;0.0985;5253.399414;33.8
20.0;30.7;22.4;49.54014587;86.19381714;31.19311503;22.40216285;7.990505497000001;72.48385942;0.317031733;0.137144201;0.297719615;0.074802833;0.0;0.0;0.0;0.0;37.6181;127.004;146.554;4.7296;5864.960449;33.6
7.0;29.5;22.5;51.60045624;87.04682922;27.3574287;21.38819456;5.533750782;132.8448383;0.04073637;0.009842183;0.045736068;0.118365999;0.0;0.0;0.0;0.0;37.5776;126.838;12.37;0.0985;4480.0615229999985;29.8
5.0;31.7;21.7;50.79373169;86.52171326;32.42628182;23.59457055;6.5618853370000005;128.1822124;0.144680327;0.298587105;0.092028258;0.116143168;0.0;0.0;0.0;0.0;37.5507;127.135;35.038000000000004;0.5055;4822.092285;32.3
18.0;25.5;20.4;60.6519928;91.91127014;23.40744078;19.12808961;6.064330628;66.03238074;0.299715877;0.400487038;0.381850096;0.396123337;0.0;0.004216966;0.007207906;1.35261897;37.4832;127.024;56.4448;1.2313;4631.540039;27.7
15.0;30.6;21.5;54.13354111;87.56291199;29.17188411;23.65806194;6.876572788;35.04253229;0.553734266;0.31741409800000003;0.517361917;0.496429855;0.01587137;0.0;0.0;0.0;37.5507;126.937;30.0464;0.8552;5752.317383;30.2
6.0;27.3;23.3;83.48073578;98.93367767;25.39817836;22.96232255;10.51236004;56.30784766;0.8460469490000001;0.780105907;0.6717226940000001;0.815530548;5.91220658;4.0089478110000005;0.0;0.067233874;37.5102;127.042;54.6384;0.1457;5862.382813;29.0
21.0;30.2;23.5;52.16133499;83.45092773;32.90968863;25.13114811;6.419490884;9.949398458;0.104623982;0.104523057;0.195593479;0.042066016;0.0;0.0;0.0;0.0;37.5507;127.04;26.298;0.5721;5673.222656;33.8
16.0;29.6;20.4;77.50980377;94.73571777;23.07077126;20.52648577;7.411360542000001;64.98569616;0.704314294;0.6145584479999999;0.7752161479999999;0.391208781;0.748351205;0.042694286;0.56482911;0.04443945;37.4697;126.995;82.2912;2.2579;5849.513184;24.2
14.0;32.8;27.7;47.89439011;78.03825378;33.49951716;27.73996744;6.270964265;22.46127212;0.575713378;0.318262765;0.374447045;0.5276113579999999;0.023849736;0.0;0.0;0.0;37.4967;126.927;30.968000000000004;0.618;4821.79834;35.9
12.0;30.4;26.4;47.55085754;89.60754395;33.78058558;25.39521699;5.90442873;26.02757865;0.10618739;0.181631576;0.186881941;0.568066426;0.0;0.0;0.0;0.0;37.5507;126.988;132.118;0.5931;5052.64502;33.0
25.0;28.3;23.0;51.19216156;91.11763763;33.72091136;25.33509379;5.902524153;26.42843894;0.5969041660000001;0.450145595;0.159017381;0.085508765;0.02953746;0.0;0.0;0.0;37.5237;126.97;19.5844;0.2713;5261.9853520000015;33.4
10.0;31.4;24.0;69.68460846;89.4732666;27.71515429;24.57994043;5.198703448;42.56400478;0.260951551;0.356086904;0.5533371460000001;0.433153169;0.0;0.0;0.0;0.0;37.4562;126.955;208.507;5.1782;5209.7353520000015;29.7
17.0;31.3;24.8;47.4490509;91.47699738;31.20309778;21.62210027;5.299679900000001;149.9893775;0.0;0.0;0.0;0.003986073;0.0;0.0;0.0;0.0;37.6181;127.099;53.4712;0.6970000000000001;5768.783203;32.4
1.0;29.3;21.9;54.63650894;85.48728179999998;30.94387198;24.5473094;6.506471445;94.92700318;0.31651779;0.297677154;0.223457057;0.205031799;0.14007048;0.024269877;0.0;0.0;37.6046;126.991;212.335;2.785;5586.851563;31.1
20.0;29.4;23.3;46.84300613;89.40056609999998;29.17724683;20.75566007;5.893412968;100.6118478;0.212783291;0.032031462000000004;0.141770557;0.12016806;0.0;0.0;0.992212271;0.0;37.6181;127.004;146.554;4.7296;4854.930664;31.5
9.0;29.3;22.7;58.49437332;88.92123413;32.78548351;24.3927044;5.006561001000001;93.39815366;0.563875157;0.380109674;0.4391734000000001;0.575088701;0.0;0.0;13.75969728;0.254666587;37.4967;126.826;50.9312;0.4125;5817.682617;34.2
11.0;34.4;24.8;43.23403549;78.68370056;32.5466061;24.37466777;6.727811456;65.13530795;0.038197161;0.029338349;0.182794477;0.038205511;0.0;0.0;0.0;0.0;37.5372;127.085;28.7;0.6233;5555.6245119999985;32.6
11.0;33.6;27.2;62.70616913;93.59954834;29.33649894;25.50060604;4.395132055;64.17675018;0.868564518;0.913935973;0.744169447;0.103068797;6.758022537;3.197521433;0.45273619;0.0;37.5372;127.085;28.7;0.6233;4768.980469;29.7
15.0;28.6;24.6;66.06715393;88.70417786;31.28288654;26.43345238;7.875018279;25.84904913;0.33493545;0.582789845;0.145767418;0.111132562;0.0;0.0;0.0;0.0;37.5507;126.937;30.0464;0.8552;5474.61377;34.0
6.0;30.5;23.1;43.81999588;88.61808014;31.59095336;24.84768474;7.135130266;55.72762918;0.139542001;0.155683535;0.019336732;0.006841316;0.0;0.0;0.0;0.0;37.5102;127.042;54.6384;0.1457;5560.45752;32.0
18.0;29.9;22.7;72.66079712;91.98715973;25.41175768;22.50833886;4.22070986;34.20408833;0.333611655;0.596477722;0.634107842;0.636585904;0.0;0.000641445;0.0;0.0;37.4832;127.024;56.4448;1.2313;5082.5634770000015;28.1
2.0;26.8;17.0;37.73933792;85.31951141;28.62263177;18.78054968;5.988595267000001;54.94283787;0.087180384;0.007572141;0.311038615;0.217357759;0.0;0.0;0.0;0.063129534;37.6046;127.032;44.7624;0.5141;5851.4995119999985;29.8
8.0;32.5;24.1;43.19466782;74.43945313;34.95169256;26.57731925;5.8903077339999985;42.55554966;0.055889676;0.17362580600000002;0.403602747;0.361142771;0.002198883;0.0;0.0;0.0;37.4697;126.91;52.518;1.5629;5782.484375;34.9
16.0;29.5;20.1;38.33193970000001;76.91633606;30.66970891;20.84392558;11.16817687;116.8838086;0.016770361;0.091687106;0.302842001;0.466246737;0.0;0.0;0.0;0.0;37.4697;126.995;82.2912;2.2579;5184.143555;30.6
4.0;33.3;26.2;56.736285021820926;88.36944332366043;29.621119843558546;23.518266452978157;7.083253211140997;62.47066169241425;0.368493218493479;0.35581210668914715;0.3180811334514748;0.29893002192132795;0.5889920284903472;0.4806672171501429;0.27490820024876034;0.2662951905756588;37.645;127.022;45.716;2.5348;5390.27832;33.5
10.0;26.1;20.7;39.01481247;79.35668945;30.66159389;21.43632589;5.622493654;67.92319075;0.217265684;0.10940882;0.111740989;0.056897285;0.0;0.0;0.004280283;0.0;37.4562;126.955;208.507;5.1782;5847.944824;33.0
10.0;29.3;20.9;60.74808884;95.29280853;27.00783075;23.26748115;11.54407589;54.88321273;0.275731584;0.512069411;0.736817547;0.272252368;0.0;0.182524698;1.425600326;0.0;37.4562;126.955;208.507;5.1782;4454.895508;26.3
16.0;32.3;22.1;48.98134232;79.09551239;33.52456888;26.36848728;5.6109095710000005;89.10157243;0.214048275;0.247735631;0.244498769;0.588090079;0.0;0.0;0.0;0.003596136;37.4697;126.995;82.2912;2.2579;4754.415039;32.7
3.0;30.0;22.2;63.82854462;92.95310211;24.8253708;22.02842813;4.00555862;29.68761361;0.442733062;0.7540944620000001;0.698527243;0.5548470320000001;0.046428055;0.29408717;0.201185615;0.001909322;37.5776;127.058;33.3068;0.2661;4969.604004;25.4
11.0;28.9;25.7;53.68870163;94.19740295;30.56076528;24.64113436;7.232533554;70.49938281;0.675009582;0.560041307;0.07651071599999999;0.019608134;1.481108096;1.706423536;0.0;0.0;37.5372;127.085;28.7;0.6233;5493.429199;31.2
21.0;28.7;24.7;75.30060577;93.17692566;23.89042966;20.24078846;8.773409486;64.86981146;0.7891522329999999;0.790035134;0.654514756;0.41558725;0.203578691;5.661104719;2.034315055;0.376396596;37.5507;127.04;26.298;0.5721;5703.385742;23.7
5.0;25.9;22.5;81.98206329;91.49467468;27.24712511;25.51326597;8.781628648;50.84314362;0.620404849;0.600770146;0.648565451;0.459689668;0.0;0.0;0.046011277;0.0;37.5507;127.135;35.038000000000004;0.5055;5638.637207;26.1
24.0;26.7;21.8;54.29692459;91.70121765;26.59361184;20.36291582;7.713284382999999;56.39340687;0.482140619;0.499821603;0.838244302;0.620465691;0.0;0.0;0.029720786000000006;3.343141854;37.5237;126.909;17.2956;0.2223;4556.236816;28.5
22.0;27.5;19.8;46.84338379;91.47058868;30.33471909;22.5454483;6.537525654;83.08131766;0.251430999;0.145341103;0.020748616;0.053375444;0.0;0.0;0.0;0.0;37.5102;127.086;21.9668;0.1332;5112.584961;31.5
4.0;25.0;20.3;43.89738083;97.99051666;27.29465759;20.31260496;6.3227908510000015;102.6113352;0.263382736;0.119858479;0.0008680560000000001;4.78e-05;0.160602401;1.020349423;0.0;0.0;37.645;127.022;45.716;2.5348;4604.255371;29.7
15.0;23.6;20.1;57.17533112;89.40166473;28.02885611;21.15276394;5.225863367;29.83921258;0.376235614;0.201823307;0.158418261;0.0033525140000000004;0.006602393000000001;0.0;0.0;0.0;37.5507;126.937;30.0464;0.8552;5681.875;28.4
24.0;30.0;24.4;58.61681747;88.18611145;28.48736579;25.17763298;11.22426516;56.49529417;0.28274460100000004;0.7400250840000001;0.663567247;0.214012137;0.0;0.034496516;1.881468516;0.0;37.5237;126.909;17.2956;0.2223;4517.387207;27.4
16.0;29.3;20.8;75.59384155;93.70602417;27.8539875;23.47152091;7.88693585;63.62854401;0.90669976;0.724834415;0.618416792;0.760875367;2.060859511;2.205240656;0.0;0.091439528;37.4697;126.995;82.2912;2.2579;5493.2504880000015;26.2
5.0;28.8;19.9;50.64580536;90.14006042;31.39622792;21.88957701;5.06921648;133.1519395;0.09551917;0.012836756;0.046678663;0.002221362;0.0;0.0;0.0;0.0;37.5507;127.135;35.038000000000004;0.5055;5799.800781;32.4
1.0;24.4;17.6;61.03937912;97.24565125;26.01278047;17.66014433;7.765789617999999;92.66768427;0.062041857;0.0017653229999999996;0.021518707;0.146920106;0.001667661;0.0;0.0;0.0;37.6046;126.991;212.335;2.785;5304.412598;25.6
17.0;27.7;20.1;55.25151443;90.78600311;31.15650903;22.8364452;3.991214951;100.5500602;0.378043505;0.415433098;0.217187567;0.540524611;0.0;0.0;0.0;0.0;37.6181;127.099;53.4712;0.6970000000000001;5668.7026369999985;29.3
16.0;27.5;22.3;53.7555275;93.80367279;29.2131968;20.60155901;8.279846996;96.13059823;0.200427209;0.14581383;0.018900557;0.000353615;0.0;0.0;0.0;0.0;37.4697;126.995;82.2912;2.2579;5849.513184;30.1
20.0;33.5;25.8;70.91566467;99.92908478;28.49282943;24.39015354;10.37095122;54.10696069;0.313095085;0.333858608;0.171525536;0.06889384700000001;0.013266286;0.017980331999999998;0.0073199569999999985;0.0;37.6181;127.004;146.554;4.7296;5525.581543;33.1
20.0;34.2;25.6;73.48059845;92.90700531;30.6111548;25.09031798;8.477526506;97.99736357;0.32428469;0.3902533970000001;0.338510937;0.330740893;0.0;0.0;0.0;0.0;37.6181;127.004;146.554;4.7296;5719.555664;32.2
1.0;28.6;22.6;33.64949417;92.98544312;31.91638709;23.37101254;9.154921273;155.2396007;0.5059413420000001;0.076723415;0.023446861;0.022602536;0.332664718;0.0;0.0;0.0;37.6046;126.991;212.335;2.785;5925.883789;31.4
25.0;30.8;24.9;75.45092011;90.54453278;29.44155476;24.90495687;12.3434241;59.32262144;0.698628782;0.5743895929999999;0.776663022;0.08822405300000001;2.04050223;0.0;2.395949513;0.0;37.5237;126.97;19.5844;0.2713;4718.366699;29.0
21.0;28.8;25.9;56.736285021820926;88.36944332366043;29.621119843558546;23.518266452978157;7.083253211140997;62.47066169241425;0.368493218493479;0.35581210668914715;0.3180811334514748;0.29893002192132795;0.5889920284903472;0.4806672171501429;0.27490820024876034;0.2662951905756588;37.5507;127.04;26.298;0.5721;5153.790039;33.1
21.0;30.6;22.8;60.83187485;87.27407074;29.78159996;25.18475546;6.5936581689999985;8.961811701;0.224292285;0.304195123;0.124269709;0.083257683;0.0;0.0;0.0;0.0;37.5507;127.04;26.298;0.5721;5768.349609000001;30.9
20.0;25.5;22.7;65.72994232;95.81646729;26.412998;21.37473094;5.790481965;88.59082232;0.644926558;0.515052177;0.551317055;0.159798573;0.011165762;0.16093524;3.669601406;0.0;37.6181;127.004;146.554;4.7296;5353.847168;27.5
23.0;29.2;25.4;84.65714264;93.43061829;27.43344891;25.2171502;9.989135941;56.31541529999999;0.763941161;0.894517004;0.6750584040000001;0.621288023;0.0;2.332127376;0.0;0.0;37.5372;126.891;15.5876;0.1554;5801.46582;28.2
3.0;28.4;18.1;54.40710068;87.09999847;24.74797864;18.57088797;9.072732409;64.10231141;0.6776022190000001;0.430745542;0.46079238;0.651270178;0.309114565;0.0;0.326991916;0.91703445;37.5776;127.058;33.3068;0.2661;4537.6098630000015;24.2
11.0;29.4;23.8;51.29519653;89.52171326;34.16601593;25.0202948;5.261523863;82.28891643;0.562908152;0.457512684;0.43760657;0.658779552;0.0072739369999999985;0.0;1.642818113;0.5395266710000001;37.5372;127.085;28.7;0.6233;5805.242676;33.4
18.0;28.0;24.0;85.50141907;94.04644775;24.47928776;22.45209764;12.66433426;91.85903438;0.594317428;0.35737094;0.6443911529999999;0.6380131920000001;1.466492524;0.3548097;0.22046226;1.422823126;37.4832;127.024;56.4448;1.2313;5759.541015999999;26.3
11.0;31.7;21.3;32.94648361;79.3685379;33.05196975;23.20963121;5.445285439;58.65587481;0.243409025;0.33613870799999995;0.088707097;0.145811405;0.0;0.0;0.0;0.0;37.5372;127.085;28.7;0.6233;4942.246582;32.9
15.0;32.8;25.7;58.74143219;89.23996735;30.6855927;26.48496811;7.78336513;24.96261072;0.373837359;0.360120944;0.209833226;0.103543187;0.0;0.0;0.0;0.0;37.5507;126.937;30.0464;0.8552;5452.1103520000015;32.4
19.0;24.3;21.4;70.48519897;94.5690918;24.28889867;20.33259575;5.812246054;55.61741328;0.7061080390000001;0.647386696;0.7704352170000001;0.8948739490000001;0.378398837;0.482728829;0.344238101;3.391266877;37.5776;126.938;75.0924;1.7678;4971.731445;24.0
2.0;29.7;23.8;67.17839813;91.06291199;30.77578204;25.94998583;9.464550753;53.96031626;0.426428381;0.736582538;0.577875233;0.143597375;0.0;0.002580906;0.0;0.0;37.6046;127.032;44.7624;0.5141;5379.522949;31.4
18.0;35.6;27.2;75.47218323;92.74264526;27.81281101;24.78433019;6.230519583;60.88889817;0.6371994910000001;0.7642083959999999;0.6587384620000001;0.439024578;1.26159969;7.35526616;0.109900562;0.0;37.4832;127.024;56.4448;1.2313;5230.736816;35.3
18.0;34.4;26.0;56.3287735;87.31298828;31.77009103;26.1662084;6.707924992000001;93.38693504;0.21530809;0.397580723;0.050878768;0.130446369;0.0;0.932888746;0.0;0.0;37.4832;127.024;56.4448;1.2313;5018.997559;33.9
24.0;33.8;26.7;49.10028076;78.85609436;34.861841;27.45274467;5.440966327999999;65.10916249;0.034624332;0.008036768;0.159036721;0.164610485;0.0;0.0;0.271283845;0.037641483;37.5237;126.909;17.2956;0.2223;5252.9052729999985;35.9
4.0;29.9;21.6;48.79686356;77.89796448;28.20992486;21.43263835;9.875657896;60.61760871;0.383286936;0.311841103;0.400514177;0.290329716;0.0;0.0;0.0;0.0;37.645;127.022;45.716;2.5348;5807.132324;25.0
9.0;31.8;25.2;64.33946991;90.85400391;30.03572573;24.44665104;12.73404819;108.9430816;0.182288554;0.226205265;0.099787779;0.225707882;0.0;0.0;0.0;0.0;37.4967;126.826;50.9312;0.4125;5361.977051;31.7
22.0;27.4;21.0;67.12576294;89.70912933;24.84867958;21.91754743;4.358755718;57.46913878;0.429815935;0.369245008;0.532071155;0.360859334;0.0;0.0;0.109283647;0.0;37.5102;127.086;21.9668;0.1332;5834.976074;26.9
9.0;34.8;25.4;48.54142761;81.01692963;34.46817793;26.43768176;10.99723663;140.1085;0.442470078;0.31389295300000003;0.331662072;0.6370283;0.008657568000000001;0.0;0.0;0.37191543;37.4967;126.826;50.9312;0.4125;5411.600586;35.2
3.0;32.0;21.5;37.86087799;79.03642273;33.68728146;24.33507756;7.06669416;18.48720751;0.004974023;0.013233627;0.043608017;0.279061071;0.0;0.0;0.0;0.0;37.5776;127.058;33.3068;0.2661;5794.317871;33.4
2.0;26.9;22.7;79.93427277;94.46448517;27.53452372;23.87098354;8.459919125;31.72847271;0.803954807;0.864748208;0.660615759;0.5673181270000001;8.568732341;8.527851661;0.0;0.0;37.6046;127.032;44.7624;0.5141;5727.288086;28.5
19.0;30.8;21.9;65.73111725;91.57623291;27.209122600000004;22.37903369;12.58367874;76.92165367;0.61712407;0.8454779490000001;0.773260607;0.59379469;1.397049006;8.44128814;0.210697087;1.39347655;37.5776;126.938;75.0924;1.7678;5888.26709;27.1
15.0;32.2;26.7;36.89846420000001;81.77112579;34.80322599;27.16031755;8.083471517000001;26.05357349;0.302656996;0.297830229;0.239271997;0.101398;0.0;0.0;0.0;0.0;37.5507;126.937;30.0464;0.8552;5380.898926;33.1
13.0;29.8;26.4;56.736285021820926;88.36944332366043;29.621119843558546;23.518266452978157;7.083253211140997;62.47066169241425;0.368493218493479;0.35581210668914715;0.3180811334514748;0.29893002192132795;0.5889920284903472;0.4806672171501429;0.27490820024876034;0.2662951905756588;37.5776;127.083;59.8324;2.6865;5141.434082;34.4
15.0;31.0;21.8;50.50610733;89.49793243;31.69374258;24.33510647;7.230832984;25.01026225;0.273360862;0.260003275;0.100413868;0.104577383;0.0;0.0;0.0;0.0;37.5507;126.937;30.0464;0.8552;5681.875;30.5
22.0;37.2;26.4;47.59265900000001;84.27845764;35.11035105;26.55898007;5.394981782;108.4449471;0.030398284;4.97e-06;0.093278731;0.08995991800000001;0.0;0.004535333;0.0;0.0;37.5102;127.086;21.9668;0.1332;5255.947265999999;35.5
10.0;29.6;24.4;76.81353759999998;91.43122101;25.85215292;24.49582855;10.60970068;28.30016426;0.617593606;0.585246102;0.637192157;0.5005258429999999;0.002041063;0.001431755;0.034208901;0.0;37.4562;126.955;208.507;5.1782;5650.036621;28.1
9.0;29.76940424977184;23.22925303089562;83.33200836;91.54808044;26.61404768;24.41063231;12.09473481;89.49065971;0.839297101;0.750413885;0.787282583;0.847933767;2.318609158;0.907254477;1.227247448;2.450624307;37.4967;126.826;50.9312;0.4125;5785.769043;26.2
16.0;34.0;25.3;59.44178009;87.80998993;33.67927796;27.86448451;6.237571836;82.37233321;0.358149829;0.4625505999999999;0.17742795;0.12718807699999998;0.0;0.0;0.056191817000000005;0.001104895;37.4697;126.995;82.2912;2.2579;5269.60498;31.9
22.0;29.1;23.6;35.69174576;93.47370148;30.41513045;23.55776314;6.30918928;84.76452859;0.427685578;0.296644835;0.171190387;0.147385902;3.91340313;0.001394753;0.001218443;0.0;37.5102;127.086;21.9668;0.1332;4782.181640999999;31.3
22.0;30.3;25.3;73.10509491;88.77602386;26.92564948;24.43170504;4.188518465;49.71209955;0.276348955;0.7358793920000001;0.673914118;0.7769568790000001;0.0;0.0077547940000000015;0.212263344;0.0;37.5102;127.086;21.9668;0.1332;5282.966309;27.3
21.0;32.0;23.6;49.57604599;81.60166931;29.97619602;24.83710706;6.413321187;14.79612086;0.200845365;0.253855393;0.207180081;0.148090805;0.0;0.0;0.0;0.0;37.5507;127.04;26.298;0.5721;5859.321777;30.6
8.0;30.5;21.9;54.83684921;83.66609192;28.695724;23.24635739;6.796956529;30.69322193;0.341646271;0.278841181;0.46018486;0.641613122;0.0;0.0;0.0;0.064163042;37.4697;126.91;52.518;1.5629;5858.525879;30.3
13.0;33.1;24.0;50.23798370000001;84.57293701;34.33279243;26.47892201;5.381705612;49.58837434;0.27133060600000003;0.195600089;0.32971262;0.293150862;0.0;0.0;0.0;0.0;37.5776;127.083;59.8324;2.6865;5386.63623;33.5
16.0;28.8;18.0;37.36451339999999;90.00015259;29.39704796;20.33344735;5.807247996;84.46328052;0.014243375;0.001765814;0.031476841;0.017602242;0.0;0.0;0.000851781;0.0;37.4697;126.995;82.2912;2.2579;4446.865723;29.2
5.0;23.6;18.7;71.55079651;96.84972382;31.44360987;22.74312121;8.132351051;80.52191456;0.56934964;0.506037457;0.590804034;0.582105588;2.489927625;0.0;1.077180865;1.014534929;37.5507;127.135;35.038000000000004;0.5055;5566.146973;34.3
6.0;27.5;23.1;53.34527206;94.52983856;28.13508632;21.82011064;8.774476806000001;57.24330783;0.7023207229999999;0.305654363;0.09641974;0.282992045;1.966884981;0.004599171;0.0;0.0;37.5102;127.042;54.6384;0.1457;5862.382813;28.0
9.0;27.8;17.7;59.29993057;91.67429352;24.42943521;18.28504523;9.35357372;103.3300283;0.6809590670000001;0.318848758;0.3969355;0.65128393;0.402180567;0.0;0.122030725;0.26809139600000004;37.4967;126.826;50.9312;0.4125;4549.967285;25.2
1.0;24.0;21.3;55.51598739999999;97.25944519;26.24910172;21.57428205;8.861916502;74.21101392;0.183440977;0.111559787;0.056156020999999993;0.267311629;0.0;0.0;0.0;0.0;37.6046;126.991;212.335;2.785;4654.086426;25.6
19.0;28.8;23.5;57.76248932;82.89546204;28.10955989;24.80431783;5.6486802;36.77788758;0.482132058;0.485988834;0.359121652;0.620976321;0.0;0.0;0.0;0.0;37.5776;126.938;75.0924;1.7678;4903.913574;28.9
22.0;29.9;22.6;50.64165115;91.88314819;31.80420999;22.77728805;6.541112125;84.47720242;0.250771592;0.199692821;0.068330977;0.010391814;0.0;0.0;0.0;0.0;37.5102;127.086;21.9668;0.1332;5820.09668;31.3
17.0;31.4;24.7;49.9981308;90.52729797;31.2502062;23.82307082;5.793210586;123.7791769;0.08834812199999999;0.074521615;0.165425663;0.623134565;0.0;0.0;0.0;0.008779168;37.6181;127.099;53.4712;0.6970000000000001;4654.882813;33.4
22.0;33.0;26.8;51.51665878;81.37244415;31.59611446;25.37672776;5.241208563;91.89074612;0.4646578320000001;0.394266196;0.244999451;0.081651394;0.0;0.0;0.0;0.0;37.5102;127.086;21.9668;0.1332;4672.853027;32.8
23.0;32.0;24.8;44.7934761;91.75746918;31.037387100000004;24.62321027;5.11614726;86.52450371;0.205254644;0.325171241;0.269688688;0.102513985;0.0;0.0;0.0;0.0;37.5372;126.891;15.5876;0.1554;5142.8759770000015;32.3
20.0;27.5;23.6;78.57058716;94.19554138;24.07156982;20.34153848;12.40803901;72.93885914;0.628142822;0.444537486;0.567598545;0.604829264;0.08142611400000001;0.028159151;0.0;0.0;37.6181;127.004;146.554;4.7296;5153.638672;26.5
12.0;33.0;24.5;56.32568359;82.07345581;31.66377758;26.78504564;7.689498931;26.18526451;0.261788309;0.31586378800000003;0.092329055;0.124495481;0.0;0.023666027000000003;0.0;0.0;37.5507;126.988;132.118;0.5931;5085.084961;33.7
8.0;30.7;24.7;65.45708466;77.96784973;29.43549978;26.52143611;6.21459955;38.76326688;0.344807862;0.414754018;0.45390666;0.443653913;0.0;0.0;0.0;0.0;37.4697;126.91;52.518;1.5629;5174.513672;25.4
8.0;30.2;23.6;65.64667511;91.16549683;28.07343372;24.21734066;10.97348366;47.95590468;0.279502279;0.619702221;0.7127461629999999;0.252356604;0.000363208;0.049888823;1.070262775;0.0;37.4697;126.91;52.518;1.5629;4518.48877;26.9
20.0;33.5;25.5;49.45423126;92.7071228;30.85045121;23.41937354;6.307320774;121.8202507;0.005369776;0.128144548;0.003596392;0.093885136;0.0;0.0;0.0;0.0;37.6181;127.004;146.554;4.7296;5026.276855;34.4
3.0;25.9;23.6;48.3421669;86.37254334;32.0825336;24.94211524;8.226273517000001;11.18082507;0.494666833;0.23788708;0.335480393;0.160803021;0.0;0.0;0.0;0.002212064;37.5776;127.058;33.3068;0.2661;5677.223633;30.5
5.0;30.5;20.9;70.62746429;90.73003387;29.87170563;23.10650133;9.116770724;83.3045613;0.12792684699999998;0.412812276;0.404555491;0.756040305;0.0;0.0;0.0;0.041594583;37.5507;127.135;35.038000000000004;0.5055;5841.578125;28.7
21.0;30.0;25.7;55.91812134;78.41812897;32.01284132;24.76965551;6.430442372999999;8.43772457;0.375444846;0.411902544;0.34771227600000004;0.184133405;0.0;0.0;0.0;0.0;37.5507;127.04;26.298;0.5721;5464.6240229999985;32.3
8.0;30.2;21.0;37.94810867;82.87408447;31.3238192;22.52458746;6.322786282;42.04622857;0.024123444;0.000291543;0.100107107;0.124071892;0.0;0.0;0.0;0.0;37.4697;126.91;52.518;1.5629;4438.943848;31.3
23.0;33.1;26.5;55.42015839;84.35671234;32.0715734;26.19640496;4.985110908999999;74.60847028;0.181049767;0.199784398;0.055447524000000005;0.061838293;0.0;0.0;0.0;0.0;37.5372;126.891;15.5876;0.1554;5282.941406;35.6
18.0;32.4;26.1;71.75197601;90.74194336;30.64027384;26.36566715;6.563182463;79.035273;0.173305015;0.26174959600000003;0.199190104;0.116955043;0.0;0.0;0.07258347400000001;0.0;37.4832;127.024;56.4448;1.2313;5312.851563;32.6
17.0;28.2;22.8;44.1305809;96.50205994;31.15309372;22.22570196;4.950924948;128.71401200000003;0.169862686;0.080821468;0.026521876;0.002020237;0.0;0.0;0.0;0.0;37.6181;127.099;53.4712;0.6970000000000001;4728.7817380000015;32.4
4.0;30.2;21.8;48.61432648;95.61498261;30.5862485;21.49286067;5.947103431;110.5746099;0.005733060999999999;0.004344256;0.161049941;0.193594693;0.0;0.0;0.0;0.0;37.645;127.022;45.716;2.5348;5504.035156;31.6
17.0;25.9;23.1;73.60960388;95.5195694;27.90336879;23.82546502;5.143930952;74.02256024;0.823593083;0.688853196;0.304530491;0.04679063;0.134197672;0.908322063;0.0;0.0;37.6181;127.099;53.4712;0.6970000000000001;5559.888184;30.2
19.0;33.7;24.3;46.43682098;78.59612274;33.80973669;26.25451843;5.760165716;40.4150819;0.171425036;0.304826685;0.157061568;0.608070914;0.0;0.0;0.0;0.0;37.5776;126.938;75.0924;1.7678;4834.006348;33.5
2.0;23.4;20.8;38.81443024;89.55992889;31.26017449;20.58285681;6.5211570860000005;67.01885978;0.420137465;0.229074776;0.207272038;0.131013668;0.0;0.0;0.0;0.0;37.6046;127.032;44.7624;0.5141;5851.4995119999985;32.1
9.0;29.7;19.3;43.17064667;91.2243042;28.54595588;20.40655248;5.124190326;80.66846876;0.038925863;6.51e-05;0.027238044;0.041093216;0.0;0.0;0.0;0.0;37.4967;126.826;50.9312;0.4125;4510.756836;30.5
24.0;30.4;22.3;36.39590454;75.75074005;29.47132791;21.70144732;5.5947029389999985;38.57978042;0.104750399;0.365238984;0.033137835;0.0;0.0;0.0;0.0;0.0;37.5237;126.909;17.2956;0.2223;4556.236816;28.6
11.0;32.8;22.5;40.62101746;88.49784088;31.93301954;24.32621778;6.266946306;68.51749078;0.07588568400000001;0.075476372;0.103299341;0.033542723;0.0;0.0;0.019512833;0.0;37.5372;127.085;28.7;0.6233;5102.056152;31.0
16.0;33.0;22.7;69.43014526;92.12096405;26.99047179;23.26675648;4.659040739;72.82799514;0.789020389;0.3917689720000001;0.628777539;0.502216501;0.883501815;0.0;0.373457531;0.761584846;37.4697;126.995;82.2912;2.2579;5753.311035;29.7
4.0;26.1;24.3;73.05004883;98.29284668;28.57844241;23.9532241;6.4918111860000005;83.78494099;0.636273393;0.654238758;0.44118555;0.280115161;0.0;0.0;0.0;0.0;37.645;127.022;45.716;2.5348;5482.38916;30.7
6.0;28.7;21.7;47.50867081;89.43598938;25.83720116;20.71784605;9.686577002;78.19924895;0.561174029;0.14794416400000002;0.005459407;0.043657328;0.16487173;0.0;0.0;0.0;37.5102;127.042;54.6384;0.1457;5873.7807619999985;27.9
3.0;27.3;18.7;55.14621353;69.28266144;26.96942621;21.91814567;5.413216511;10.55252651;0.201253936;0.308128412;0.659326243;0.7158129329999999;0.0;0.0;0.0;0.0;37.5776;127.058;33.3068;0.2661;5692.631836;31.4
1.0;27.9;19.7;57.32327652;98.41091919;26.826015100000006;20.85217081;7.206028889;98.07310581;0.865220605;0.471344831;0.234828046;0.061475156;0.265694468;0.049826820999999986;0.0;0.0;37.6046;126.991;212.335;2.785;5630.507813;27.8
7.0;27.7;20.1;45.35031509;86.47623444;28.46921918;20.63803694;5.533159236;124.796464;0.056241129;0.062999943;0.07145966299999999;0.208289783;0.003049542;0.0;0.0;0.0;37.5776;126.838;12.37;0.0985;5816.495605;31.1
14.0;32.3;22.3;37.99059677;66.76030731;31.39678676;24.11498014;6.947262565;15.88201062;0.05045313;0.155219823;0.418172631;0.303353785;0.0;0.0;0.0;0.0;37.4967;126.927;30.968000000000004;0.618;5832.850098;29.2
14.0;29.6;19.6;49.46152878;72.97227478;26.46315387;22.57321092;6.177130837999999;12.26242948;0.216269916;0.33733235;0.621728721;0.728671504;0.0;0.0;0.0;0.000424632;37.4967;126.927;30.968000000000004;0.618;5685.721191;28.3
13.0;31.4;27.5;73.90900421;92.88561249;28.80478937;25.43181264;6.888966362000001;52.29896379;0.861865145;0.8203722640000001;0.775006245;0.576139382;0.212909065;5.299966574;1.338329612;0.030452471;37.5776;127.083;59.8324;2.6865;5564.081543;30.8
19.0;30.6;24.2;68.81589508;98.24501801;28.64782753;25.2869694;8.506887058;29.50910588;0.506408564;0.852333738;0.827945811;0.441684957;0.0;0.943495816;0.90918611;0.218706649;37.5776;126.938;75.0924;1.7678;5544.510254;28.4
24.0;30.0;25.0;56.14964676;91.01355743;30.30494814;24.71651976;6.0701939760000005;43.1572783;0.139779233;0.216960113;0.095946648;0.175387598;0.002604167;0.0;0.0;0.0;37.5237;126.909;17.2956;0.2223;5646.496582;32.0
6.0;26.5;22.0;65.02926636;93.78432465;24.68692943;20.50009043;9.020396233;62.34147954;0.286072326;0.471937196;0.921040396;0.940675553;0.0;0.271399558;5.501344067000001;10.50049929;37.5102;127.042;54.6384;0.1457;5848.636719;24.0
24.0;29.2;25.3;39.04785156;91.8687439;30.30224004;22.93630984;5.906661838;50.5201265;0.14927036400000002;0.08412224800000001;0.013586502;0.031628981;0.0;0.0;0.0;0.0;37.5237;126.909;17.2956;0.2223;4669.50293;32.4
18.0;30.9;24.0;61.10827255;94.21561432;29.44808371;24.5473923;7.18774277;107.7246964;0.693021695;0.278770263;0.171328882;0.051140172000000005;2.75827026;0.0;0.0;0.0;37.4832;127.024;56.4448;1.2313;5437.720703;31.3
22.0;33.3;27.3;45.00518417;81.55715942;33.64550847;25.02434641;4.787804713;102.9834634;0.049561620999999986;0.267812517;0.217328393;0.09137852;0.0;0.0;0.0;0.0;37.5102;127.086;21.9668;0.1332;5335.196289;36.0
3.0;25.9;18.4;52.17268753;87.547966;22.41322973;16.88178391;10.56515477;30.37719043;0.304182794;0.20458101;0.7276399040000001;0.879486882;0.0;0.0;0.165679475;0.416046057;37.5776;127.058;33.3068;0.2661;4458.824707;25.1
22.0;26.7;23.8;76.10057068;92.50948334;28.18487918;24.29173645;7.618094186;42.39568464;0.5053355270000001;0.39676097;0.27430982600000003;0.285454249;0.666130371;0.0;0.002630101;0.0;37.5102;127.086;21.9668;0.1332;5793.305176;28.2
25.0;25.5;20.7;55.43583679;85.65642548;24.28906475;19.45943262;5.840402196;39.94521447;0.296454239;0.441897741;0.406416817;0.373186877;0.0;0.0;0.007808615;0.885825237;37.5237;126.97;19.5844;0.2713;4644.800781;25.7
5.0;29.2;24.8;65.99344635;88.6967392;30.9305511;23.77103031;5.889043212000001;101.0683943;0.342446499;0.401745113;0.217925385;0.213612152;0.0;0.0;0.0;0.017096181999999998;37.5507;127.135;35.038000000000004;0.5055;5460.998047;32.9
22.0;24.7;19.5;58.03895569;76.35327911;27.50156009;21.92009338;6.5814348260000015;59.84576114;0.62045481;0.616787021;0.442404972;0.14590422;0.0;0.0;0.0;0.0;37.5102;127.086;21.9668;0.1332;5793.305176;29.5
8.0;29.0;22.9;84.85108185;98.19606018;25.76523367;23.27683885;7.467575599999999;51.66118419;0.759134651;0.8020942940000001;0.330425147;0.412446887;2.910536197;9.588965307999999;1.5293144090000002;0.074388977;37.4697;126.91;52.518;1.5629;5689.650879;30.0
19.0;31.2;27.3;46.88344574;91.39226532;32.728989500000004;25.19877706;8.349208097;67.38729982;0.68354713;0.298850653;0.0044194740000000005;0.0;13.93046903;0.0;0.0;0.0;37.5776;126.938;75.0924;1.7678;5220.168945;30.0
17.0;29.1;22.8;56.22118759;96.57217407;31.04842038;24.08662131;3.867012973;88.70685695;0.391073372;0.275142549;0.379968243;0.39994683;0.0;0.000518811;0.0;0.4158957;37.6181;127.099;53.4712;0.6970000000000001;5634.69043;31.2
25.0;36.6;28.1;39.86124039;69.95458221;35.19917732;27.22962895;6.489931156;11.66316926;5.14e-05;0.009780366;0.106568036;0.053635932;0.0;0.0;0.0;0.0;37.5237;126.97;19.5844;0.2713;4754.673828;36.2
24.0;26.5;22.4;74.12668609999999;88.70707703;28.54783313;24.30063277;9.181297799;45.61289823;0.691399978;0.574043791;0.587150547;0.360903787;0.674833349;0.030913276;0.185521603;0.0;37.5237;126.909;17.2956;0.2223;4814.346191;30.1
21.0;32.6;22.3;38.05863571;76.23897552;33.72336552;24.78668441;7.102664719;19.08679376;0.006836374;0.010052466;0.031886604;0.26795529;0.0;0.0;0.0;0.0;37.5507;127.04;26.298;0.5721;5790.1728520000015;33.3
1.0;20.6;18.2;61.65188599;93.9237442;26.85975027;19.50585423;5.691574703;77.76364132;0.30600351;0.23971308;0.257080702;0.074534697;0.0;0.000836913;0.2345118;0.001661121;37.6046;126.991;212.335;2.785;5183.697265999999;26.2
1.0;27.7;20.3;68.14322662;96.93781281;25.97761567;22.96657811;12.98867557;43.62951038;0.216913142;0.7765086059999999;0.70523028;0.24465427;0.0;0.16543017599999998;7.0298630210000015;0.0;37.6046;126.991;212.335;2.785;4692.945313;24.2
13.0;26.6;24.1;65.83880615;93.46529388;28.82964328;24.14571326;5.727121352999999;33.93290345;0.836581937;0.692753011;0.264998633;0.080077302;0.109978437;0.688692758;0.0;0.0;37.5776;127.083;59.8324;2.6865;5544.0302729999985;30.4
7.0;27.7;22.7;62.10433197;94.63677979;30.91709639;25.20230068;4.859111975;103.4601262;0.620595799;0.426696539;0.219106138;0.135757629;1.041424354;0.0;0.0;0.0;37.5776;126.838;12.37;0.0985;5253.399414;32.8
2.0;33.3;25.2;61.86048889;88.29633331;29.76883608;25.32626524;4.9893597860000005;45.22888152;0.255452712;0.367724472;0.490996169;0.467349088;0.0;0.0;0.0;0.0;37.6046;127.032;44.7624;0.5141;5247.996582;30.7
9.0;35.4;25.1;52.18729019;94.52883911;32.9272855;26.79038893;5.85780181;98.40654552;0.198253824;0.06409506400000001;0.026072201;0.009891604;0.0;0.0;0.0;0.0;37.4967;126.826;50.9312;0.4125;5109.80957;34.5
1.0;26.5;21.1;59.20687866;99.00197601;28.18316031;23.24118757;9.303979297;95.55895893;0.676639688;0.281054939;0.12987341;0.023890900000000003;2.141087588;7.35e-05;0.0;0.0;37.6046;126.991;212.335;2.785;5586.851563;26.9
22.0;34.1;21.3;57.8950882;89.69330597;29.52055249;23.48058703;5.3972372810000016;86.64619446;0.218499966;0.583187641;0.226256045;0.199327697;0.0;0.926354156;0.188130756;0.0;37.5102;127.086;21.9668;0.1332;5802.83252;30.5
20.0;27.8;23.8;96.16981506;99.94646454;26.10786396;24.01882354;11.85718977;8.187835972;0.785301771;0.96835306;0.634851576;0.620179272;0.098520005;2.882375622;0.045695544000000005;0.016854489;37.6181;127.004;146.554;4.7296;5883.8916020000015;27.5
1.0;27.2;19.4;44.90764618;81.28615570000002;28.92589044;21.41850329;9.612656553999999;93.10654402;0.063558196;0.16368666099999998;0.341842815;0.514800112;0.0;0.0;0.0;0.0;37.6046;126.991;212.335;2.785;4879.5620119999985;27.5
6.0;28.3;24.1;51.51148605;87.06934357;31.42164216;24.93469525;7.949444791;36.41225962;0.483477151;0.197014551;0.28982870000000005;0.18573797;0.0;0.0;0.0;0.0;37.5102;127.042;54.6384;0.1457;5685.7021479999985;31.2
8.0;26.5;23.0;87.82826233;99.6909256;24.98003291;22.57449738;10.59509516;44.06899158;0.856229934;0.8317862340000001;0.666028648;0.858483131;8.157637695;4.712339551;0.0;0.021282989;37.4697;126.91;52.518;1.5629;5852.4682619999985;27.5
15.0;25.5;24.0;72.70726013;95.14276886;27.19582446;24.37967109;9.542139192;19.75662555;0.8102239729999999;0.625985603;0.803598192;0.663243999;0.034715481;0.032461053;0.001953125;0.0;37.5507;126.937;30.0464;0.8552;5787.470703;24.5
22.0;26.5;19.5;57.8240509;90.26086426;25.9812401;21.02623938;7.14351354;67.23880021;0.450349941;0.515753031;0.7578796320000001;0.681138902;0.0;0.0;0.0;2.889751703;37.5102;127.086;21.9668;0.1332;4559.627441;27.6
24.0;31.3;24.1;45.54912186;85.95018005;30.15648376;23.79936702;5.737728645;48.55917565;0.08363339;0.090754882;0.243813105;0.33224697;0.0;0.0;0.0;0.0;37.5237;126.909;17.2956;0.2223;5517.208008;31.2
4.0;34.4;26.2;70.55043793;97.84503937;29.488173;25.18942149;6.59246405;80.15233481;0.175736694;0.28113449;0.096638741;0.096544134;4.84e-05;0.001889587;6.91e-05;0.0;37.645;127.022;45.716;2.5348;5437.578125;33.2
10.0;25.3;20.3;72.97431183;92.23554993;23.0006175;20.58944158;4.300936232;35.81138865;0.362664757;0.34076185200000003;0.661213786;0.38881154;0.0;0.0;0.13584554699999998;0.0;37.4562;126.955;208.507;5.1782;5873.69043;26.7
4.0;27.3;23.3;81.66199493;99.35729218;26.54545943;22.44169306;8.95137308;45.17054915;0.484267453;0.877531353;0.845718697;0.929150772;0.00424604;1.391228074;0.206177775;7.175917029;37.645;127.022;45.716;2.5348;5851.575195;27.2
10.0;25.2;14.2;57.63123703;91.42247772;21.13913098;15.77612517;12.12121342;62.78915064;0.224562019;0.222633939;0.706694807;0.8523819890000001;0.0;0.0;0.130083481;0.448519225;37.4562;126.955;208.507;5.1782;4371.68457;23.6
11.0;34.2;25.7;53.13729858;76.70349884;33.44675509;26.64036886;6.117479126;85.21962722;0.3884053870000001;0.182169291;0.385654975;0.10668167;0.0;0.0;2.378872613;0.0;37.5372;127.085;28.7;0.6233;5190.5478520000015;33.1
24.0;34.7;26.9;40.30762863;74.04824066;36.04926575;28.31914295;6.731115043;65.28420997;0.025324469;0.0263195;0.000296094;0.046447389000000006;0.0;0.0;0.0;0.0;37.5237;126.909;17.2956;0.2223;5306.366211;36.2
16.0;24.5;21.1;57.85673904;96.44419861;28.7899027;22.19011695;4.204029918;70.22971221;0.769016887;0.580946223;0.193376595;0.498692767;8.779153595;0.136144014;0.314419639;0.0;37.4697;126.995;82.2912;2.2579;5575.939453;23.8
8.0;27.7;22.0;45.68257141;69.41161346;27.53957084;19.13562598;9.401081482999999;51.55470165;0.120630031;0.194247738;0.148913308;0.44875043;0.0;0.0;0.0;0.0;37.4697;126.91;52.518;1.5629;5704.723633;29.1
19.0;27.1;22.7;52.20623016;92.89256287;32.30864442;24.80496455;6.072291305;49.20205037;0.600685916;0.377796415;0.143069638;0.093394556;0.030847836;0.0;0.0;0.0;37.5776;126.938;75.0924;1.7678;5303.9375;32.2
14.0;28.5;23.5;31.26683998;68.29636383;32.72767604;23.65829276;5.706902315;15.60545443;0.26745077;0.099315325;0.008320832;0.046974985;0.0;0.0;0.0;0.0;37.4967;126.927;30.968000000000004;0.618;5816.779785;34.0
1.0;30.7;22.4;51.6072998;95.34684753;32.12030829;25.60168944;7.405827900000001;82.90708938;0.235752061;0.080906184;0.0;0.002857378;0.0;0.0;0.0;0.0;37.6046;126.991;212.335;2.785;5275.070313;30.6
16.0;33.2;19.0;60.48880768;87.52157593;28.84181122;23.321519100000003;4.98957174;66.09509277;0.213219811;0.504049714;0.217601058;0.22103007;0.0;0.141389116;0.006650843;0.0;37.4697;126.995;82.2912;2.2579;5809.117188;28.9
19.0;27.5;21.2;44.80232239;76.35874939;27.50864285;17.47510413;7.793283402999999;46.26117412;0.119937743;0.196649486;0.157689752;0.491030733;0.0;0.0;0.0;0.005189913;37.5776;126.938;75.0924;1.7678;5738.621582;27.7
15.0;25.9;20.2;50.49518204;91.85282898;26.75442428;20.51784962;7.98358055;45.90308177;0.478437071;0.49906583;0.82197112;0.673671418;0.0;0.0;0.216741427;3.4483452000000003;37.5507;126.937;30.0464;0.8552;4587.4536130000015;27.0
7.0;27.5;18.1;65.50678253;90.41672516;21.19542804;17.09773097;12.7072612;134.2675219;0.140667773;0.189763528;0.736878021;0.831051237;0.0;0.0;0.070596736;0.197081124;37.5776;126.838;12.37;0.0985;4440.394043;25.0
23.0;33.5;21.6;35.80410385;72.41105652;31.97713173;24.41739136;6.596166987999999;99.39065154;0.269336762;0.333266835;0.09438012;0.13590761;0.0;0.0;0.0;0.0;37.5372;126.891;15.5876;0.1554;4921.571777;34.1
13.0;29.76940424977184;23.22925303089562;53.30072403;86.20579529;32.84459814;24.5294369;5.996884574;51.61748596;0.13113192699999998;0.068302047;0.192068628;0.049097931;0.0;0.0;0.0;0.0;37.5776;127.083;59.8324;2.6865;5670.620117;33.9
18.0;30.1;23.0;77.23042297;92.50033569;28.01385157;24.39460283;9.069138209;51.15776658;0.6811357720000001;0.6975858159999999;0.577374378;0.475691198;0.04976022;0.404178993;0.012442918;0.015996758;37.4832;127.024;56.4448;1.2313;5813.991211;27.6
18.0;35.1;25.2;48.33104324;79.16290283;33.70631345;26.66712889;5.586291939;92.79277802;0.272875033;0.245484889;0.257165217;0.58605464;0.0;0.0;0.0;0.002539855;37.4832;127.024;56.4448;1.2313;4779.287109000001;35.3
22.0;30.3;25.9;52.36558151;89.84595490000002;31.6081901;24.73553807;5.994226653999998;75.52730195;0.272660058;0.319173709;0.484877718;0.594120721;0.0;0.0;0.012982362;0.051120725;37.5102;127.086;21.9668;0.1332;5455.287598;31.4
11.0;28.4;24.1;83.86276245;91.52675629;25.0062658;23.00986549;13.12316549;90.71140877;0.7013686509999999;0.407352034;0.6567275579999999;0.651589667;1.124565656;0.203547854;0.139224129;1.377324452;37.5372;127.085;28.7;0.6233;5761.848633;25.8
