CIC0;SM1_Dz(Z);GATS1i;NdsCH;NDssC;MLOGP;LC50 [-LOG(mol/L)]
1.783;0.331;1.6669999999999998;0;0;0.087;1.777
3.532;0.134;1.11;0;0;2.813;4.165
2.928;1.131;0.908;0;2;3.508;5.86
2.709;0.331;2.072;0;0;-0.081;1.78
2.031;0.8909999999999999;0.8220000000000001;0;0;2.9560000000000004;4.42
3.465;2.171;0.888;0;0;6.515;3.623
4.81;0.693;1.42;0;2;5.426;2.548
3.728;0.956;1.17;0;0;4.789;5.574
3.102;0.693;1.3159999999999998;0;2;2.005;3.451
2.512;0.134;1.293;0;0;0.846;2.364
3.6010000000000004;0.223;1.254;0;1;2.357;3.141
1.832;1.209;1.364;0;0;-0.792;3.828
1.3330000000000002;0.754;1.148;0;1;-0.386;3.487
