price;bedrooms;bathrooms;sqft_living;sqft_lot;floors;waterfront;sqft_above;sqft_basement;yr_built;yr_renovated;lat;long;sqft_living15;sqft_lot15;condition_1;condition_2;condition_3;condition_4;condition_5;grade_1;grade_10;grade_11;grade_12;grade_13;grade_3;grade_4;grade_5;grade_6;grade_7;grade_8;grade_9;view_0;view_1;view_2;view_3;view_4
515000.0;3;2.5;3000;8250;1.0;0;1760;1240;1963;0;47.6191;-122.11200000000001;2040;8250;0;0;0;1;0;0;0;0;0;0;0;0;0;0;0;1;0;1;0;0;0;0
499950.0;3;2.5;2370;12753;2.0;0;2370;0;2001;0;47.7359;-121.984;2280;16808;0;0;1;0;0;0;0;0;0;0;0;0;0;0;1;0;0;1;0;0;0;0
305000.0;4;1.75;1000;7200;1.5;0;1000;0;1947;0;47.742;-122.324;1280;7200;0;0;0;1;0;0;0;0;0;0;0;0;0;1;0;0;0;1;0;0;0;0
1000000.0;3;2.5;2730;5832;2.0;0;2730;0;1998;0;47.6216;-122.161;2360;5832;0;0;1;0;0;0;0;0;0;0;0;0;0;0;0;0;1;1;0;0;0;0
870300.0;4;2.5;2350;3150;1.5;0;1690;660;1910;0;47.6605;-122.335;1750;3150;0;0;0;1;0;0;0;0;0;0;0;0;0;0;0;1;0;1;0;0;0;0
450000.0;3;2.5;1530;762;2.0;0;1050;480;2007;0;47.641999999999996;-122.374;1610;1482;0;0;1;0;0;0;0;0;0;0;0;0;0;0;0;1;0;1;0;0;0;0
336000.0;3;2.5;2110;4549;2.0;0;2110;0;1989;0;47.3885;-122.154;2110;4030;0;0;0;1;0;0;0;0;0;0;0;0;0;0;0;1;0;1;0;0;0;0
152000.0;3;1.0;1090;3264;1.0;0;1090;0;1969;0;47.3155;-122.182;1090;3330;0;0;0;1;0;0;0;0;0;0;0;0;0;1;0;0;0;1;0;0;0;0
1208000.0;4;3.75;3250;10949;2.0;0;2940;310;1930;1989;47.638999999999996;-122.219;2340;15234;0;0;0;1;0;0;0;0;0;0;0;0;0;0;0;0;1;1;0;0;0;0
500000.0;3;1.75;1690;48096;1.0;0;1690;0;1973;0;47.6745;-122.061;2070;35160;0;0;1;0;0;0;0;0;0;0;0;0;0;0;1;0;0;1;0;0;0;0
622000.0;3;2.5;1950;7481;2.0;0;1950;0;1987;0;47.56399999999999;-122.09100000000001;1980;8479;0;0;1;0;0;0;0;0;0;0;0;0;0;0;0;1;0;1;0;0;0;0
450000.0;5;2.5;2850;209523;1.0;0;1930;920;1925;1968;47.3939;-122.089;2220;209523;0;0;0;1;0;0;0;0;0;0;0;0;0;0;1;0;0;1;0;0;0;0
475000.0;3;1.75;2270;13000;1.0;0;2270;0;1968;0;47.4474;-122.14399999999999;2440;10000;0;0;0;0;1;0;0;0;0;0;0;0;0;0;0;1;0;1;0;0;0;0
335000.0;2;1.0;1070;6678;1.0;0;1070;0;1951;0;47.7315;-122.35700000000001;1680;7788;0;0;0;1;0;0;0;0;0;0;0;0;0;0;1;0;0;1;0;0;0;0
256000.0;2;1.0;860;5000;1.0;0;860;0;1915;1945;47.5133;-122.35600000000001;1220;5000;0;0;1;0;0;0;0;0;0;0;0;0;0;1;0;0;0;1;0;0;0;0
312000.0;2;1.0;1170;5150;1.0;0;980;190;1907;0;47.5503;-122.28299999999999;1660;5150;0;0;1;0;0;0;0;0;0;0;0;0;0;1;0;0;0;1;0;0;0;0
225000.0;2;1.0;1040;11500;1.0;0;1040;0;1947;0;47.2791;-122.3;1300;11954;0;0;0;0;1;0;0;0;0;0;0;0;0;0;1;0;0;1;0;0;0;0
175000.0;2;1.0;1020;5130;1.0;0;1020;0;1948;0;47.301;-122.226;1200;6497;0;0;0;1;0;0;0;0;0;0;0;0;0;1;0;0;0;1;0;0;0;0
815000.0;4;2.75;3488;9614;2.0;0;3488;0;1998;0;47.6055;-122.01299999999999;3600;10891;0;0;1;0;0;0;1;0;0;0;0;0;0;0;0;0;0;1;0;0;0;0
345000.0;2;1.75;1030;1106;2.0;0;765;265;2006;0;47.5397;-122.387;1030;1066;0;0;1;0;0;0;0;0;0;0;0;0;0;0;1;0;0;1;0;0;0;0
840500.0;3;2.0;2520;5400;1.5;0;1410;1110;1906;0;47.6365;-122.361;1960;5400;0;0;0;1;0;0;0;0;0;0;0;0;0;0;0;1;0;1;0;0;0;0
435500.0;1;1.75;1020;4512;1.0;0;770;250;1937;0;47.6724;-122.266;1230;5029;0;0;1;0;0;0;0;0;0;0;0;0;0;0;1;0;0;1;0;0;0;0
799000.0;4;2.5;3170;94855;1.0;0;1910;1260;1978;0;47.7648;-122.11200000000001;2590;65340;0;0;0;1;0;0;0;0;0;0;0;0;0;0;0;0;1;1;0;0;0;0
267500.0;3;1.75;1650;7807;1.0;0;1650;0;1986;0;47.3514;-122.167;1810;8475;0;0;1;0;0;0;0;0;0;0;0;0;0;0;1;0;0;1;0;0;0;0
530000.0;2;1.0;760;3000;1.0;0;760;0;1922;0;47.6633;-122.35700000000001;1630;3600;0;0;1;0;0;0;0;0;0;0;0;0;0;1;0;0;0;1;0;0;0;0
224500.0;4;1.0;1430;8355;1.5;0;1430;0;1983;0;47.3178;-122.17399999999999;1550;7938;0;0;0;1;0;0;0;0;0;0;0;0;0;0;1;0;0;1;0;0;0;0
425000.0;4;1.5;1600;6180;1.5;0;1600;0;1946;0;47.5681;-122.285;1410;6180;0;0;1;0;0;0;0;0;0;0;0;0;0;1;0;0;0;1;0;0;0;0
820000.0;5;2.75;2830;6137;2.0;0;2830;0;2010;0;47.5932;-122.05799999999999;3170;6285;0;0;1;0;0;0;0;0;0;0;0;0;0;0;0;0;1;1;0;0;0;0
458500.0;2;1.75;1160;6828;1.0;0;860;300;1941;0;47.6937;-122.29799999999999;1250;6828;0;0;1;0;0;0;0;0;0;0;0;0;0;0;1;0;0;1;0;0;0;0
1160000.0;4;2.5;4240;43995;2.0;0;4240;0;1989;0;47.6008;-122.044;3720;59522;0;0;1;0;0;0;1;0;0;0;0;0;0;0;0;0;0;1;0;0;0;0
339000.0;4;2.5;2840;8746;2.0;0;2840;0;2001;0;47.19;-122.01299999999999;2630;9900;0;0;1;0;0;0;0;0;0;0;0;0;0;0;0;1;0;1;0;0;0;0
420000.0;3;3.5;1900;2133;2.0;0;1520;380;2009;0;47.5675;-122.369;1530;3264;0;0;1;0;0;0;0;0;0;0;0;0;0;0;0;1;0;1;0;0;0;0
500000.0;2;1.5;2070;5432;2.0;0;1370;700;1951;0;47.5571;-122.29899999999999;2070;5505;0;0;1;0;0;0;0;0;0;0;0;0;0;0;1;0;0;1;0;0;0;0
1000000.0;4;2.5;2610;3277;1.5;0;1920;690;1922;0;47.6636;-122.33;1810;3277;0;0;0;0;1;0;0;0;0;0;0;0;0;0;0;1;0;1;0;0;0;0
382000.0;3;2.0;1360;4840;1.5;0;1360;0;1936;0;47.5487;-122.376;1450;4840;0;0;1;0;0;0;0;0;0;0;0;0;0;0;0;1;0;1;0;0;0;0
190000.0;2;1.0;930;11450;1.0;0;930;0;1946;0;47.4862;-122.264;1150;11450;0;0;1;0;0;0;0;0;0;0;0;0;0;1;0;0;0;1;0;0;0;0
375000.0;4;2.5;2800;5000;2.0;0;2800;0;2006;0;47.3596;-122.036;2960;5092;0;0;1;0;0;0;0;0;0;0;0;0;0;0;0;0;1;1;0;0;0;0
460000.0;2;2.5;1880;40575;1.0;0;1880;0;1987;0;47.5614;-121.899;1930;32935;0;0;1;0;0;0;0;0;0;0;0;0;0;0;0;0;1;1;0;0;0;0
215000.0;3;1.75;1430;13399;1.0;0;900;530;1946;0;47.4787;-122.275;1720;6415;0;0;0;1;0;0;0;0;0;0;0;0;0;0;1;0;0;1;0;0;0;0
293000.0;3;2.25;1910;3481;2.0;0;1910;0;2009;0;47.4293;-122.18799999999999;1714;3177;0;0;1;0;0;0;0;0;0;0;0;0;0;0;0;1;0;1;0;0;0;0
377000.0;3;1.75;1680;7389;1.0;0;1150;530;1979;0;47.5199;-122.184;2100;10348;0;0;1;0;0;0;0;0;0;0;0;0;0;0;0;1;0;1;0;0;0;0
160000.0;3;1.0;1350;8700;1.5;0;1350;0;1942;0;47.4497;-122.289;1300;8700;0;0;1;0;0;0;0;0;0;0;0;0;0;1;0;0;0;1;0;0;0;0
293000.0;1;1.0;1110;5421;1.0;0;1110;0;1935;0;47.7322;-122.359;1230;8100;0;0;1;0;0;0;0;0;0;0;0;0;0;1;0;0;0;1;0;0;0;0
380000.0;2;1.75;1800;7191;1.0;0;990;810;1952;0;47.4828;-122.191;1940;7400;0;0;0;1;0;0;0;0;0;0;0;0;0;0;1;0;0;0;0;0;1;0
209950.0;3;1.75;1570;15570;1.0;0;1570;0;1981;0;47.3207;-122.36200000000001;2000;28200;0;0;1;0;0;0;0;0;0;0;0;0;0;0;1;0;0;1;0;0;0;0
675000.0;3;1.5;1710;4000;2.0;0;1710;0;1926;0;47.5714;-122.385;1910;4000;0;0;1;0;0;0;0;0;0;0;0;0;0;0;0;1;0;1;0;0;0;0
665000.0;2;2.0;1615;4590;1.5;0;1615;0;1906;0;47.6886;-122.348;1470;4590;0;0;0;0;1;0;0;0;0;0;0;0;0;0;0;1;0;1;0;0;0;0
350000.0;3;1.75;1470;8645;1.0;0;1470;0;1949;0;47.7524;-122.323;1470;7680;0;0;1;0;0;0;0;0;0;0;0;0;0;1;0;0;0;1;0;0;0;0
325000.0;2;1.0;1400;10800;1.0;0;1400;0;1974;0;47.7726;-122.21;1560;11280;0;0;0;1;0;0;0;0;0;0;0;0;0;0;1;0;0;1;0;0;0;0
166000.0;3;1.0;1010;11675;1.0;0;1010;0;1957;0;47.4849;-122.301;1370;10042;0;0;1;0;0;0;0;0;0;0;0;0;0;0;1;0;0;1;0;0;0;0
445000.0;4;2.5;2360;81892;1.0;0;2360;0;2000;0;47.369;-122.156;1730;18096;0;0;1;0;0;0;0;0;0;0;0;0;0;0;0;1;0;1;0;0;0;0
470000.0;4;2.0;2410;4680;2.0;0;2410;0;1974;0;47.6234;-122.113;1910;4611;0;0;1;0;0;0;0;0;0;0;0;0;0;0;0;0;1;1;0;0;0;0
360000.0;4;2.0;1920;7803;1.0;0;1080;840;1962;0;47.758;-122.325;1940;8147;0;0;1;0;0;0;0;0;0;0;0;0;0;0;1;0;0;1;0;0;0;0
333500.0;3;1.75;1320;7200;1.0;0;1320;0;1977;0;47.7341;-122.23700000000001;1750;7260;0;0;0;1;0;0;0;0;0;0;0;0;0;0;1;0;0;1;0;0;0;0
190000.0;3;1.0;1040;8910;1.0;0;1040;0;1943;0;47.5024;-122.32;1330;9720;0;0;1;0;0;0;0;0;0;0;0;0;0;1;0;0;0;1;0;0;0;0
377500.0;2;1.0;840;4500;1.0;0;840;0;1939;0;47.5441;-122.39;1300;5000;0;0;1;0;0;0;0;0;0;0;0;0;0;1;0;0;0;1;0;0;0;0
294000.0;5;2.75;1790;5000;1.5;0;1060;730;1915;0;47.5655;-122.363;1400;5000;0;0;0;1;0;0;0;0;0;0;0;0;0;0;1;0;0;1;0;0;0;0
241000.0;2;1.75;1070;9750;1.5;0;1070;0;1995;0;47.7131;-121.319;970;9750;0;0;1;0;0;0;0;0;0;0;0;0;0;0;1;0;0;1;0;0;0;0
641000.0;5;3.5;3420;6403;2.0;0;2700;720;2013;0;47.5162;-121.874;2710;6038;0;0;1;0;0;0;0;0;0;0;0;0;0;0;0;1;0;0;0;1;0;0
535000.0;3;2.5;2280;2289;2.0;0;1880;400;2006;0;47.5375;-122.073;2280;2425;0;0;1;0;0;0;0;0;0;0;0;0;0;0;0;1;0;1;0;0;0;0
411000.0;3;1.75;1490;9844;1.0;0;1190;300;1959;0;47.7626;-122.29700000000001;1840;10150;0;0;0;1;0;0;0;0;0;0;0;0;0;0;1;0;0;1;0;0;0;0
760000.0;3;2.5;1980;13964;1.0;0;1980;0;1959;0;47.57100000000001;-122.227;2040;13964;0;0;0;0;1;0;0;0;0;0;0;0;0;0;1;0;0;1;0;0;0;0
752500.0;2;2.5;2280;6230;1.0;0;2280;0;2005;0;47.7065;-122.01299999999999;1640;5931;0;0;1;0;0;0;0;0;0;0;0;0;0;0;0;1;0;1;0;0;0;0
309780.0;3;2.5;2242;4500;2.0;0;2242;0;2014;0;47.2583;-122.198;2009;4500;0;0;1;0;0;0;0;0;0;0;0;0;0;0;0;1;0;1;0;0;0;0
524950.0;3;1.75;1750;3250;1.5;0;1230;520;1929;0;47.6807;-122.366;1480;3600;0;0;0;1;0;0;0;0;0;0;0;0;0;0;1;0;0;1;0;0;0;0
370000.0;3;1.75;1570;16817;2.0;0;1570;0;1982;0;47.4716;-121.756;1600;16817;0;0;1;0;0;0;0;0;0;0;0;0;0;0;1;0;0;1;0;0;0;0
310000.0;3;2.0;1310;1361;3.0;0;1310;0;2003;0;47.7337;-122.34299999999999;1370;1608;0;0;1;0;0;0;0;0;0;0;0;0;0;0;1;0;0;1;0;0;0;0
325000.0;3;2.5;2330;8627;1.0;0;1480;850;1980;0;47.4543;-122.21;1940;9607;0;0;0;1;0;0;0;0;0;0;0;0;0;0;1;0;0;1;0;0;0;0
309900.0;5;2.5;2100;17825;1.0;0;1400;700;1974;0;47.3094;-122.191;2200;14602;0;0;0;1;0;0;0;0;0;0;0;0;0;0;1;0;0;1;0;0;0;0
660000.0;3;1.75;1980;3300;1.5;0;1140;840;1926;0;47.6733;-122.29799999999999;1590;5000;0;0;0;1;0;0;0;0;0;0;0;0;0;0;1;0;0;1;0;0;0;0
255000.0;3;1.0;1230;10170;1.0;0;1230;0;1979;0;47.4437;-121.772;1380;10098;0;0;1;0;0;0;0;0;0;0;0;0;0;0;1;0;0;1;0;0;0;0
558000.0;4;2.25;2060;10358;1.0;0;1320;740;1962;0;47.5478;-122.17399999999999;2060;9676;0;0;0;1;0;0;0;0;0;0;0;0;0;0;0;1;0;1;0;0;0;0
100000.0;2;1.0;910;22000;1.0;0;910;0;1956;0;47.2777;-122.25200000000001;1326;9891;0;0;1;0;0;0;0;0;0;0;0;0;0;1;0;0;0;1;0;0;0;0
790000.0;3;1.75;2050;4080;2.0;0;2050;0;1991;0;47.6698;-122.325;1890;4080;0;0;1;0;0;0;0;0;0;0;0;0;0;0;0;1;0;1;0;0;0;0
799000.0;5;2.75;2500;19783;1.0;0;2500;0;1959;0;47.5938;-122.17399999999999;1700;15375;0;0;0;1;0;0;0;0;0;0;0;0;0;0;0;1;0;0;0;0;1;0
667000.0;3;1.5;1720;8100;2.0;0;1720;0;1907;0;47.6746;-122.4;2210;8100;0;0;1;0;0;0;0;0;0;0;0;0;0;0;0;1;0;1;0;0;0;0
210000.0;2;1.0;1520;4700;2.0;0;1520;0;1978;0;47.3187;-122.182;1140;3906;0;0;0;1;0;0;0;0;0;0;0;0;0;0;1;0;0;1;0;0;0;0
417500.0;3;1.0;1160;7491;1.0;0;1160;0;1917;0;47.7024;-122.359;1800;2267;0;0;0;1;0;0;0;0;0;0;0;0;0;1;0;0;0;1;0;0;0;0
990000.0;3;2.25;2630;12899;2.0;0;2630;0;1966;0;47.5479;-122.23299999999999;3140;15320;0;0;0;1;0;0;0;0;0;0;0;0;0;0;0;0;1;1;0;0;0;0
245000.0;2;1.0;1500;6685;1.0;0;1190;310;1926;0;47.7186;-122.354;1420;6561;0;0;1;0;0;0;0;0;0;0;0;0;0;0;1;0;0;1;0;0;0;0
343000.0;4;1.75;2290;10290;1.0;0;1340;950;1960;0;47.5045;-122.369;1800;7605;0;0;1;0;0;0;0;0;0;0;0;0;0;0;1;0;0;1;0;0;0;0
215000.0;3;1.0;1690;7700;1.0;0;1690;0;1969;0;47.3444;-122.304;1590;7700;0;0;0;1;0;0;0;0;0;0;0;0;0;0;1;0;0;1;0;0;0;0
345000.0;4;2.5;2420;11481;1.0;0;1370;1050;1985;0;47.341;-122.318;2290;8985;0;0;1;0;0;0;0;0;0;0;0;0;0;0;0;1;0;1;0;0;0;0
533000.0;5;2.75;1800;3780;1.5;0;1400;400;1926;0;47.6831;-122.34299999999999;1400;3780;0;0;1;0;0;0;0;0;0;0;0;0;0;0;1;0;0;1;0;0;0;0
362000.0;3;1.0;1290;10125;1.0;0;1290;0;1956;0;47.7641;-122.265;1760;14460;0;0;0;1;0;0;0;0;0;0;0;0;0;0;1;0;0;1;0;0;0;0
270000.0;3;2.25;2140;9990;1.0;0;2140;0;1962;0;47.3484;-122.29799999999999;2060;9990;0;0;0;1;0;0;0;0;0;0;0;0;0;0;0;1;0;1;0;0;0;0
246000.0;3;1.5;1630;10200;1.0;0;1300;330;1976;0;47.3155;-122.36399999999999;1960;6700;0;0;0;1;0;0;0;0;0;0;0;0;0;0;0;1;0;1;0;0;0;0
539000.0;3;2.5;1710;2300;2.0;0;1570;140;2005;0;47.6743;-122.14200000000001;2120;2856;0;0;1;0;0;0;0;0;0;0;0;0;0;0;0;1;0;1;0;0;0;0
313000.0;3;1.5;1340;7912;1.5;0;1340;0;1955;0;47.7658;-122.339;1480;7940;0;0;1;0;0;0;0;0;0;0;0;0;0;0;1;0;0;1;0;0;0;0
330600.0;1;1.0;580;1799;1.0;0;580;0;1908;2005;47.6829;-122.375;1260;4000;0;0;1;0;0;0;0;0;0;0;0;0;0;0;1;0;0;1;0;0;0;0
202200.0;2;1.75;1330;2159;1.0;0;1330;0;1979;0;47.3822;-122.32;1220;3679;0;0;0;1;0;0;0;0;0;0;0;0;0;0;0;1;0;1;0;0;0;0
505000.0;3;2.5;2100;17882;2.0;0;2100;0;1985;0;47.4754;-122.119;2080;16686;0;0;0;1;0;0;0;0;0;0;0;0;0;0;0;1;0;1;0;0;0;0
620000.0;5;1.0;2230;16800;1.5;0;1700;530;1923;0;47.5161;-122.395;2730;18400;0;0;0;1;0;0;0;0;0;0;0;0;0;0;1;0;0;0;0;0;1;0
332500.0;3;2.0;1600;7995;1.0;0;1600;0;1950;1984;47.5177;-122.257;2440;6900;0;0;1;0;0;0;0;0;0;0;0;0;0;0;1;0;0;1;0;0;0;0
390000.0;3;2.5;2350;5100;2.0;0;2350;0;2003;0;47.3512;-122.008;2350;5363;0;0;1;0;0;0;0;0;0;0;0;0;0;0;0;1;0;1;0;0;0;0
524000.0;4;2.25;2190;15491;2.0;0;2190;0;1981;0;47.6299;-122.039;2090;15039;0;0;1;0;0;0;0;0;0;0;0;0;0;0;0;1;0;1;0;0;0;0
1010000.0;3;3.25;2420;1923;2.0;0;1840;580;2006;0;47.637;-122.34100000000001;1840;2890;0;0;1;0;0;0;1;0;0;0;0;0;0;0;0;0;0;0;0;1;0;0
650000.0;4;2.0;2850;4497;1.5;0;1730;1120;1910;0;47.5876;-122.292;2450;6000;0;0;1;0;0;0;0;0;0;0;0;0;0;0;1;0;0;0;1;0;0;0
599000.0;4;2.0;3410;15143;2.0;0;3410;0;1972;1987;47.6709;-122.052;2350;25936;0;0;0;1;0;0;0;0;0;0;0;0;0;0;0;1;0;1;0;0;0;0
445000.0;3;2.25;1630;6449;1.0;0;1310;320;1986;0;47.7275;-122.23200000000001;1620;7429;0;0;1;0;0;0;0;0;0;0;0;0;0;0;1;0;0;1;0;0;0;0
439000.0;4;2.25;2060;10070;2.0;0;2060;0;1975;0;47.7258;-122.177;2060;8155;0;0;1;0;0;0;0;0;0;0;0;0;0;0;1;0;0;1;0;0;0;0
444500.0;3;2.5;2600;4724;2.0;0;2600;0;2002;0;47.5359;-121.87799999999999;2400;4724;0;0;1;0;0;0;0;0;0;0;0;0;0;0;1;0;0;1;0;0;0;0
700000.0;3;1.75;1640;4590;1.5;0;1640;0;1951;0;47.6846;-122.294;1760;5100;0;0;0;0;1;0;0;0;0;0;0;0;0;0;1;0;0;1;0;0;0;0
450000.0;2;1.0;1120;4590;1.0;0;1120;0;1924;0;47.5663;-122.285;1120;5100;0;0;1;0;0;0;0;0;0;0;0;0;0;0;1;0;0;1;0;0;0;0
330000.0;5;2.5;2600;3839;2.0;0;2600;0;2005;0;47.4324;-122.145;2180;4800;0;0;1;0;0;0;0;0;0;0;0;0;0;0;1;0;0;1;0;0;0;0
1384000.0;4;3.25;4290;12103;1.0;0;2690;1600;1997;0;47.5503;-122.102;3860;11244;0;0;1;0;0;0;0;1;0;0;0;0;0;0;0;0;0;0;0;0;1;0
545000.0;3;2.0;1610;8069;1.0;0;1090;520;1955;0;47.5754;-122.15;1510;8803;0;0;0;0;1;0;0;0;0;0;0;0;0;0;1;0;0;1;0;0;0;0
814842.0;3;2.5;3190;6899;2.0;0;3190;0;2014;0;47.7153;-122.221;3190;6899;0;0;1;0;0;0;0;0;0;0;0;0;0;0;0;0;1;1;0;0;0;0
299000.0;3;1.75;2100;15480;1.0;0;2100;0;1983;0;47.2924;-122.271;1330;15657;0;0;1;0;0;0;0;0;0;0;0;0;0;0;1;0;0;1;0;0;0;0
650000.0;4;2.5;2860;5576;2.0;0;2860;0;2004;0;47.745;-122.22399999999999;2290;10667;0;0;1;0;0;0;0;0;0;0;0;0;0;0;0;1;0;1;0;0;0;0
839000.0;4;2.75;2400;12469;1.0;0;1760;640;1958;0;47.5861;-122.11200000000001;2400;10400;0;0;0;1;0;0;0;0;0;0;0;0;0;0;0;1;0;0;0;1;0;0
495000.0;3;1.0;1570;5510;1.0;0;1070;500;1940;0;47.6942;-122.319;1770;6380;0;0;0;1;0;0;0;0;0;0;0;0;0;0;1;0;0;1;0;0;0;0
219950.0;3;2.25;1500;7615;1.0;0;1150;350;1984;0;47.3146;-122.351;1540;8649;0;0;1;0;0;0;0;0;0;0;0;0;0;0;1;0;0;1;0;0;0;0
705000.0;3;2.75;2260;4000;2.0;0;1540;720;1956;0;47.6435;-122.353;2120;4000;0;0;0;1;0;0;0;0;0;0;0;0;0;0;0;1;0;1;0;0;0;0
230000.0;3;2.25;1830;11331;1.0;0;1250;580;1965;0;47.2899;-122.287;2240;16433;0;0;1;0;0;0;0;0;0;0;0;0;0;0;1;0;0;1;0;0;0;0
2140000.0;6;4.0;5110;7128;2.5;0;5110;0;1906;0;47.6285;-122.304;4110;6480;0;0;0;1;0;0;0;1;0;0;0;0;0;0;0;0;0;1;0;0;0;0
299000.0;2;1.5;830;1276;2.0;0;830;0;2005;0;47.6175;-122.29700000000001;1540;1484;0;0;1;0;0;0;0;0;0;0;0;0;0;0;1;0;0;1;0;0;0;0
468000.0;4;2.5;2150;8165;1.0;0;1430;720;1957;0;47.773;-122.37100000000001;2360;7980;0;0;1;0;0;0;0;0;0;0;0;0;0;0;0;1;0;1;0;0;0;0
190848.0;4;1.5;1370;7904;1.0;0;900;470;1970;0;47.3344;-122.28;1370;7900;0;0;1;0;0;0;0;0;0;0;0;0;0;0;1;0;0;1;0;0;0;0
335000.0;3;2.25;1580;16215;1.0;0;1580;0;1978;0;47.5643;-121.897;1450;16215;0;0;0;1;0;0;0;0;0;0;0;0;0;0;1;0;0;1;0;0;0;0
555000.0;3;1.75;1270;9170;1.0;0;1270;0;1969;0;47.6706;-122.15100000000001;1700;8500;0;0;1;0;0;0;0;0;0;0;0;0;0;0;1;0;0;1;0;0;0;0
525000.0;4;2.0;2260;7680;1.0;0;1130;1130;1947;0;47.7193;-122.361;1800;7680;0;0;0;1;0;0;0;0;0;0;0;0;0;0;1;0;0;1;0;0;0;0
750000.0;4;2.5;2540;6491;2.0;0;2540;0;1997;0;47.6363;-122.117;1990;8447;0;0;1;0;0;0;0;0;0;0;0;0;0;0;0;1;0;1;0;0;0;0
459000.0;3;2.5;1780;4000;2.0;0;1780;0;1995;0;47.5677;-122.00299999999999;1730;4000;0;0;0;1;0;0;0;0;0;0;0;0;0;0;0;1;0;1;0;0;0;0
400000.0;3;2.0;1650;5027;1.5;0;1650;0;2009;0;47.515;-121.874;2430;6000;0;0;1;0;0;0;0;0;0;0;0;0;0;0;1;0;0;1;0;0;0;0
494000.0;3;2.5;2310;4729;2.0;0;2310;0;2011;0;47.7734;-122.23700000000001;2440;4711;0;0;1;0;0;0;0;0;0;0;0;0;0;0;0;1;0;1;0;0;0;0
165000.0;3;1.5;1020;10152;1.0;0;1020;0;1959;0;47.4971;-122.16799999999999;1320;8892;0;0;0;0;1;0;0;0;0;0;0;0;0;1;0;0;0;1;0;0;0;0
682000.0;4;2.5;2390;53941;2.0;0;2390;0;1989;0;47.7066;-122.08;2610;104108;0;0;1;0;0;0;0;0;0;0;0;0;0;0;0;1;0;1;0;0;0;0
950000.0;5;3.25;2700;3650;2.0;0;2070;630;1926;2014;47.5959;-122.291;1940;4000;0;0;1;0;0;0;0;0;0;0;0;0;0;0;0;0;1;0;0;1;0;0
414900.0;3;1.5;1260;9570;1.0;0;870;390;1941;0;47.7004;-122.305;1620;7000;0;0;1;0;0;0;0;0;0;0;0;0;0;0;1;0;0;1;0;0;0;0
1695000.0;2;2.25;3170;3000;2.0;0;1990;1180;1900;0;47.6291;-122.351;2980;5061;0;0;0;0;1;0;1;0;0;0;0;0;0;0;0;0;0;0;0;1;0;0
350000.0;2;1.0;740;7680;1.0;0;740;0;1922;0;47.5245;-122.37100000000001;1080;7680;0;0;0;1;0;0;0;0;0;0;0;0;0;1;0;0;0;1;0;0;0;0
550000.0;4;2.5;2120;9163;1.0;0;1450;670;1961;0;47.5551;-122.17200000000001;2120;9166;0;0;0;1;0;0;0;0;0;0;0;0;0;0;0;1;0;1;0;0;0;0
1100000.0;4;2.5;2910;8881;2.0;0;1940;970;1932;0;47.6424;-122.411;2540;5250;0;0;1;0;0;0;1;0;0;0;0;0;0;0;0;0;0;0;1;0;0;0
525000.0;3;1.75;1560;6000;1.0;0;780;780;1944;0;47.6501;-122.384;1560;1734;0;0;1;0;0;0;0;0;0;0;0;0;0;1;0;0;0;1;0;0;0;0
405000.0;5;2.5;2430;4781;2.0;0;2430;0;2001;0;47.4487;-122.117;2420;4770;0;0;1;0;0;0;0;0;0;0;0;0;0;0;0;0;1;1;0;0;0;0
325250.0;4;2.75;2130;9339;1.0;0;1330;800;1991;0;47.3788;-122.316;2090;7628;0;0;1;0;0;0;0;0;0;0;0;0;0;0;1;0;0;1;0;0;0;0
453000.0;4;1.75;2120;7420;1.0;0;1060;1060;1956;0;47.6019;-122.13;1540;7420;0;0;0;1;0;0;0;0;0;0;0;0;0;0;1;0;0;1;0;0;0;0
342000.0;3;2.25;1200;2845;2.0;0;1200;0;1986;0;47.7151;-122.20299999999999;1220;2140;0;0;1;0;0;0;0;0;0;0;0;0;0;0;1;0;0;1;0;0;0;0
340000.0;4;2.5;2550;7555;2.0;0;2550;0;2001;0;47.2614;-122.29;2550;6800;0;0;1;0;0;0;0;0;0;0;0;0;0;0;0;1;0;1;0;0;0;0
963000.0;4;3.5;3280;6603;2.0;0;3280;0;2007;0;47.5642;-122.126;3280;7333;0;0;1;0;0;0;1;0;0;0;0;0;0;0;0;0;0;1;0;0;0;0
392500.0;3;1.0;930;6572;1.0;0;930;0;1952;0;47.6889;-122.301;960;5840;0;0;1;0;0;0;0;0;0;0;0;0;0;0;1;0;0;1;0;0;0;0
355000.0;3;2.25;1370;1524;3.0;0;1370;0;2005;0;47.6982;-122.34700000000001;1370;1418;0;0;1;0;0;0;0;0;0;0;0;0;0;0;0;1;0;1;0;0;0;0
675000.0;3;2.75;3370;5350;1.5;0;2310;1060;1910;0;47.5373;-122.39;1720;5618;0;0;0;1;0;0;0;0;0;0;0;0;0;0;1;0;0;0;1;0;0;0
226950.0;2;1.0;930;6600;1.0;0;930;0;1957;0;47.4868;-122.33;1250;6600;0;0;1;0;0;0;0;0;0;0;0;0;0;1;0;0;0;1;0;0;0;0
635000.0;3;2.5;1530;2978;1.0;0;1210;320;1997;0;47.6796;-122.39;1640;5100;0;0;1;0;0;0;0;0;0;0;0;0;0;0;1;0;0;1;0;0;0;0
1430000.0;4;2.5;3380;27589;2.0;0;3380;0;1966;0;47.6292;-122.225;3390;20075;0;0;1;0;0;0;1;0;0;0;0;0;0;0;0;0;0;1;0;0;0;0
935000.0;4;4.5;5670;84267;2.0;0;5670;0;2008;0;47.323;-122.044;4100;83729;0;0;1;0;0;0;0;1;0;0;0;0;0;0;0;0;0;0;0;1;0;0
1465000.0;4;2.5;2800;4000;2.0;0;2800;0;2011;0;47.6695;-122.339;1770;4200;0;0;1;0;0;0;0;0;0;0;0;0;0;0;0;0;1;1;0;0;0;0
349950.0;4;2.5;1820;3134;2.0;0;1820;0;1999;0;47.7351;-121.985;1820;3751;0;0;1;0;0;0;0;0;0;0;0;0;0;0;1;0;0;1;0;0;0;0
551100.0;3;1.0;1430;8640;1.0;0;1430;0;1954;0;47.571999999999996;-122.147;1430;9840;0;0;0;0;1;0;0;0;0;0;0;0;0;0;1;0;0;1;0;0;0;0
567500.0;4;1.75;2190;5060;1.0;0;1190;1000;1950;0;47.5846;-122.387;1510;4600;0;0;1;0;0;0;0;0;0;0;0;0;0;0;1;0;0;1;0;0;0;0
526000.0;4;2.0;1610;8000;1.0;0;1190;420;1966;0;47.6301;-122.118;1560;7896;0;0;1;0;0;0;0;0;0;0;0;0;0;0;1;0;0;1;0;0;0;0
506400.0;3;2.5;2100;9040;1.0;0;1700;400;1989;0;47.5329;-122.17299999999999;2430;8809;0;0;1;0;0;0;0;0;0;0;0;0;0;0;0;1;0;1;0;0;0;0
214950.0;3;1.75;1570;4875;1.0;0;1310;260;1977;0;47.3621;-122.094;1380;5200;0;0;0;1;0;0;0;0;0;0;0;0;0;0;1;0;0;1;0;0;0;0
363500.0;4;1.75;2180;9702;1.0;0;1090;1090;1962;0;47.4973;-122.26799999999999;2020;9792;0;0;0;0;1;0;0;0;0;0;0;0;0;0;1;0;0;1;0;0;0;0
255000.0;2;1.0;740;5000;1.0;0;740;0;1926;0;47.5298;-122.273;1170;4968;0;0;0;1;0;0;0;0;0;0;0;0;0;1;0;0;0;1;0;0;0;0
426000.0;3;1.0;1130;9147;1.0;0;1130;0;1952;0;47.7006;-122.197;1930;9906;0;0;0;0;1;0;0;0;0;0;0;0;0;0;1;0;0;1;0;0;0;0
423000.0;4;1.75;1730;7245;1.0;0;880;850;1955;0;47.5995;-122.14399999999999;1550;7245;0;0;0;1;0;0;0;0;0;0;0;0;0;0;1;0;0;1;0;0;0;0
280500.0;4;2.5;1890;6962;2.0;0;1890;0;1997;0;47.3328;-122.18700000000001;2170;6803;0;0;1;0;0;0;0;0;0;0;0;0;0;0;0;1;0;1;0;0;0;0
344000.0;2;2.0;1300;4659;1.0;0;1300;0;2005;0;47.7132;-122.03299999999999;1640;4780;0;0;1;0;0;0;0;0;0;0;0;0;0;0;0;1;0;1;0;0;0;0
625000.0;3;2.5;2010;3200;2.0;0;2010;0;2009;0;47.5463;-122.015;2250;3200;0;0;1;0;0;0;0;0;0;0;0;0;0;0;0;0;1;1;0;0;0;0
428000.0;3;1.75;2120;9350;1.0;0;1280;840;1979;0;47.7562;-122.145;2200;9000;0;0;1;0;0;0;0;0;0;0;0;0;0;0;1;0;0;1;0;0;0;0
260000.0;3;1.75;1100;10968;1.0;0;1100;0;1984;0;47.363;-122.08;1400;7799;0;0;0;0;1;0;0;0;0;0;0;0;0;0;1;0;0;1;0;0;0;0
215000.0;3;1.75;1280;10016;1.0;0;1280;0;1975;0;47.2823;-122.333;1670;9764;0;0;0;1;0;0;0;0;0;0;0;0;0;0;1;0;0;1;0;0;0;0
740000.0;4;2.5;3000;10392;2.0;0;3000;0;1995;0;47.535;-122.04899999999999;3140;9213;0;0;1;0;0;0;0;0;0;0;0;0;0;0;0;0;1;1;0;0;0;0
390500.0;2;1.75;1460;426450;1.0;0;960;500;1966;0;47.2079;-121.96700000000001;1810;17350;0;0;0;0;1;0;0;0;0;0;0;0;0;0;1;0;0;1;0;0;0;0
340000.0;4;2.5;2090;4200;2.0;0;2090;0;2007;0;47.3659;-122.01700000000001;2090;4200;0;0;1;0;0;0;0;0;0;0;0;0;0;0;1;0;0;1;0;0;0;0
1850000.0;4;3.25;3480;6000;3.0;0;3480;0;2014;0;47.6353;-122.353;2200;4080;0;0;1;0;0;0;0;0;0;0;0;0;0;0;0;1;0;1;0;0;0;0
3635000.0;5;6.0;5490;19897;2.0;0;5490;0;2005;0;47.6165;-122.236;2910;17600;0;0;1;0;0;0;0;0;1;0;0;0;0;0;0;0;0;1;0;0;0;0
399000.0;3;2.5;1430;1250;3.0;0;1430;0;2007;0;47.6904;-122.34200000000001;1360;1269;0;0;1;0;0;0;0;0;0;0;0;0;0;0;1;0;0;1;0;0;0;0
290000.0;3;2.5;2020;4861;2.0;0;2020;0;2005;0;47.4659;-122.14399999999999;2170;4600;0;0;1;0;0;0;0;0;0;0;0;0;0;0;1;0;0;1;0;0;0;0
249000.0;4;2.25;1830;6136;2.0;0;1830;0;1990;0;47.367;-122.181;1830;7664;0;0;1;0;0;0;0;0;0;0;0;0;0;0;1;0;0;1;0;0;0;0
689888.0;4;2.25;1930;3500;1.5;0;1540;390;1916;0;47.6167;-122.29;1800;5000;0;0;0;0;1;0;0;0;0;0;0;0;0;0;0;1;0;1;0;0;0;0
216500.0;2;1.75;1390;4482;1.0;0;1390;0;1980;0;47.3785;-122.32;1390;4680;0;0;0;1;0;0;0;0;0;0;0;0;0;0;0;1;0;1;0;0;0;0
1600000.0;4;5.5;6530;871200;2.0;0;6530;0;2008;0;47.663999999999994;-121.87799999999999;1280;858132;0;0;1;0;0;0;0;1;0;0;0;0;0;0;0;0;0;0;0;1;0;0
695000.0;3;2.0;2500;4080;1.5;0;1680;820;1922;0;47.6813;-122.346;1550;3060;0;0;0;0;1;0;0;0;0;0;0;0;0;0;1;0;0;1;0;0;0;0
270000.0;4;2.5;1900;8282;1.0;0;1900;0;1968;1997;47.2089;-122.00299999999999;1420;8350;0;0;1;0;0;0;0;0;0;0;0;0;0;0;1;0;0;1;0;0;0;0
265000.0;3;2.5;1530;6000;2.0;0;1530;0;1991;0;47.3487;-122.036;1360;6000;0;0;0;1;0;0;0;0;0;0;0;0;0;0;1;0;0;1;0;0;0;0
856000.0;3;2.5;2160;3920;2.0;0;2160;0;2014;0;47.5762;-122.415;1500;4920;0;0;1;0;0;0;0;0;0;0;0;0;0;0;0;0;1;1;0;0;0;0
189000.0;3;1.0;1380;7282;1.5;0;1380;0;1915;0;47.3006;-122.223;860;4826;0;0;0;0;1;0;0;0;0;0;0;0;0;1;0;0;0;1;0;0;0;0
476000.0;4;1.75;2340;17541;1.0;0;1360;980;1956;0;47.745;-122.229;2250;9212;0;0;0;1;0;0;0;0;0;0;0;0;0;0;1;0;0;1;0;0;0;0
352000.0;4;2.5;2470;6116;1.0;0;1420;1050;1985;0;47.3792;-122.04700000000001;1670;7627;0;0;1;0;0;0;0;0;0;0;0;0;0;0;1;0;0;1;0;0;0;0
585000.0;3;1.5;1670;5000;1.5;0;1670;0;1912;0;47.678000000000004;-122.36;1750;5000;0;0;0;1;0;0;0;0;0;0;0;0;0;0;1;0;0;1;0;0;0;0
665000.0;3;3.5;2460;14155;2.0;0;1900;560;2014;0;47.7743;-122.279;2440;14080;0;0;1;0;0;0;0;0;0;0;0;0;0;0;0;1;0;1;0;0;0;0
450000.0;4;2.5;1900;9240;1.0;0;1900;0;1962;0;47.6167;-122.137;2040;8052;0;0;1;0;0;0;0;0;0;0;0;0;0;0;1;0;0;1;0;0;0;0
242000.0;3;1.75;1310;9645;1.0;0;1310;0;1979;0;47.4051;-122.29;1440;9893;0;0;1;0;0;0;0;0;0;0;0;0;0;0;1;0;0;1;0;0;0;0
367999.0;4;2.75;3430;8000;1.5;0;3430;0;1972;0;47.3183;-122.382;2090;8000;0;0;0;1;0;0;0;0;0;0;0;0;0;0;0;1;0;1;0;0;0;0
465000.0;4;2.25;1820;20349;1.0;0;1340;480;1977;0;47.7415;-122.096;1270;12800;0;0;0;0;1;0;0;0;0;0;0;0;0;0;0;1;0;1;0;0;0;0
440000.0;4;2.5;2800;28254;2.0;0;2800;0;2001;0;47.3552;-122.06299999999999;2530;4694;0;0;1;0;0;0;0;0;0;0;0;0;0;0;0;0;1;1;0;0;0;0
338150.0;4;2.25;2700;8580;2.0;0;2700;0;1992;0;47.2087;-122.009;2420;8580;0;0;1;0;0;0;0;0;0;0;0;0;0;0;0;1;0;1;0;0;0;0
608000.0;3;2.25;1720;5234;2.0;0;1240;480;2011;0;47.5547;-122.27799999999999;1720;5825;0;0;1;0;0;0;0;0;0;0;0;0;0;0;0;0;1;1;0;0;0;0
300000.0;3;3.25;1470;1235;2.0;0;1180;290;2008;0;47.5537;-122.31299999999999;1470;1243;0;0;1;0;0;0;0;0;0;0;0;0;0;0;1;0;0;1;0;0;0;0
515000.0;4;2.5;2680;7178;2.0;0;2680;0;2004;0;47.5325;-121.85600000000001;2540;7133;0;0;1;0;0;0;0;0;0;0;0;0;0;0;0;1;0;1;0;0;0;0
850000.0;3;2.5;2650;2387;2.0;0;1830;820;1920;0;47.6315;-122.36200000000001;1870;2216;0;0;1;0;0;0;0;0;0;0;0;0;0;0;0;1;0;1;0;0;0;0
1035000.0;4;4.0;4090;51908;2.0;0;4090;0;1991;0;47.7226;-122.039;4290;41655;0;0;1;0;0;0;0;1;0;0;0;0;0;0;0;0;0;1;0;0;0;0
830000.0;4;3.25;3330;7809;2.0;0;3330;0;2004;0;47.5977;-121.976;3100;6465;0;0;1;0;0;0;0;0;0;0;0;0;0;0;0;0;1;1;0;0;0;0
536000.0;3;2.5;1990;7397;2.0;0;1990;0;1993;0;47.7703;-122.165;2210;7397;0;0;1;0;0;0;0;0;0;0;0;0;0;0;0;0;1;1;0;0;0;0
830200.0;3;2.5;2680;4990;1.0;0;1440;1240;1951;0;47.6538;-122.39299999999999;2320;6000;0;0;0;0;1;0;0;0;0;0;0;0;0;0;0;1;0;1;0;0;0;0
610000.0;4;2.25;2090;35040;1.0;0;1490;600;1980;0;47.5739;-122.03200000000001;2910;21132;0;0;1;0;0;0;0;0;0;0;0;0;0;0;0;1;0;1;0;0;0;0
440000.0;3;1.75;1500;6180;1.0;0;1060;440;1947;0;47.5689;-122.28399999999999;1740;6180;0;0;0;1;0;0;0;0;0;0;0;0;0;1;0;0;0;1;0;0;0;0
344500.0;4;2.75;1800;5453;1.0;0;1050;750;2002;0;47.4632;-122.209;1820;6900;0;0;1;0;0;0;0;0;0;0;0;0;0;0;1;0;0;1;0;0;0;0
363750.0;3;1.75;1726;197326;2.0;0;1726;0;1982;0;47.3484;-122.505;2114;99316;0;0;0;1;0;0;0;0;0;0;0;0;0;0;1;0;0;1;0;0;0;0
690000.0;4;2.5;2700;8810;2.0;0;2700;0;2004;0;47.7041;-122.116;2730;5100;0;0;1;0;0;0;0;0;0;0;0;0;0;0;0;0;1;1;0;0;0;0
465000.0;4;1.75;1640;7194;1.5;0;1480;160;1915;0;47.7649;-122.205;1440;9405;0;0;0;1;0;0;0;0;0;0;0;0;0;0;1;0;0;1;0;0;0;0
440000.0;4;2.5;2410;4780;2.0;0;2410;0;2000;0;47.5326;-121.87899999999999;2410;4025;0;0;1;0;0;0;0;0;0;0;0;0;0;0;1;0;0;1;0;0;0;0
306000.0;4;2.5;1880;9426;2.0;0;1880;0;1990;0;47.3584;-122.089;1760;7040;0;0;0;1;0;0;0;0;0;0;0;0;0;0;1;0;0;1;0;0;0;0
340000.0;3;2.0;1870;3378;1.0;0;1120;750;1913;0;47.5371;-122.39299999999999;1870;1872;0;0;1;0;0;0;0;0;0;0;0;0;0;0;1;0;0;1;0;0;0;0
400000.0;3;1.5;1890;6183;1.0;0;1090;800;1967;0;47.5396;-122.26899999999999;1750;6183;0;0;1;0;0;0;0;0;0;0;0;0;0;0;1;0;0;1;0;0;0;0
246000.0;3;1.5;1780;23819;1.0;0;1780;0;1953;0;47.4912;-122.31200000000001;1130;14450;0;0;1;0;0;0;0;0;0;0;0;0;0;0;1;0;0;1;0;0;0;0
875000.0;4;3.5;3110;108464;2.0;0;3110;0;1979;0;47.592;-122.01799999999999;2340;4938;0;0;0;1;0;0;0;0;0;0;0;0;0;0;0;1;0;0;0;1;0;0
420000.0;3;1.75;1060;38644;1.0;0;1060;0;1983;0;47.7442;-122.072;1310;11416;0;0;1;0;0;0;0;0;0;0;0;0;0;0;1;0;0;1;0;0;0;0
1505000.0;5;3.0;3300;33474;1.0;0;1870;1430;1957;1991;47.5673;-122.21;3836;20953;0;0;1;0;0;0;0;0;0;0;0;0;0;0;0;0;1;0;0;0;1;0
336000.0;3;2.25;2820;11625;2.0;0;2820;0;1986;0;47.2621;-122.21799999999999;2290;8488;0;0;1;0;0;0;0;0;0;0;0;0;0;0;0;1;0;1;0;0;0;0
500000.0;3;2.5;3040;5326;2.0;0;3040;0;2008;0;47.4472;-122.20700000000001;3040;5442;0;0;1;0;0;0;0;0;0;0;0;0;0;0;0;0;1;1;0;0;0;0
418500.0;3;2.0;1800;12440;1.0;0;1220;580;1978;0;47.6254;-122.05;2460;12352;0;0;1;0;0;0;0;0;0;0;0;0;0;0;0;1;0;1;0;0;0;0
808000.0;8;3.75;3460;4600;2.0;0;2860;600;1987;0;47.6617;-122.289;2170;3750;0;0;1;0;0;0;0;0;0;0;0;0;0;0;1;0;0;1;0;0;0;0
399900.0;3;1.0;860;1664;1.5;0;860;0;1927;0;47.6761;-122.384;1540;4080;0;0;1;0;0;0;0;0;0;0;0;0;0;0;1;0;0;1;0;0;0;0
550000.0;4;2.5;3220;9328;2.0;0;3220;0;2006;0;47.7273;-121.958;3020;9300;0;0;1;0;0;0;0;0;0;0;0;0;0;0;0;1;0;1;0;0;0;0
150000.0;3;1.0;1240;5200;1.0;0;1240;0;1969;0;47.3701;-122.079;870;5200;0;0;1;0;0;0;0;0;0;0;0;0;0;1;0;0;0;1;0;0;0;0
850000.0;4;2.25;2130;11843;2.0;0;2130;0;1972;0;47.5358;-122.225;2380;11643;0;0;0;1;0;0;0;0;0;0;0;0;0;0;0;0;1;1;0;0;0;0
420000.0;3;1.75;1140;8558;1.0;0;1140;0;1982;0;47.7027;-122.198;1490;10530;0;0;0;1;0;0;0;0;0;0;0;0;0;0;1;0;0;1;0;0;0;0
170000.0;2;1.0;810;9882;1.0;0;810;0;1944;0;47.4925;-122.23899999999999;950;7200;0;0;1;0;0;0;0;0;0;0;0;0;0;1;0;0;0;1;0;0;0;0
730001.0;3;2.0;1840;4750;1.0;0;1010;830;1951;0;47.6862;-122.395;1760;5510;0;0;0;0;1;0;0;0;0;0;0;0;0;0;1;0;0;1;0;0;0;0
580000.0;2;1.5;1220;5000;1.0;0;1220;0;1938;0;47.6624;-122.348;2090;3850;0;0;0;1;0;0;0;0;0;0;0;0;0;0;1;0;0;0;0;1;0;0
419900.0;3;2.5;1630;1755;2.0;0;1320;310;1997;0;47.691;-122.176;1920;14550;0;0;1;0;0;0;0;0;0;0;0;0;0;0;0;1;0;1;0;0;0;0
352000.0;4;1.0;1530;8890;1.0;0;980;550;1925;0;47.5308;-122.35;1100;5203;0;0;1;0;0;0;0;0;0;0;0;0;0;0;1;0;0;1;0;0;0;0
870000.0;4;2.5;2650;12001;2.0;0;2650;0;1984;0;47.5496;-122.14;2880;14054;0;0;0;1;0;0;0;0;0;0;0;0;0;0;0;0;1;1;0;0;0;0
257000.0;2;1.0;1000;3700;1.0;0;800;200;1929;0;47.552;-122.29;1270;5000;0;0;1;0;0;0;0;0;0;0;0;0;0;1;0;0;0;1;0;0;0;0
310000.0;2;1.5;1010;10005;2.0;0;1010;0;1981;0;47.5118;-122.189;1210;7794;0;0;1;0;0;0;0;0;0;0;0;0;0;0;1;0;0;1;0;0;0;0
128750.0;3;1.0;880;7004;1.0;0;880;0;1950;0;47.3019;-122.21600000000001;880;7828;0;0;1;0;0;0;0;0;0;0;0;0;1;0;0;0;0;1;0;0;0;0
362362.0;2;1.0;710;4000;1.0;0;710;0;1909;0;47.5535;-122.26899999999999;960;4000;0;0;1;0;0;0;0;0;0;0;0;0;0;1;0;0;0;1;0;0;0;0
718500.0;3;2.0;2910;6600;2.0;0;1920;990;1900;1988;47.5576;-122.281;1370;5500;0;0;0;1;0;0;0;0;0;0;0;0;0;0;1;0;0;1;0;0;0;0
249000.0;4;1.0;1200;7552;1.0;0;1060;140;1919;0;47.5317;-122.37;1580;7680;0;0;1;0;0;0;0;0;0;0;0;0;0;1;0;0;0;1;0;0;0;0
930000.0;2;2.5;2680;11214;1.0;0;2680;0;2006;0;47.7078;-122.01899999999999;2305;6908;0;0;1;0;0;0;0;0;0;0;0;0;0;0;0;0;1;1;0;0;0;0
324950.0;3;1.5;1460;8710;1.0;0;1460;0;1955;0;47.4561;-122.35700000000001;1400;8645;0;0;1;0;0;0;0;0;0;0;0;0;0;0;1;0;0;1;0;0;0;0
364000.0;4;2.5;2080;11050;1.0;0;2080;0;1969;0;47.472;-122.119;1850;11050;0;0;0;1;0;0;0;0;0;0;0;0;0;0;0;1;0;1;0;0;0;0
443000.0;3;1.75;1530;8028;1.0;0;1200;330;1967;0;47.7768;-122.361;1530;8028;0;0;1;0;0;0;0;0;0;0;0;0;0;0;1;0;0;1;0;0;0;0
2575000.0;4;4.25;5540;15408;2.0;0;4280;1260;2006;0;47.6071;-122.212;3570;14750;0;0;1;0;0;0;0;1;0;0;0;0;0;0;0;0;0;0;1;0;0;0
275000.0;2;1.0;920;7688;1.0;0;920;0;1955;0;47.5281;-122.36200000000001;1040;7440;0;0;1;0;0;0;0;0;0;0;0;0;0;1;0;0;0;1;0;0;0;0
339950.0;3;1.0;1050;5402;1.5;0;1050;0;1906;0;47.5867;-122.311;1510;4685;0;0;0;1;0;0;0;0;0;0;0;0;0;0;1;0;0;1;0;0;0;0
349990.0;3;1.0;1350;165092;1.0;0;1350;0;1925;0;47.2217;-122.06299999999999;2300;211266;0;0;0;0;1;0;0;0;0;0;0;0;0;1;0;0;0;0;0;0;1;0
520000.0;11;3.0;3000;4960;2.0;0;2400;600;1918;1999;47.556000000000004;-122.363;1420;4960;0;0;1;0;0;0;0;0;0;0;0;0;0;0;1;0;0;1;0;0;0;0
300000.0;3;2.5;2240;3691;2.0;0;2240;0;2003;0;47.3364;-122.169;2619;3691;0;0;1;0;0;0;0;0;0;0;0;0;0;0;1;0;0;1;0;0;0;0
262000.0;3;2.5;1680;10300;2.0;0;1680;0;1994;0;47.31399999999999;-122.001;1680;9849;0;0;0;1;0;0;0;0;0;0;0;0;0;0;1;0;0;1;0;0;0;0
1810000.0;3;2.25;2910;15626;1.5;0;2510;400;1923;0;47.6534;-122.412;2370;6519;0;0;0;1;0;0;0;0;0;0;0;0;0;0;0;0;1;1;0;0;0;0
695000.0;4;3.5;3310;21050;2.0;0;2400;910;1992;0;47.5197;-122.041;2260;23400;0;0;0;0;1;0;0;0;0;0;0;0;0;0;0;0;1;1;0;0;0;0
789500.0;4;2.5;3010;6100;2.0;0;3010;0;2005;0;47.6647;-122.08;2890;5176;0;0;1;0;0;0;0;0;0;0;0;0;0;0;0;0;1;1;0;0;0;0
599950.0;3;1.0;1680;7910;1.0;0;1680;0;1949;0;47.5085;-122.385;1330;7910;0;0;1;0;0;0;0;0;0;0;0;0;0;0;1;0;0;1;0;0;0;0
710200.0;4;3.0;1670;2642;2.0;0;1350;320;2008;0;47.6397;-122.345;1670;2594;0;0;1;0;0;0;0;0;0;0;0;0;0;0;0;1;0;1;0;0;0;0
325000.0;3;2.5;1740;5267;2.0;0;1740;0;1999;0;47.3777;-122.023;2180;5000;0;0;1;0;0;0;0;0;0;0;0;0;0;0;1;0;0;1;0;0;0;0
467000.0;5;2.0;2080;4000;1.0;0;1040;1040;1909;0;47.5858;-122.30799999999999;1940;6000;0;0;0;1;0;0;0;0;0;0;0;0;0;1;0;0;0;1;0;0;0;0
348000.0;3;1.5;1330;6768;1.0;0;1330;0;1952;0;47.7366;-122.319;1320;6910;0;0;0;1;0;0;0;0;0;0;0;0;0;0;1;0;0;1;0;0;0;0
114000.0;2;1.0;730;5200;1.0;0;730;0;1928;0;47.4943;-122.337;1220;6240;0;0;1;0;0;0;0;0;0;0;0;0;0;1;0;0;0;1;0;0;0;0
395000.0;5;1.75;1840;10453;1.0;0;1360;480;1948;0;47.4508;-122.368;2250;11250;0;0;1;0;0;0;0;0;0;0;0;0;0;0;0;1;0;0;0;1;0;0
265000.0;3;2.0;1690;9516;1.0;0;1690;0;1997;0;47.2132;-122.001;1850;9516;0;0;1;0;0;0;0;0;0;0;0;0;0;0;1;0;0;1;0;0;0;0
188000.0;2;1.5;1120;17487;1.0;0;1120;0;1924;0;47.5024;-122.271;1690;8056;0;0;1;0;0;0;0;0;0;0;0;0;0;1;0;0;0;1;0;0;0;0
490000.0;3;2.75;1980;3128;2.0;0;1980;0;1979;0;47.6109;-122.11399999999999;1950;2856;0;0;0;1;0;0;0;0;0;0;0;0;0;0;0;0;1;1;0;0;0;0
780000.0;3;1.75;2340;10495;1.0;0;2340;0;1967;0;47.5386;-122.226;3120;11068;0;0;0;1;0;0;0;0;0;0;0;0;0;0;0;1;0;1;0;0;0;0
385000.0;4;1.75;1800;10890;1.5;0;1800;0;1912;0;47.5312;-122.04;1530;9818;0;0;0;1;0;0;0;0;0;0;0;0;0;1;0;0;0;1;0;0;0;0
332000.0;2;1.0;1000;4776;1.0;0;1000;0;1942;0;47.5619;-122.315;1500;4800;0;0;0;1;0;0;0;0;0;0;0;0;0;1;0;0;0;1;0;0;0;0
416500.0;3;1.0;1100;4184;1.0;0;1100;0;1965;0;47.5309;-122.382;1630;4366;0;0;0;1;0;0;0;0;0;0;0;0;0;0;1;0;0;1;0;0;0;0
1465000.0;3;1.5;2480;9900;2.0;0;2130;350;1940;0;47.7018;-122.381;2860;9288;0;0;1;0;0;0;1;0;0;0;0;0;0;0;0;0;0;0;0;0;1;0
499000.0;4;2.75;2250;14149;2.0;0;2250;0;1992;0;47.7353;-121.962;2450;14027;0;0;1;0;0;0;0;0;0;0;0;0;0;0;0;0;1;1;0;0;0;0
538200.0;4;3.0;1780;7260;1.0;0;1780;0;1964;0;47.626999999999995;-122.11399999999999;1810;7920;0;0;0;1;0;0;0;0;0;0;0;0;0;0;0;1;0;1;0;0;0;0
1620500.0;3;2.5;3490;9362;1.0;0;1770;1720;1960;0;47.6605;-122.27;3640;7425;0;0;0;0;1;0;0;0;0;0;0;0;0;0;0;0;1;0;0;0;1;0
365000.0;4;1.75;3080;32997;1.5;0;3080;0;1950;1982;47.49800000000001;-122.321;1980;5711;0;0;0;1;0;0;0;0;0;0;0;0;0;0;1;0;0;1;0;0;0;0
1325000.0;3;3.0;3180;2758;2.0;0;2240;940;2008;0;47.6377;-122.34200000000001;2420;2758;0;0;1;0;0;0;0;1;0;0;0;0;0;0;0;0;0;0;0;1;0;0
237000.0;3;1.0;1130;10650;1.0;0;1130;0;1954;0;47.4363;-122.286;1320;10650;0;0;1;0;0;0;0;0;0;0;0;0;0;0;1;0;0;1;0;0;0;0
485000.0;3;2.5;2340;59058;1.0;0;2340;0;1985;0;47.4052;-122.02799999999999;2700;37263;0;0;1;0;0;0;0;0;0;0;0;0;0;0;0;1;0;1;0;0;0;0
266000.0;4;2.25;1995;7102;2.0;0;1995;0;1981;0;47.2986;-122.37;1880;7950;0;0;0;1;0;0;0;0;0;0;0;0;0;0;0;1;0;1;0;0;0;0
350000.0;4;1.75;2740;10086;1.0;0;1440;1300;1972;0;47.5112;-122.329;1710;9840;0;0;1;0;0;0;0;0;0;0;0;0;0;0;1;0;0;1;0;0;0;0
355000.0;3;2.0;2160;8091;1.5;0;2160;0;2000;0;47.3474;-122.303;2190;8297;0;0;1;0;0;0;0;0;0;0;0;0;0;0;0;1;0;1;0;0;0;0
2125000.0;4;2.75;3190;19513;2.0;0;3190;0;1982;0;47.6991;-122.235;2750;13496;0;0;0;1;0;0;1;0;0;0;0;0;0;0;0;0;0;0;0;0;0;1
580000.0;3;2.75;2660;32757;1.0;0;2660;0;1975;0;47.7649;-122.098;2720;35191;0;0;0;1;0;0;0;0;0;0;0;0;0;0;0;1;0;1;0;0;0;0
254000.0;3;2.0;2070;9000;1.0;0;1450;620;1969;0;47.3085;-122.376;1630;7885;0;0;0;1;0;0;0;0;0;0;0;0;0;0;1;0;0;1;0;0;0;0
380000.0;3;2.5;1840;6985;1.0;0;1290;550;1971;0;47.7586;-122.34200000000001;2160;7990;0;0;1;0;0;0;0;0;0;0;0;0;0;0;1;0;0;1;0;0;0;0
610000.0;4;3.0;2110;5000;1.5;0;1640;470;1930;0;47.5195;-122.391;1380;5000;0;0;0;1;0;0;0;0;0;0;0;0;0;0;1;0;0;0;0;1;0;0
239000.0;2;1.0;1130;15190;1.0;0;1130;0;1954;0;47.3902;-122.28299999999999;1490;16920;0;0;0;1;0;0;0;0;0;0;0;0;0;0;1;0;0;1;0;0;0;0
765000.0;4;4.0;3010;7221;2.0;0;3010;0;2004;0;47.5833;-121.97;3490;7518;0;0;1;0;0;0;1;0;0;0;0;0;0;0;0;0;0;1;0;0;0;0
2537000.0;4;3.0;3710;20000;2.0;0;2760;950;1936;0;47.6696;-122.26100000000001;3970;20000;0;0;0;0;1;0;1;0;0;0;0;0;0;0;0;0;0;0;0;1;0;0
379000.0;5;2.5;2803;8550;1.0;0;2803;0;1963;2011;47.3032;-122.306;1810;8550;0;0;1;0;0;0;0;0;0;0;0;0;0;0;0;1;0;1;0;0;0;0
225000.0;3;1.0;900;6099;1.0;0;790;110;1944;0;47.4807;-122.289;1240;6099;0;0;1;0;0;0;0;0;0;0;0;0;0;1;0;0;0;1;0;0;0;0
370000.0;3;1.75;1150;6600;1.5;0;1150;0;1970;0;47.6709;-122.185;1530;6600;0;0;0;1;0;0;0;0;0;0;0;0;0;1;0;0;0;1;0;0;0;0
455000.0;4;1.75;3060;94089;1.0;0;3060;0;1958;0;47.744;-122.087;2180;43995;0;0;1;0;0;0;0;0;0;0;0;0;0;0;0;1;0;1;0;0;0;0
689000.0;3;2.5;2080;9612;1.0;0;1700;380;1940;0;47.7293;-122.28299999999999;2560;10202;0;0;0;1;0;0;0;0;0;0;0;0;0;0;0;1;0;0;0;0;1;0
359000.0;3;2.5;1450;3850;2.0;0;1450;0;2004;0;47.5318;-121.85;1970;3748;0;0;1;0;0;0;0;0;0;0;0;0;0;0;1;0;0;1;0;0;0;0
235000.0;4;1.5;1690;11054;1.0;0;1690;0;1930;0;47.4667;-122.215;1690;9040;0;0;0;1;0;0;0;0;0;0;0;0;1;0;0;0;0;1;0;0;0;0
815000.0;3;2.5;3400;12442;2.0;0;3400;0;2001;0;47.5611;-122.03200000000001;3250;8635;0;0;1;0;0;0;0;0;0;0;0;0;0;0;0;0;1;1;0;0;0;0
238000.0;1;1.0;530;6350;1.0;0;530;0;1941;0;47.6946;-122.35700000000001;1200;6350;0;0;0;0;1;0;0;0;0;0;0;0;1;0;0;0;0;1;0;0;0;0
749950.0;4;2.5;2370;2971;2.0;0;2080;290;2008;0;47.7064;-122.22399999999999;2970;7500;0;0;1;0;0;0;0;0;0;0;0;0;0;0;0;0;1;0;0;1;0;0
535000.0;4;2.75;3070;7201;2.0;0;3070;0;2006;0;47.4897;-122.147;2880;8364;0;0;1;0;0;0;0;0;0;0;0;0;0;0;0;0;1;1;0;0;0;0
1061600.0;4;3.0;2990;6695;2.0;0;2990;0;2014;0;47.5817;-122.04700000000001;2760;6600;0;0;1;0;0;0;1;0;0;0;0;0;0;0;0;0;0;1;0;0;0;0
999000.0;5;3.5;2810;2700;2.0;0;1900;910;1910;0;47.6799;-122.363;1510;3800;0;0;0;0;1;0;0;0;0;0;0;0;0;0;0;0;1;1;0;0;0;0
447000.0;3;1.0;1370;6001;1.0;0;1230;140;1944;0;47.5646;-122.31700000000001;1370;5520;0;0;0;0;1;0;0;0;0;0;0;0;0;0;1;0;0;1;0;0;0;0
850000.0;6;3.25;4920;20590;1.0;0;2730;2190;1960;0;47.5468;-122.26700000000001;3700;14994;0;0;0;1;0;0;0;0;0;0;0;0;0;0;0;0;1;0;0;0;1;0
352000.0;2;0.75;760;33801;1.0;0;760;0;1931;0;47.4703;-122.07600000000001;1100;39504;0;0;0;1;0;0;0;0;0;0;0;1;0;0;0;0;0;1;0;0;0;0
320000.0;3;1.0;1060;5000;1.0;0;1060;0;1958;0;47.5294;-122.354;1220;4600;0;0;1;0;0;0;0;0;0;0;0;0;0;0;1;0;0;1;0;0;0;0
275000.0;3;1.75;1840;14005;1.0;0;1840;0;1983;0;47.3124;-122.345;2170;7992;0;0;1;0;0;0;0;0;0;0;0;0;0;0;0;1;0;1;0;0;0;0
360000.0;2;1.0;780;4200;1.0;0;780;0;1920;0;47.5381;-122.26700000000001;1620;6000;0;0;1;0;0;0;0;0;0;0;0;0;0;1;0;0;0;1;0;0;0;0
329950.0;3;2.5;2456;7566;2.0;0;2456;0;2012;0;47.297;-122.351;2478;7212;0;0;1;0;0;0;0;0;0;0;0;0;0;0;0;1;0;1;0;0;0;0
200000.0;3;1.0;1050;5000;1.0;0;1050;0;1967;0;47.4923;-122.165;1050;5200;0;0;0;1;0;0;0;0;0;0;0;0;0;1;0;0;0;1;0;0;0;0
235000.0;2;1.0;670;5600;1.0;0;670;0;1903;0;47.5498;-122.304;1960;7176;0;0;1;0;0;0;0;0;0;0;0;0;0;1;0;0;0;1;0;0;0;0
338000.0;2;1.0;750;6439;1.0;0;750;0;1934;0;47.6995;-122.354;1470;6374;0;0;0;1;0;0;0;0;0;0;0;0;0;1;0;0;0;1;0;0;0;0
365000.0;2;1.0;770;5680;1.0;0;770;0;1929;0;47.6951;-122.366;1170;5514;0;0;0;1;0;0;0;0;0;0;0;0;0;1;0;0;0;1;0;0;0;0
510000.0;3;2.0;1410;11995;1.0;0;1410;0;1965;0;47.5718;-122.12700000000001;2690;12650;0;0;0;1;0;0;0;0;0;0;0;0;0;0;0;1;0;1;0;0;0;0
483945.0;2;1.75;1480;5120;1.0;0;840;640;1951;0;47.558;-122.39200000000001;1090;5120;0;0;0;1;0;0;0;0;0;0;0;0;0;1;0;0;0;1;0;0;0;0
614306.0;2;2.25;2210;5500;1.0;0;1410;800;1968;0;47.696999999999996;-122.39;2140;6600;0;0;0;1;0;0;0;0;0;0;0;0;0;0;0;1;0;1;0;0;0;0
1140000.0;4;1.75;3080;6500;1.0;0;1700;1380;1941;0;47.6353;-122.402;2960;5711;0;0;0;1;0;0;0;0;0;0;0;0;0;0;0;0;1;1;0;0;0;0
530000.0;2;1.75;2120;7680;1.0;0;1130;990;1948;0;47.5304;-122.374;1220;7680;0;0;0;0;1;0;0;0;0;0;0;0;0;1;0;0;0;1;0;0;0;0
319000.0;2;1.0;960;4400;1.0;0;960;0;1951;0;47.5269;-122.264;1520;5000;0;0;0;1;0;0;0;0;0;0;0;0;0;0;1;0;0;1;0;0;0;0
